%!PS-Adobe-2.0 EPSF-1.2
%%Creator: MATLAB, The Mathworks, Inc. Version 7.10.0.499 (R2010a). Operating System: Microsoft Windows 7.
%%Title: .\prob3_subsystem.eps
%%CreationDate: 05/02/2013  17:09:18
%%DocumentNeededFonts: Helvetica
%%DocumentProcessColors: Cyan Magenta Yellow Black
%%Pages: 1
%%BoundingBox:     0     0   601   848
%%EndComments

%%BeginProlog
% MathWorks dictionary
/MathWorks 160 dict begin
% definition operators
/bdef {bind def} bind def
/ldef {load def} bind def
/xdef {exch def} bdef
/xstore {exch store} bdef
% operator abbreviations
/c  /clip ldef
/cc /concat ldef
/cp /closepath ldef
/gr /grestore ldef
/gs /gsave ldef
/mt /moveto ldef
/np /newpath ldef
/cm /currentmatrix ldef
/sm /setmatrix ldef
/rm /rmoveto ldef
/rl /rlineto ldef
/s {show newpath} bdef
/sc {setcmykcolor} bdef
/sr /setrgbcolor ldef
/sg /setgray ldef
/w /setlinewidth ldef
/j /setlinejoin ldef
/cap /setlinecap ldef
/rc {rectclip} bdef
/rf {rectfill} bdef
% page state control
/pgsv () def
/bpage {/pgsv save def} bdef
/epage {pgsv restore} bdef
/bplot /gsave ldef
/eplot {stroke grestore} bdef
% orientation switch
/portraitMode 0 def /landscapeMode 1 def /rotateMode 2 def
% coordinate system mappings
/dpi2point 0 def
% font control
/FontSize 0 def
/FMS {/FontSize xstore findfont [FontSize 0 0 FontSize neg 0 0]
  makefont setfont} bdef
/ISOLatin1Encoding where {pop /WindowsLatin1Encoding 256 array bdef
ISOLatin1Encoding WindowsLatin1Encoding copy pop
/.notdef/.notdef/quotesinglbase/florin/quotedblbase/ellipsis/dagger
/daggerdbl/circumflex/perthousand/Scaron/guilsinglleft/OE/.notdef/.notdef
/.notdef/.notdef/quoteleft/quoteright/quotedblleft/quotedblright/bullet
/endash/emdash/tilde/trademark/scaron/guilsinglright/oe/.notdef/.notdef
/Ydieresis WindowsLatin1Encoding 128 32 getinterval astore pop}
{/WindowsLatin1Encoding StandardEncoding bdef} ifelse
/reencode {exch dup where {pop load} {pop StandardEncoding} ifelse
  exch dup 3 1 roll findfont dup length dict begin
  { 1 index /FID ne {def}{pop pop} ifelse } forall
  /Encoding exch def currentdict end definefont pop} bdef
/isroman {findfont /CharStrings get /Agrave known} bdef
/FMSR {3 1 roll 1 index dup isroman {reencode} {pop pop} ifelse
  exch FMS} bdef
/csm {1 dpi2point div -1 dpi2point div scale neg translate
 dup landscapeMode eq {pop -90 rotate}
  {rotateMode eq {90 rotate} if} ifelse} bdef
% line types: solid, dotted, dashed, dotdash
/SO { [] 0 setdash } bdef
/DO { [.5 dpi2point mul 4 dpi2point mul] 0 setdash } bdef
/DA { [6 dpi2point mul] 0 setdash } bdef
/DD { [.5 dpi2point mul 4 dpi2point mul 6 dpi2point mul 4
  dpi2point mul] 0 setdash } bdef
% macros for lines and objects
/L {lineto stroke} bdef
/MP {3 1 roll moveto 1 sub {rlineto} repeat} bdef
/AP {{rlineto} repeat} bdef
/PDlw -1 def
/W {/PDlw currentlinewidth def setlinewidth} def
/PP {closepath eofill} bdef
/DP {closepath stroke} bdef
/MR {4 -2 roll moveto dup  0 exch rlineto exch 0 rlineto
  neg 0 exch rlineto closepath} bdef
/FR {MR stroke} bdef
/PR {MR fill} bdef
/L1i {{currentfile picstr readhexstring pop} image} bdef
/tMatrix matrix def
/MakeOval {newpath tMatrix currentmatrix pop translate scale
0 0 1 0 360 arc tMatrix setmatrix} bdef
/FO {MakeOval stroke} bdef
/PO {MakeOval fill} bdef
/PD {currentlinewidth 2 div 0 360 arc fill
   PDlw -1 eq not {PDlw w /PDlw -1 def} if} def
/FA {newpath tMatrix currentmatrix pop translate scale
  0 0 1 5 -2 roll arc tMatrix setmatrix stroke} bdef
/PA {newpath tMatrix currentmatrix pop	translate 0 0 moveto scale
  0 0 1 5 -2 roll arc closepath tMatrix setmatrix fill} bdef
/FAn {newpath tMatrix currentmatrix pop translate scale
  0 0 1 5 -2 roll arcn tMatrix setmatrix stroke} bdef
/PAn {newpath tMatrix currentmatrix pop translate 0 0 moveto scale
  0 0 1 5 -2 roll arcn closepath tMatrix setmatrix fill} bdef
/vradius 0 def /hradius 0 def /lry 0 def
/lrx 0 def /uly 0 def /ulx 0 def /rad 0 def
/MRR {/vradius xdef /hradius xdef /lry xdef /lrx xdef /uly xdef
  /ulx xdef newpath tMatrix currentmatrix pop ulx hradius add uly
  vradius add translate hradius vradius scale 0 0 1 180 270 arc 
  tMatrix setmatrix lrx hradius sub uly vradius add translate
  hradius vradius scale 0 0 1 270 360 arc tMatrix setmatrix
  lrx hradius sub lry vradius sub translate hradius vradius scale
  0 0 1 0 90 arc tMatrix setmatrix ulx hradius add lry vradius sub
  translate hradius vradius scale 0 0 1 90 180 arc tMatrix setmatrix
  closepath} bdef
/FRR {MRR stroke } bdef
/PRR {MRR fill } bdef
/MlrRR {/lry xdef /lrx xdef /uly xdef /ulx xdef /rad lry uly sub 2 div def
  newpath tMatrix currentmatrix pop ulx rad add uly rad add translate
  rad rad scale 0 0 1 90 270 arc tMatrix setmatrix lrx rad sub lry rad
  sub translate rad rad scale 0 0 1 270 90 arc tMatrix setmatrix
  closepath} bdef
/FlrRR {MlrRR stroke } bdef
/PlrRR {MlrRR fill } bdef
/MtbRR {/lry xdef /lrx xdef /uly xdef /ulx xdef /rad lrx ulx sub 2 div def
  newpath tMatrix currentmatrix pop ulx rad add uly rad add translate
  rad rad scale 0 0 1 180 360 arc tMatrix setmatrix lrx rad sub lry rad
  sub translate rad rad scale 0 0 1 0 180 arc tMatrix setmatrix
  closepath} bdef
/FtbRR {MtbRR stroke } bdef
/PtbRR {MtbRR fill } bdef
/stri 6 array def /dtri 6 array def
/smat 6 array def /dmat 6 array def
/tmat1 6 array def /tmat2 6 array def /dif 3 array def
/asub {/ind2 exch def /ind1 exch def dup dup
  ind1 get exch ind2 get sub exch } bdef
/tri_to_matrix {
  2 0 asub 3 1 asub 4 0 asub 5 1 asub
  dup 0 get exch 1 get 7 -1 roll astore } bdef
/compute_transform {
  dmat dtri tri_to_matrix tmat1 invertmatrix 
  smat stri tri_to_matrix tmat2 concatmatrix } bdef
/ds {stri astore pop} bdef
/dt {dtri astore pop} bdef
/db {2 copy /cols xdef /rows xdef mul dup string
  currentfile exch readhexstring pop
  /bmap xdef pop pop} bdef
/it {gs np dtri aload pop moveto lineto lineto cp c
  cols rows 8 compute_transform 
  {bmap} image gr}bdef
/il {newpath moveto lineto stroke}bdef
currentdict end def
%%EndProlog

%%BeginSetup
MathWorks begin

0 cap

end
%%EndSetup

%%Page: 1 1
%%BeginPageSetup
%%PageBoundingBox:     0     0   601   848
MathWorks begin
bpage
%%EndPageSetup

%%BeginObject: obj1
bplot

/dpi2point 4.16667 def
portraitMode 0000 3520 csm

    0   -16  2505  3533 MR c np
85 dict begin %Colortable dictionary
/c0 { 0.000000 0.000000 0.000000 sr} bdef
/c1 { 1.000000 1.000000 1.000000 sr} bdef
/c2 { 0.900000 0.000000 0.000000 sr} bdef
/c3 { 0.000000 0.820000 0.000000 sr} bdef
/c4 { 0.000000 0.000000 0.800000 sr} bdef
/c5 { 0.910000 0.820000 0.320000 sr} bdef
/c6 { 1.000000 0.260000 0.820000 sr} bdef
/c7 { 0.000000 0.820000 0.820000 sr} bdef
c0
1 j
1 sg
   0    0 2494 3522 PR
2.08333 w
0 -3516 -2487 0 0 3516 2487 0 0 0 5 MP
PP
0 -3516 -2488 0 0 3516 2488 0 0 0 5 MP
PP
gs 496 1358 1501 797 MR c np
-65 0 -12 -2 -9 -6 -6 -9 -3 -12 0 0 3 -11 6 -10 
9 -6 12 -2 65 0 12 2 9 6 7 10 2 11 0 0 
-2 12 -7 9 -9 6 -12 2 1884 1387 21 MP
PP
1.5625 w
0 sg
0 0 -65 0 -12 -2 -9 -6 -6 -9 -3 -12 0 0 3 -11 
6 -10 9 -6 12 -2 65 0 12 2 9 6 7 10 2 11 
0 0 -2 12 -7 9 -9 6 -12 2 1884 1387 22 MP stroke
%%IncludeResource: font Helvetica
/Helvetica /WindowsLatin1Encoding 41.6667 FMSR

1904 1493 mt 
(u) s
2.08333 w
gr

0 sg
gs 1855 1387 126 60 MR c np
%%IncludeResource: font Helvetica
/Helvetica /WindowsLatin1Encoding 41.6667 FMSR

1905 1433 mt 
(1) s
gr

gs 496 1359 1501 796 MR c np
1 sg
0 -83 -83 0 0 83 83 0 1188 1812 5 MP
PP
0 sg
%%IncludeResource: font Helvetica
/Helvetica /WindowsLatin1Encoding 41.6667 FMSR

1123 1944 mt 
(Terminator) s
gr

gs 1188 1812 84 85 MR c np
1.5625 w
42 0 1212 1875 2 MP stroke
0 -42 1254 1875 2 MP stroke
-42 0 1254 1833 2 MP stroke
58 0 1196 1854 2 MP stroke
2.08333 w
gr

gs 496 1359 1501 796 MR c np
1.5625 w
0 0 0 -83 -83 0 0 83 83 0 1188 1812 6 MP stroke
0 j
1 sg
  44   43 1419 1668 PO
1 j
0 j
0 sg
  44   43 1419 1668 FO
1 j
2.08333 w
gr

gs 1376 1625 84 84 MR c np
1.5625 w
17 0 1388 1666 2 MP stroke
0 16 1396 1658 2 MP stroke
16 0 1409 1687 2 MP stroke
2.08333 w
gr

gs 496 1359 1501 796 MR c np
1.5625 w
0 j
1 sg
  43   43 1710 1418 PO
1 j
0 j
0 sg
  43   43 1710 1418 FO
1 j
2.08333 w
gr

gs 1667 1375 85 84 MR c np
1.5625 w
17 0 1679 1416 2 MP stroke
0 16 1688 1408 2 MP stroke
17 0 1700 1437 2 MP stroke
2.08333 w
gr

gs 496 1359 1501 796 MR c np
1 sg
0 -100 -271 0 0 100 271 0 542 1991 5 MP
PP
0 sg
%%IncludeResource: font Helvetica
/Helvetica /WindowsLatin1Encoding 41.6667 FMSR

 500 2139 mt 
(Optimal trajectory) s
gr

gs 542 1992 272 101 MR c np
%%IncludeResource: font Helvetica
/Helvetica /WindowsLatin1Encoding 41.6667 FMSR

 639 2059 mt 
([t x]) s
gr

gs 496 1359 1501 796 MR c np
1.5625 w
0 0 0 -100 -271 0 0 100 271 0 542 1991 6 MP stroke
1 sg
0 -99 -271 0 0 99 271 0 542 1367 5 MP
PP
0 sg
%%IncludeResource: font Helvetica
/Helvetica /WindowsLatin1Encoding 41.6667 FMSR

 540 1515 mt 
(Optimal input) s
2.08333 w
gr

gs 542 1367 272 101 MR c np
%%IncludeResource: font Helvetica
/Helvetica /WindowsLatin1Encoding 41.6667 FMSR

 637 1434 mt 
([t u]) s
gr

gs 496 1359 1501 796 MR c np
1.5625 w
0 0 0 -99 -271 0 0 99 271 0 542 1367 6 MP stroke
1 sg
0 -112 -21 0 0 112 21 0 1063 1787 5 MP
PP
0 sg
0 -112 -21 0 0 112 21 0 1063 1787 5 MP
PP
2.08333 w
gr

gs 496 1359 1501 796 MR c np
1.5625 w
0 0 0 -112 -21 0 0 112 21 0 1063 1787 6 MP stroke
1 sg
0 -296 -21 0 0 296 21 0 1125 1508 5 MP
PP
0 sg
0 -296 -21 0 0 296 21 0 1125 1508 5 MP
PP
2.08333 w
gr

gs 496 1359 1501 796 MR c np
1.5625 w
0 0 0 -296 -21 0 0 296 21 0 1125 1508 6 MP stroke
1 sg
0 -133 -125 67 0 0 125 66 1563 1600 5 MP
PP
0 sg
0 -133 -125 67 125 66 1563 1600 4 MP stroke
%%IncludeResource: font Helvetica
/Helvetica /WindowsLatin1Encoding 41.6667 FMSR

1531 1781 mt 
(LQR gain) s
2.08333 w
gr

gs 1563 1600 126 134 MR c np
%%IncludeResource: font Helvetica
/Helvetica /WindowsLatin1Encoding 41.6667 FMSR

1560 1683 mt 
(K*u) s
gr

gs 496 1359 1501 796 MR c np
1 sg
0 -395 -21 0 0 395 21 0 938 1521 5 MP
PP
0 sg
0 -395 -21 0 0 395 21 0 938 1521 5 MP
PP
gr

gs 496 1359 1501 796 MR c np
1.5625 w
0 0 0 -395 -21 0 0 395 21 0 938 1521 6 MP stroke
1 sg
-65 0 -12 -2 -10 -6 -6 -9 -2 -11 0 -1 2 -11 6 -9 
10 -7 12 -2 65 0 11 2 10 7 6 9 3 11 0 1 
-3 11 -6 9 -10 6 -11 2 634 1700 21 MP
PP
0 sg
0 0 -65 0 -12 -2 -10 -6 -6 -9 -2 -11 0 -1 2 -11 
6 -9 10 -7 12 -2 65 0 11 2 10 7 6 9 3 11 
0 1 -3 11 -6 9 -10 6 -11 2 634 1700 22 MP stroke
%%IncludeResource: font Helvetica
/Helvetica /WindowsLatin1Encoding 41.6667 FMSR

 656 1806 mt 
(x) s
2.08333 w
gr

gs 605 1700 126 59 MR c np
%%IncludeResource: font Helvetica
/Helvetica /WindowsLatin1Encoding 41.6667 FMSR

 655 1746 mt 
(1) s
gr

gs 496 1359 1501 796 MR c np
1.5625 w
21 0 1750 1417 2 MP stroke
-42 0 1834 1417 2 MP stroke
-41 -21 41 -20 0 41 1813 1396 4 MP
PP
8 0 21 0 8 0 1763 1417 4 MP stroke
20 0 1459 1666 2 MP stroke
-42 0 1542 1666 2 MP stroke
-42 -21 42 -21 0 42 1521 1645 4 MP
PP
9 0 21 0 8 0 1471 1666 4 MP stroke
21 0 1688 1666 2 MP stroke
0 42 1709 1479 2 MP stroke
-21 42 -20 -42 41 0 1688 1500 4 MP
PP
0 -154 9 0 1700 1666 3 MP stroke
21 0 813 1417 2 MP stroke
-42 0 1646 1417 2 MP stroke
-42 -21 42 -20 0 41 1625 1396 4 MP
PP
9 0 770 0 9 0 825 1417 4 MP stroke
21 0 729 1729 2 MP stroke
-42 0 917 1729 2 MP stroke
-42 -21 42 -21 0 42 896 1708 4 MP
PP
9 0 125 0 8 0 742 1729 4 MP stroke
21 0 1146 1666 2 MP stroke
-41 0 1354 1666 2 MP stroke
-41 -21 41 -21 0 42 1334 1645 4 MP
PP
8 0 146 0 8 0 1159 1666 4 MP stroke
20 0 959 1562 2 MP stroke
-41 0 1104 1562 2 MP stroke
-41 -21 41 -21 0 42 1084 1541 4 MP
PP
8 0 84 0 8 0 971 1562 4 MP stroke
20 0 959 1625 2 MP stroke
-41 0 1104 1625 2 MP stroke
-41 -21 41 -20 0 41 1084 1604 4 MP
PP
8 0 84 0 8 0 971 1625 4 MP stroke
20 0 959 1687 2 MP stroke
-41 0 1104 1687 2 MP stroke
-41 -21 41 -21 0 42 1084 1666 4 MP
PP
8 0 84 0 8 0 971 1687 4 MP stroke
20 0 959 1750 2 MP stroke
-41 0 1104 1750 2 MP stroke
-41 -21 41 -20 0 41 1084 1729 4 MP
PP
8 0 84 0 8 0 971 1750 4 MP stroke
20 0 959 1812 2 MP stroke
-42 0 1042 1812 2 MP stroke
-42 -21 42 -21 0 42 1021 1791 4 MP
PP
9 0 21 0 8 0 971 1812 4 MP stroke
20 0 959 1874 2 MP stroke
-42 0 1042 1874 2 MP stroke
-42 -20 42 -21 0 41 1021 1854 4 MP
PP
9 0 21 0 8 0 971 1874 4 MP stroke
20 0 1084 1854 2 MP stroke
-42 0 1167 1854 2 MP stroke
-42 -21 42 -20 0 41 1146 1833 4 MP
PP
9 0 21 0 8 0 1096 1854 4 MP stroke
21 0 813 2041 2 MP stroke
0 41 1417 1729 2 MP stroke
-21 42 -21 -42 42 0 1396 1750 4 MP
PP
0 -279 583 0 9 0 825 2041 4 MP stroke
2.08333 w
gr


end %%Color Dict

eplot
%%EndObject

epage
end

showpage

%%Trailer
%%EOF
