%!PS-Adobe-2.0 EPSF-1.2
%%Creator: MATLAB, The Mathworks, Inc. Version 7.10.0.499 (R2010a). Operating System: Microsoft Windows 7.
%%Title: .\prob4_subsystem.eps
%%CreationDate: 05/02/2013  17:16:16
%%DocumentNeededFonts: Helvetica
%%DocumentProcessColors: Cyan Magenta Yellow Black
%%Pages: 1
%%BoundingBox:     0     0   601   848
%%EndComments

%%BeginProlog
% MathWorks dictionary
/MathWorks 160 dict begin
% definition operators
/bdef {bind def} bind def
/ldef {load def} bind def
/xdef {exch def} bdef
/xstore {exch store} bdef
% operator abbreviations
/c  /clip ldef
/cc /concat ldef
/cp /closepath ldef
/gr /grestore ldef
/gs /gsave ldef
/mt /moveto ldef
/np /newpath ldef
/cm /currentmatrix ldef
/sm /setmatrix ldef
/rm /rmoveto ldef
/rl /rlineto ldef
/s {show newpath} bdef
/sc {setcmykcolor} bdef
/sr /setrgbcolor ldef
/sg /setgray ldef
/w /setlinewidth ldef
/j /setlinejoin ldef
/cap /setlinecap ldef
/rc {rectclip} bdef
/rf {rectfill} bdef
% page state control
/pgsv () def
/bpage {/pgsv save def} bdef
/epage {pgsv restore} bdef
/bplot /gsave ldef
/eplot {stroke grestore} bdef
% orientation switch
/portraitMode 0 def /landscapeMode 1 def /rotateMode 2 def
% coordinate system mappings
/dpi2point 0 def
% font control
/FontSize 0 def
/FMS {/FontSize xstore findfont [FontSize 0 0 FontSize neg 0 0]
  makefont setfont} bdef
/ISOLatin1Encoding where {pop /WindowsLatin1Encoding 256 array bdef
ISOLatin1Encoding WindowsLatin1Encoding copy pop
/.notdef/.notdef/quotesinglbase/florin/quotedblbase/ellipsis/dagger
/daggerdbl/circumflex/perthousand/Scaron/guilsinglleft/OE/.notdef/.notdef
/.notdef/.notdef/quoteleft/quoteright/quotedblleft/quotedblright/bullet
/endash/emdash/tilde/trademark/scaron/guilsinglright/oe/.notdef/.notdef
/Ydieresis WindowsLatin1Encoding 128 32 getinterval astore pop}
{/WindowsLatin1Encoding StandardEncoding bdef} ifelse
/reencode {exch dup where {pop load} {pop StandardEncoding} ifelse
  exch dup 3 1 roll findfont dup length dict begin
  { 1 index /FID ne {def}{pop pop} ifelse } forall
  /Encoding exch def currentdict end definefont pop} bdef
/isroman {findfont /CharStrings get /Agrave known} bdef
/FMSR {3 1 roll 1 index dup isroman {reencode} {pop pop} ifelse
  exch FMS} bdef
/csm {1 dpi2point div -1 dpi2point div scale neg translate
 dup landscapeMode eq {pop -90 rotate}
  {rotateMode eq {90 rotate} if} ifelse} bdef
% line types: solid, dotted, dashed, dotdash
/SO { [] 0 setdash } bdef
/DO { [.5 dpi2point mul 4 dpi2point mul] 0 setdash } bdef
/DA { [6 dpi2point mul] 0 setdash } bdef
/DD { [.5 dpi2point mul 4 dpi2point mul 6 dpi2point mul 4
  dpi2point mul] 0 setdash } bdef
% macros for lines and objects
/L {lineto stroke} bdef
/MP {3 1 roll moveto 1 sub {rlineto} repeat} bdef
/AP {{rlineto} repeat} bdef
/PDlw -1 def
/W {/PDlw currentlinewidth def setlinewidth} def
/PP {closepath eofill} bdef
/DP {closepath stroke} bdef
/MR {4 -2 roll moveto dup  0 exch rlineto exch 0 rlineto
  neg 0 exch rlineto closepath} bdef
/FR {MR stroke} bdef
/PR {MR fill} bdef
/L1i {{currentfile picstr readhexstring pop} image} bdef
/tMatrix matrix def
/MakeOval {newpath tMatrix currentmatrix pop translate scale
0 0 1 0 360 arc tMatrix setmatrix} bdef
/FO {MakeOval stroke} bdef
/PO {MakeOval fill} bdef
/PD {currentlinewidth 2 div 0 360 arc fill
   PDlw -1 eq not {PDlw w /PDlw -1 def} if} def
/FA {newpath tMatrix currentmatrix pop translate scale
  0 0 1 5 -2 roll arc tMatrix setmatrix stroke} bdef
/PA {newpath tMatrix currentmatrix pop	translate 0 0 moveto scale
  0 0 1 5 -2 roll arc closepath tMatrix setmatrix fill} bdef
/FAn {newpath tMatrix currentmatrix pop translate scale
  0 0 1 5 -2 roll arcn tMatrix setmatrix stroke} bdef
/PAn {newpath tMatrix currentmatrix pop translate 0 0 moveto scale
  0 0 1 5 -2 roll arcn closepath tMatrix setmatrix fill} bdef
/vradius 0 def /hradius 0 def /lry 0 def
/lrx 0 def /uly 0 def /ulx 0 def /rad 0 def
/MRR {/vradius xdef /hradius xdef /lry xdef /lrx xdef /uly xdef
  /ulx xdef newpath tMatrix currentmatrix pop ulx hradius add uly
  vradius add translate hradius vradius scale 0 0 1 180 270 arc 
  tMatrix setmatrix lrx hradius sub uly vradius add translate
  hradius vradius scale 0 0 1 270 360 arc tMatrix setmatrix
  lrx hradius sub lry vradius sub translate hradius vradius scale
  0 0 1 0 90 arc tMatrix setmatrix ulx hradius add lry vradius sub
  translate hradius vradius scale 0 0 1 90 180 arc tMatrix setmatrix
  closepath} bdef
/FRR {MRR stroke } bdef
/PRR {MRR fill } bdef
/MlrRR {/lry xdef /lrx xdef /uly xdef /ulx xdef /rad lry uly sub 2 div def
  newpath tMatrix currentmatrix pop ulx rad add uly rad add translate
  rad rad scale 0 0 1 90 270 arc tMatrix setmatrix lrx rad sub lry rad
  sub translate rad rad scale 0 0 1 270 90 arc tMatrix setmatrix
  closepath} bdef
/FlrRR {MlrRR stroke } bdef
/PlrRR {MlrRR fill } bdef
/MtbRR {/lry xdef /lrx xdef /uly xdef /ulx xdef /rad lrx ulx sub 2 div def
  newpath tMatrix currentmatrix pop ulx rad add uly rad add translate
  rad rad scale 0 0 1 180 360 arc tMatrix setmatrix lrx rad sub lry rad
  sub translate rad rad scale 0 0 1 0 180 arc tMatrix setmatrix
  closepath} bdef
/FtbRR {MtbRR stroke } bdef
/PtbRR {MtbRR fill } bdef
/stri 6 array def /dtri 6 array def
/smat 6 array def /dmat 6 array def
/tmat1 6 array def /tmat2 6 array def /dif 3 array def
/asub {/ind2 exch def /ind1 exch def dup dup
  ind1 get exch ind2 get sub exch } bdef
/tri_to_matrix {
  2 0 asub 3 1 asub 4 0 asub 5 1 asub
  dup 0 get exch 1 get 7 -1 roll astore } bdef
/compute_transform {
  dmat dtri tri_to_matrix tmat1 invertmatrix 
  smat stri tri_to_matrix tmat2 concatmatrix } bdef
/ds {stri astore pop} bdef
/dt {dtri astore pop} bdef
/db {2 copy /cols xdef /rows xdef mul dup string
  currentfile exch readhexstring pop
  /bmap xdef pop pop} bdef
/it {gs np dtri aload pop moveto lineto lineto cp c
  cols rows 8 compute_transform 
  {bmap} image gr}bdef
/il {newpath moveto lineto stroke}bdef
currentdict end def
%%EndProlog

%%BeginSetup
MathWorks begin

0 cap

end
%%EndSetup

%%Page: 1 1
%%BeginPageSetup
%%PageBoundingBox:     0     0   601   848
MathWorks begin
bpage
%%EndPageSetup

%%BeginObject: obj1
bplot

/dpi2point 4.16667 def
portraitMode 0000 3520 csm

    0   -16  2505  3533 MR c np
85 dict begin %Colortable dictionary
/c0 { 0.000000 0.000000 0.000000 sr} bdef
/c1 { 1.000000 1.000000 1.000000 sr} bdef
/c2 { 0.900000 0.000000 0.000000 sr} bdef
/c3 { 0.000000 0.820000 0.000000 sr} bdef
/c4 { 0.000000 0.000000 0.800000 sr} bdef
/c5 { 0.910000 0.820000 0.320000 sr} bdef
/c6 { 1.000000 0.260000 0.820000 sr} bdef
/c7 { 0.000000 0.820000 0.820000 sr} bdef
c0
1 j
1 sg
   0    0 2494 3522 PR
2.08333 w
0 -3516 -2487 0 0 3516 2487 0 0 0 5 MP
PP
0 -3516 -2488 0 0 3516 2488 0 0 0 5 MP
PP
gs 601 1433 1292 647 MR c np
-65 0 -12 -2 -9 -7 -6 -9 -3 -11 0 -1 3 -11 6 -9 
9 -6 12 -3 65 0 12 3 9 6 7 9 2 11 0 1 
-2 11 -7 9 -9 7 -12 2 1780 1624 21 MP
PP
1.5625 w
0 sg
0 0 -65 0 -12 -2 -9 -7 -6 -9 -3 -11 0 -1 3 -11 
6 -9 9 -6 12 -3 65 0 12 3 9 6 7 9 2 11 
0 1 -2 11 -7 9 -9 7 -12 2 1780 1624 22 MP stroke
%%IncludeResource: font Helvetica
/Helvetica /WindowsLatin1Encoding 41.6667 FMSR

1764 1731 mt 
(u_ec) s
2.08333 w
gr

0 sg
gs 1751 1625 126 59 MR c np
%%IncludeResource: font Helvetica
/Helvetica /WindowsLatin1Encoding 41.6667 FMSR

1801 1671 mt 
(2) s
gr

gs 600 1434 1293 646 MR c np
1 sg
-65 0 -12 -2 -10 -6 -6 -10 -2 -11 0 0 2 -12 6 -9 
10 -6 12 -2 65 0 11 2 10 6 6 9 3 12 0 0 
-3 11 -6 10 -10 6 -11 2 1780 1479 21 MP
PP
1.5625 w
0 sg
0 0 -65 0 -12 -2 -10 -6 -6 -10 -2 -11 0 0 2 -12 
6 -9 10 -6 12 -2 65 0 11 2 10 6 6 9 3 12 
0 0 -3 11 -6 10 -10 6 -11 2 1780 1479 22 MP stroke
%%IncludeResource: font Helvetica
/Helvetica /WindowsLatin1Encoding 41.6667 FMSR

1765 1586 mt 
(u_pc) s
2.08333 w
gr

gs 1751 1479 126 59 MR c np
%%IncludeResource: font Helvetica
/Helvetica /WindowsLatin1Encoding 41.6667 FMSR

1801 1525 mt 
(1) s
gr

gs 600 1434 1293 646 MR c np
1.5625 w
0 j
1 sg
  43   43 1085 1801 PO
1 j
0 j
0 sg
  43   43 1085 1801 FO
1 j
2.08333 w
gr

gs 1042 1758 85 85 MR c np
1.5625 w
17 0 1054 1800 2 MP stroke
0 17 1063 1791 2 MP stroke
17 0 1075 1821 2 MP stroke
2.08333 w
gr

gs 600 1434 1293 646 MR c np
1.5625 w
0 j
1 sg
  44   43 1419 1593 PO
1 j
0 j
0 sg
  44   43 1419 1593 FO
1 j
2.08333 w
gr

gs 1376 1550 84 84 MR c np
1.5625 w
17 0 1388 1591 2 MP stroke
0 16 1396 1583 2 MP stroke
16 0 1409 1612 2 MP stroke
2.08333 w
gr

gs 600 1434 1293 646 MR c np
1 sg
0 -100 -271 0 0 100 271 0 646 1916 5 MP
PP
0 sg
%%IncludeResource: font Helvetica
/Helvetica /WindowsLatin1Encoding 41.6667 FMSR

 604 2064 mt 
(Optimal trajectory) s
gr

gs 646 1917 272 101 MR c np
%%IncludeResource: font Helvetica
/Helvetica /WindowsLatin1Encoding 41.6667 FMSR

 731 1984 mt 
([t x1]) s
gr

gs 600 1434 1293 646 MR c np
1.5625 w
0 0 0 -100 -271 0 0 100 271 0 646 1916 6 MP stroke
1 sg
0 -100 -271 0 0 100 271 0 646 1541 5 MP
PP
0 sg
%%IncludeResource: font Helvetica
/Helvetica /WindowsLatin1Encoding 41.6667 FMSR

 644 1690 mt 
(Optimal input) s
2.08333 w
gr

gs 646 1542 272 101 MR c np
%%IncludeResource: font Helvetica
/Helvetica /WindowsLatin1Encoding 41.6667 FMSR

 729 1609 mt 
([t u1]) s
gr

gs 600 1434 1293 646 MR c np
1.5625 w
0 0 0 -100 -271 0 0 100 271 0 646 1541 6 MP stroke
1 sg
0 -125 -125 63 0 0 125 62 1250 1737 5 MP
PP
0 sg
0 -125 -125 63 125 62 1250 1737 4 MP stroke
%%IncludeResource: font Helvetica
/Helvetica /WindowsLatin1Encoding 41.6667 FMSR

1219 1910 mt 
(LQR gain) s
2.08333 w
gr

gs 1251 1737 126 126 MR c np
%%IncludeResource: font Helvetica
/Helvetica /WindowsLatin1Encoding 41.6667 FMSR

1244 1816 mt 
(K*u) s
gr

gs 600 1434 1293 646 MR c np
1 sg
0 -278 -21 0 0 278 21 0 1625 1442 5 MP
PP
0 sg
0 -278 -21 0 0 278 21 0 1625 1442 5 MP
PP
gr

gs 600 1434 1293 646 MR c np
1.5625 w
0 0 0 -278 -21 0 0 278 21 0 1625 1442 6 MP stroke
1 sg
-65 0 -12 -3 -10 -6 -6 -9 -2 -11 0 -1 2 -11 6 -9 
10 -6 12 -3 65 0 11 3 10 6 6 9 3 11 0 1 
-3 11 -6 9 -10 6 -11 3 738 1770 21 MP
PP
0 sg
0 0 -65 0 -12 -3 -10 -6 -6 -9 -2 -11 0 -1 2 -11 
6 -9 10 -6 12 -3 65 0 11 3 10 6 6 9 3 11 
0 1 -3 11 -6 9 -10 6 -11 3 738 1770 22 MP stroke
%%IncludeResource: font Helvetica
/Helvetica /WindowsLatin1Encoding 41.6667 FMSR

 761 1877 mt 
(x) s
2.08333 w
gr

gs 709 1771 126 59 MR c np
%%IncludeResource: font Helvetica
/Helvetica /WindowsLatin1Encoding 41.6667 FMSR

 759 1817 mt 
(1) s
gr

gs 600 1434 1293 646 MR c np
1.5625 w
21 0 1125 1799 2 MP stroke
-41 0 1229 1799 2 MP stroke
-41 -20 41 -21 0 41 1209 1779 4 MP
PP
8 0 42 0 8 0 1138 1799 4 MP stroke
21 0 917 1966 2 MP stroke
0 41 1084 1862 2 MP stroke
-21 42 -20 -42 41 0 1063 1883 4 MP
PP
0 -71 146 0 9 0 929 1966 4 MP stroke
21 0 917 1591 2 MP stroke
-41 0 1354 1591 2 MP stroke
-41 -20 41 -21 0 41 1334 1571 4 MP
PP
8 0 375 0 9 0 929 1591 4 MP stroke
21 0 833 1799 2 MP stroke
-42 0 1021 1799 2 MP stroke
-42 -20 42 -21 0 41 1000 1779 4 MP
PP
9 0 125 0 8 0 846 1799 4 MP stroke
21 0 1646 1508 2 MP stroke
-42 0 1730 1508 2 MP stroke
-41 -21 41 -21 0 42 1709 1487 4 MP
PP
8 0 21 0 8 0 1659 1508 4 MP stroke
21 0 1646 1654 2 MP stroke
-42 0 1730 1654 2 MP stroke
-41 -21 41 -21 0 42 1709 1633 4 MP
PP
8 0 21 0 8 0 1659 1654 4 MP stroke
20 0 1459 1591 2 MP stroke
-42 0 1605 1591 2 MP stroke
-41 -20 41 -21 0 41 1584 1571 4 MP
PP
8 0 84 0 8 0 1471 1591 4 MP stroke
21 0 1375 1799 2 MP stroke
0 41 1417 1654 2 MP stroke
-21 42 -21 -42 42 0 1396 1675 4 MP
PP
0 -112 21 0 8 0 1388 1799 4 MP stroke
2.08333 w
gr


end %%Color Dict

eplot
%%EndObject

epage
end

showpage

%%Trailer
%%EOF
