%!PS-Adobe-3.0 EPSF-3.0
%%Creator: MATLAB, The MathWorks, Inc. Version 7.14.0.739 (R2012a). Operating System: Linux 3.8.4-102.fc17.x86_64 #1 SMP Sun Mar 24 13:09:09 UTC 2013 x86_64.
%%Title: /home/erik/Dropbox/TTK4135/optreg-helikopter/report/figs/prob2_pitch.eps
%%CreationDate: 04/20/2013  15:42:00
%%DocumentNeededFonts: Helvetica
%%DocumentProcessColors: Cyan Magenta Yellow Black
%%LanguageLevel: 2
%%Pages: 1
%%BoundingBox:   -13    81   626   710
%%EndComments

%%BeginProlog
% MathWorks dictionary
/MathWorks 160 dict begin
% definition operators
/bdef {bind def} bind def
/ldef {load def} bind def
/xdef {exch def} bdef
/xstore {exch store} bdef
% operator abbreviations
/c  /clip ldef
/cc /concat ldef
/cp /closepath ldef
/gr /grestore ldef
/gs /gsave ldef
/mt /moveto ldef
/np /newpath ldef
/cm /currentmatrix ldef
/sm /setmatrix ldef
/rm /rmoveto ldef
/rl /rlineto ldef
/s {show newpath} bdef
/sc {setcmykcolor} bdef
/sr /setrgbcolor ldef
/sg /setgray ldef
/w /setlinewidth ldef
/j /setlinejoin ldef
/cap /setlinecap ldef
/rc {rectclip} bdef
/rf {rectfill} bdef
% page state control
/pgsv () def
/bpage {/pgsv save def} bdef
/epage {pgsv restore} bdef
/bplot /gsave ldef
/eplot {stroke grestore} bdef
% orientation switch
/portraitMode 0 def /landscapeMode 1 def /rotateMode 2 def
% coordinate system mappings
/dpi2point 0 def
% font control
/FontSize 0 def
/FMS {/FontSize xstore findfont [FontSize 0 0 FontSize neg 0 0]
  makefont setfont} bdef
/reencode {exch dup where {pop load} {pop StandardEncoding} ifelse
  exch dup 3 1 roll findfont dup length dict begin
  { 1 index /FID ne {def}{pop pop} ifelse } forall
  /Encoding exch def currentdict end definefont pop} bdef
/isroman {findfont /CharStrings get /Agrave known} bdef
/FMSR {3 1 roll 1 index dup isroman {reencode} {pop pop} ifelse
  exch FMS} bdef
/csm {1 dpi2point div -1 dpi2point div scale neg translate
 dup landscapeMode eq {pop -90 rotate}
  {rotateMode eq {90 rotate} if} ifelse} bdef
% line types: solid, dotted, dashed, dotdash
/SO { [] 0 setdash } bdef
/DO { [.5 dpi2point mul 4 dpi2point mul] 0 setdash } bdef
/DA { [6 dpi2point mul] 0 setdash } bdef
/DD { [.5 dpi2point mul 4 dpi2point mul 6 dpi2point mul 4
  dpi2point mul] 0 setdash } bdef
% macros for lines and objects
/L {lineto stroke} bdef
/MP {3 1 roll moveto 1 sub {rlineto} repeat} bdef
/AP {{rlineto} repeat} bdef
/PDlw -1 def
/W {/PDlw currentlinewidth def setlinewidth} def
/PP {closepath eofill} bdef
/DP {closepath stroke} bdef
/MR {4 -2 roll moveto dup  0 exch rlineto exch 0 rlineto
  neg 0 exch rlineto closepath} bdef
/FR {MR stroke} bdef
/PR {MR fill} bdef
/L1i {{currentfile picstr readhexstring pop} image} bdef
/tMatrix matrix def
/MakeOval {newpath tMatrix currentmatrix pop translate scale
0 0 1 0 360 arc tMatrix setmatrix} bdef
/FO {MakeOval stroke} bdef
/PO {MakeOval fill} bdef
/PD {currentlinewidth 2 div 0 360 arc fill
   PDlw -1 eq not {PDlw w /PDlw -1 def} if} def
/FA {newpath tMatrix currentmatrix pop translate scale
  0 0 1 5 -2 roll arc tMatrix setmatrix stroke} bdef
/PA {newpath tMatrix currentmatrix pop	translate 0 0 moveto scale
  0 0 1 5 -2 roll arc closepath tMatrix setmatrix fill} bdef
/FAn {newpath tMatrix currentmatrix pop translate scale
  0 0 1 5 -2 roll arcn tMatrix setmatrix stroke} bdef
/PAn {newpath tMatrix currentmatrix pop translate 0 0 moveto scale
  0 0 1 5 -2 roll arcn closepath tMatrix setmatrix fill} bdef
/vradius 0 def /hradius 0 def /lry 0 def
/lrx 0 def /uly 0 def /ulx 0 def /rad 0 def
/MRR {/vradius xdef /hradius xdef /lry xdef /lrx xdef /uly xdef
  /ulx xdef newpath tMatrix currentmatrix pop ulx hradius add uly
  vradius add translate hradius vradius scale 0 0 1 180 270 arc 
  tMatrix setmatrix lrx hradius sub uly vradius add translate
  hradius vradius scale 0 0 1 270 360 arc tMatrix setmatrix
  lrx hradius sub lry vradius sub translate hradius vradius scale
  0 0 1 0 90 arc tMatrix setmatrix ulx hradius add lry vradius sub
  translate hradius vradius scale 0 0 1 90 180 arc tMatrix setmatrix
  closepath} bdef
/FRR {MRR stroke } bdef
/PRR {MRR fill } bdef
/MlrRR {/lry xdef /lrx xdef /uly xdef /ulx xdef /rad lry uly sub 2 div def
  newpath tMatrix currentmatrix pop ulx rad add uly rad add translate
  rad rad scale 0 0 1 90 270 arc tMatrix setmatrix lrx rad sub lry rad
  sub translate rad rad scale 0 0 1 270 90 arc tMatrix setmatrix
  closepath} bdef
/FlrRR {MlrRR stroke } bdef
/PlrRR {MlrRR fill } bdef
/MtbRR {/lry xdef /lrx xdef /uly xdef /ulx xdef /rad lrx ulx sub 2 div def
  newpath tMatrix currentmatrix pop ulx rad add uly rad add translate
  rad rad scale 0 0 1 180 360 arc tMatrix setmatrix lrx rad sub lry rad
  sub translate rad rad scale 0 0 1 0 180 arc tMatrix setmatrix
  closepath} bdef
/FtbRR {MtbRR stroke } bdef
/PtbRR {MtbRR fill } bdef
/stri 6 array def /dtri 6 array def
/smat 6 array def /dmat 6 array def
/tmat1 6 array def /tmat2 6 array def /dif 3 array def
/asub {/ind2 exch def /ind1 exch def dup dup
  ind1 get exch ind2 get sub exch } bdef
/tri_to_matrix {
  2 0 asub 3 1 asub 4 0 asub 5 1 asub
  dup 0 get exch 1 get 7 -1 roll astore } bdef
/compute_transform {
  dmat dtri tri_to_matrix tmat1 invertmatrix 
  smat stri tri_to_matrix tmat2 concatmatrix } bdef
/ds {stri astore pop} bdef
/dt {dtri astore pop} bdef
/db {2 copy /cols xdef /rows xdef mul dup 3 mul string
  currentfile 
  3 index 0 eq {/ASCIIHexDecode filter}
  {/ASCII85Decode filter 3 index 2 eq {/RunLengthDecode filter} if }
  ifelse exch readstring pop
  dup 0 3 index getinterval /rbmap xdef
  dup 2 index dup getinterval /gbmap xdef
  1 index dup 2 mul exch getinterval /bbmap xdef pop pop}bdef
/it {gs np dtri aload pop moveto lineto lineto cp c
  cols rows 8 compute_transform 
  rbmap gbmap bbmap true 3 colorimage gr}bdef
/il {newpath moveto lineto stroke}bdef
currentdict end def
%%EndProlog

%%BeginSetup
MathWorks begin

0 cap

end
%%EndSetup

%%Page: 1 1
%%BeginPageSetup
%%PageBoundingBox:   -13    81   626   710
MathWorks begin
bpage
%%EndPageSetup

%%BeginObject: obj1
bplot

/dpi2point 12 def
portraitMode -0156 8520 csm

    0     0  7670  7545 rc
86 dict begin %Colortable dictionary
/c0 { 0.000000 0.000000 0.000000 sr} bdef
/c1 { 1.000000 1.000000 1.000000 sr} bdef
/c2 { 0.900000 0.000000 0.000000 sr} bdef
/c3 { 0.000000 0.820000 0.000000 sr} bdef
/c4 { 0.000000 0.000000 0.800000 sr} bdef
/c5 { 0.910000 0.820000 0.320000 sr} bdef
/c6 { 1.000000 0.260000 0.820000 sr} bdef
/c7 { 0.000000 0.820000 0.820000 sr} bdef
c0
1 j
1 sg
   0    0 7671 7546 rf
6 w
0 1628 5944 0 0 -1628 997 2194 4 MP
PP
-5944 0 0 1628 5944 0 0 -1628 997 2194 5 MP stroke
4 w
DO
SO
6 w
0 sg
 997 2194 mt 6941 2194 L
 997 2194 mt  997  566 L
 997 2194 mt  997 2134 L
%%IncludeResource: font Helvetica
/Helvetica /ISOLatin1Encoding 120 FMSR

 964 2339 mt 
(5) s
2978 2194 mt 2978 2134 L
2912 2339 mt 
(10) s
4959 2194 mt 4959 2134 L
4893 2339 mt 
(15) s
6941 2194 mt 6941 2134 L
6875 2339 mt 
(20) s
 997 2194 mt 1056 2194 L
 759 2238 mt 
(-60) s
 997 1868 mt 1056 1868 L
 759 1912 mt 
(-40) s
 997 1542 mt 1056 1542 L
 759 1586 mt 
(-20) s
 997 1217 mt 1056 1217 L
 896 1261 mt 
(0) s
 997  891 mt 1056  891 L
 829  935 mt 
(20) s
 997  566 mt 1056  566 L
 829  610 mt 
(40) s
gs 997 566 5945 1629 rc
DA
24 w
/c8 { 1.000000 0.000000 0.000000 sr} bdef
c8
1 0 1 0 1 0 1 -1 1 0 1 0 1 0 1 0 
1 0 1 0 1 0 1 0 1 0 1 0 1 0 1 0 
1 0 1 0 1 0 1 0 0 -2 1 0 1 0 1 0 
1 0 1 0 1 0 1 0 1 0 1 0 1 0 1 0 
1 0 1 0 1 0 1 0 1 0 1 0 1 0 1 0 
1 0 1 -1 1 0 1 0 1 0 1 0 1 0 1 0 
1 0 1 0 1 0 1 0 1 0 1 0 1 0 1 0 
1 0 1 0 1 -1 1 0 1 0 1 0 1 0 1 0 
1 0 1 0 1 0 1 0 1 0 1 0 1 0 1 0 
1 0 1 0 1 -2 1 0 1 0 1 0 1 0 1 0 
1 0 1 0 1 0 1 0 1 0 1 0 1 0 1 0 
1 -1 1 0 1 0 1 0 1 0 1 0 1 0 1 0 
1 0 1 0 1 0 1 0 1 0 1 0 1 0 1 -2 
1 0 1 0 1 0 1 0 1 0 1 0 1 0 1 0 
1 0 1 0 1 0 1 0 1 -1 1 0 1 0 1 0 
1 0 1 0 1 0 1 0 1 0 1 0 1 0 1 0 
1 0 0 -2 1 0 1 0 1 0 1 0 1 0 1 0 
1 0 1 0 1 0 1 0 1 0 1 -1 1 0 1 0 
1 0 1 0 1 0 1 0 1 0 1 0 1 0 1 0 
1 -1 1 0 1 0 1 0 1 0 1 0 1 0 1 0 
1 0 1 0 0 -2 1 0 1 0 1 0 1 0 1 0 
1 0 1 0 1 0 1 -1 1 0 1 0 1 0 1 0 
1 0 1 0 1 0 1 0 1 0 1 -2 1 0 1 0 
1 0 1 0 1 0 1 0 1 0 1 0 1 -1 1 0 
1 0 1 0 1 0 1 0 1 0 1 0 1 0 0 -2 
1 0 1 0 1 0 1 0 1 0 1 0 1 0 1 0 
1 -1 1 0 1 0 1 0 1 0 1 0 1 0 1 0 
1 -1 1 0 1 0 1 0 1 0 1 0 1 0 1 0 
0 -2 1 0 1 0 1 0 1 0 1 0 1 0 1 0 
1 0 1 0 1 -1 1 0 1 0 1 0 1 0 1 0 
0 -2 1 0 1 0 1 0 1 0 1 0 1 0 1 0 
1 0 1 -1 1 0 1 0 1 0 1 0 1 0 0 -2 
1 0 1 0 1 0 1 0 1 0 1 0 1 0 1 0 
1 -1 1 0 1 0 1 0 1 0 1 0 1 -1 1 0 
1 0 1 0 1 0 1 0 1 0 1 0 0 -2 1 0 
1 0 1 0 1 0 1 0 1 0 1 -1 1 0 1 0 
1 0 1 0 1 0 1 0 1 0 0 -2 1 0 1 0 
1 0 1 0 1 0 6652 1237 300 MP stroke
1 -1 1 0 1 0 1 0 1 0 1 0 1 0 0 -2 
1 0 1 0 1 0 1 0 1 0 1 -1 1 0 1 0 
1 0 1 0 1 0 1 0 1 -1 1 0 1 0 1 0 
1 0 1 -2 1 0 1 0 1 0 1 0 1 -1 1 0 
1 0 1 0 1 0 1 0 1 -2 1 0 1 0 1 0 
1 0 1 -1 1 0 1 0 1 0 1 0 1 0 0 -2 
1 0 1 0 1 0 1 0 1 0 1 -1 1 0 1 0 
1 0 1 -1 1 0 1 0 1 0 1 0 1 0 1 -2 
1 0 1 0 1 0 1 0 1 -1 1 0 1 0 1 0 
1 0 0 -2 1 0 1 0 1 0 1 0 1 0 1 -1 
1 0 1 0 1 0 1 -2 1 0 1 0 1 0 1 0 
1 0 1 -1 1 0 1 0 1 0 1 -1 1 0 1 0 
1 0 1 -2 1 0 1 0 1 0 1 0 1 0 1 -1 
1 0 1 0 1 0 1 -2 1 0 1 0 1 0 1 -1 
1 0 1 0 1 0 1 0 1 -2 1 0 1 0 1 0 
1 0 1 -1 1 0 1 0 1 0 0 -2 1 0 1 0 
1 0 1 0 1 -1 1 0 1 0 1 0 1 0 1 -1 
1 0 1 0 1 0 0 -2 1 0 1 0 1 0 1 0 
1 -1 1 0 1 0 1 0 0 -2 1 0 1 0 1 0 
1 0 1 -1 1 0 1 0 1 0 0 -2 1 0 1 0 
1 0 1 0 1 0 1 -1 1 0 1 0 1 -1 1 0 
1 0 1 -2 1 0 1 0 1 0 1 0 1 0 1 -1 
1 0 1 0 1 -2 1 0 1 0 1 -1 1 0 1 0 
1 0 1 -2 1 0 1 0 1 0 1 0 1 -1 1 0 
1 0 1 -1 1 0 1 0 0 -2 1 0 1 0 1 0 
1 0 1 -1 1 0 1 0 1 0 0 -2 1 0 1 0 
1 0 1 -1 1 0 1 0 1 -2 1 0 1 0 1 0 
1 -1 1 0 1 0 1 0 1 -1 1 0 1 0 0 -2 
1 0 1 0 1 -1 1 0 1 0 1 0 0 -2 1 0 
1 0 1 0 1 -1 1 0 1 0 1 -2 1 0 1 0 
1 -1 1 0 1 0 1 -1 1 0 1 0 1 -2 1 0 
1 0 1 0 1 -1 1 0 0 -2 1 0 1 0 1 0 
1 -1 1 0 1 0 0 -2 1 0 1 0 1 0 1 -1 
1 0 1 -1 1 0 1 0 1 -2 1 0 1 0 1 -1 
1 0 1 0 1 -2 1 0 1 0 1 -1 1 0 1 0 
0 -2 1 0 1 0 1 -1 1 0 1 0 1 -1 1 0 
1 0 1 -2 1 0 1 0 1 0 1 -1 1 0 1 -2 
1 0 1 0 1 -1 6367 1341 300 MP stroke
1 0 1 -2 1 0 1 0 1 0 1 -1 1 0 1 0 
1 -1 1 0 1 0 0 -2 1 0 1 0 1 -1 1 0 
1 0 1 -2 1 0 1 0 1 -1 1 0 1 0 0 -2 
1 0 1 0 1 0 1 -1 1 0 1 0 0 -2 1 0 
1 0 1 0 1 -1 1 0 1 0 1 -1 1 0 1 -2 
1 0 1 0 1 -1 1 0 1 0 0 -2 1 0 1 0 
1 0 1 -1 1 0 1 0 0 -2 1 0 1 0 1 0 
1 -1 1 0 1 -1 1 0 1 0 1 -2 1 0 1 0 
1 -1 1 0 1 0 1 -2 1 0 1 0 1 -1 1 0 
1 0 0 -2 1 0 1 0 1 0 1 -1 1 0 1 0 
1 -1 1 0 1 0 1 -2 1 0 1 0 1 -1 1 0 
1 -2 1 0 1 0 1 -1 1 0 1 0 1 0 0 -2 
1 0 1 0 1 -1 1 0 1 0 1 -1 1 0 1 0 
0 -2 1 0 1 0 1 0 1 -1 1 0 1 0 0 -2 
1 0 1 0 1 -1 1 0 1 0 0 -2 1 0 1 0 
1 0 1 -1 1 0 1 0 1 -1 1 0 0 -2 1 0 
1 0 1 -1 1 0 1 0 0 -2 1 0 1 0 1 -1 
1 0 1 0 0 -2 1 0 1 0 1 -1 1 0 1 -1 
1 0 1 -2 1 0 1 0 1 -1 1 0 0 -2 1 0 
1 0 1 -1 1 0 0 -2 1 0 1 0 1 -1 1 0 
1 -1 1 0 1 -2 1 0 1 -1 1 0 1 -2 1 0 
1 -1 1 0 1 -2 1 0 1 -1 1 0 1 -1 1 0 
1 -2 1 0 1 -1 1 0 0 -2 1 0 1 0 1 -1 
1 0 0 -2 1 0 1 -1 1 0 1 -2 1 0 1 -1 
1 0 1 -1 1 0 1 -2 1 0 1 -1 1 0 0 -2 
1 0 1 0 1 -1 1 -2 1 0 1 -1 1 0 1 -1 
1 0 0 -2 1 0 1 0 1 -1 1 -2 1 0 1 -1 
1 0 0 -2 1 0 1 0 1 -1 1 0 1 -1 1 -2 
1 0 1 -1 1 0 1 -2 1 0 1 -1 1 0 1 -2 
1 0 1 -1 1 0 1 -1 1 0 0 -2 1 0 1 0 
1 -1 1 0 0 -2 1 0 1 0 1 -1 1 0 0 -2 
1 0 1 0 1 -1 1 0 1 -1 1 0 0 -2 1 0 
1 0 1 -1 1 0 0 -2 1 0 1 0 1 -1 1 0 
0 -2 1 0 1 0 1 -1 1 0 1 -1 1 0 1 0 
0 -2 1 0 1 0 1 -1 1 0 1 0 0 -2 1 0 
1 0 1 -1 1 0 0 -2 1 0 1 0 1 -1 1 0 
1 0 1 -1 1 0 1 0 0 -2 1 0 1 0 1 0 
1 -1 1 0 0 -2 6099 1506 300 MP stroke
1 0 1 0 1 -1 1 0 1 0 1 -2 1 0 1 0 
1 -1 1 0 1 0 1 -1 1 0 1 0 1 0 1 -2 
1 0 1 0 1 -1 1 0 1 0 1 0 0 -2 1 0 
1 0 1 0 1 -1 1 0 1 0 0 -2 1 0 1 0 
1 0 1 0 1 -1 1 0 1 0 0 -2 1 0 1 0 
1 0 1 0 1 -1 1 0 1 0 1 -1 1 0 1 0 
0 -2 1 0 1 0 1 0 1 0 1 -1 1 0 1 0 
0 -2 1 0 1 0 1 0 1 -1 1 0 1 0 0 -2 
1 0 1 0 1 0 1 -1 1 0 1 0 1 0 1 -1 
1 0 1 -2 1 0 1 -1 1 0 1 0 1 0 0 -2 
1 0 1 0 1 -1 1 0 1 0 0 -2 1 0 1 0 
1 -1 1 0 1 0 1 -1 1 0 1 -2 1 0 1 0 
1 -1 1 0 1 -2 1 0 1 -1 1 0 1 0 0 -2 
1 0 1 0 1 -1 1 0 1 -1 1 0 1 -2 1 0 
1 0 1 -1 1 0 0 -2 1 0 1 0 1 -1 1 0 
0 -2 1 0 1 0 1 -1 1 0 1 -1 1 0 0 -2 
1 0 1 0 1 -1 1 0 1 -2 1 0 1 -1 1 0 
1 -2 1 0 1 -1 1 0 1 -1 1 0 1 -2 1 0 
1 -1 1 -2 1 0 1 -1 1 0 1 -2 1 0 1 -1 
1 0 1 -1 1 -2 1 0 1 -1 1 0 0 -2 1 0 
1 0 1 -1 1 -2 1 0 1 -1 1 0 1 -1 1 0 
1 -2 1 0 1 -1 1 -2 1 0 1 -1 1 0 0 -2 
1 0 1 -1 1 0 0 -2 1 0 1 0 1 -1 1 0 
1 -1 1 0 0 -2 1 0 1 0 1 -1 0 -2 1 0 
1 -1 1 0 1 -2 1 0 1 0 1 -1 1 -1 1 0 
0 -2 1 0 1 -1 1 0 1 -2 1 0 1 0 1 -1 
1 -2 1 0 1 -1 1 0 1 0 1 -1 1 0 1 -2 
1 0 1 -1 1 0 0 -2 1 0 1 0 1 -1 1 0 
1 0 0 -2 1 0 1 0 1 -1 1 0 1 0 1 -1 
1 0 1 -2 1 0 1 -1 1 0 1 0 0 -2 1 0 
1 0 1 0 1 0 1 -1 1 0 1 0 0 -2 1 0 
1 0 1 -1 1 0 1 0 1 0 1 -1 1 0 1 0 
1 0 1 0 0 -2 1 0 1 0 1 0 1 0 1 -1 
1 0 1 0 1 -2 1 0 1 0 1 0 1 0 1 -1 
1 0 1 0 1 0 1 -2 1 0 1 0 1 0 1 -1 
1 0 1 0 1 0 1 0 1 -1 1 0 1 0 1 0 
1 0 0 -2 1 0 1 0 1 0 1 0 1 -1 1 0 
1 0 1 0 1 0 5824 1660 300 MP stroke
1 -2 1 0 1 0 1 0 1 0 1 -1 1 0 1 0 
1 0 1 0 0 -2 1 0 1 0 1 0 1 0 1 0 
1 0 1 -1 1 0 1 0 1 0 1 0 1 -1 1 0 
1 0 1 0 1 0 1 0 1 0 1 0 1 0 1 -2 
1 0 1 0 1 0 1 0 1 0 1 0 1 0 1 0 
1 0 1 0 1 0 1 0 1 0 1 -1 1 0 1 0 
1 0 1 0 1 0 1 0 1 0 1 0 1 0 1 0 
1 0 1 0 1 0 1 0 1 0 1 0 1 0 1 0 
1 0 1 0 1 0 1 0 1 0 1 0 1 0 1 0 
1 0 1 0 1 0 1 0 1 0 1 0 1 0 1 0 
1 0 1 0 1 0 1 0 1 0 1 0 1 0 1 0 
1 0 1 0 1 0 1 0 1 0 1 0 1 1 1 0 
1 0 1 0 1 0 1 -1 1 0 1 0 1 0 1 0 
1 1 1 0 1 0 1 0 1 0 1 0 1 0 1 0 
1 0 1 0 1 0 1 0 1 0 1 0 1 0 1 0 
1 0 1 0 1 0 1 0 1 0 1 0 1 0 1 0 
1 0 1 0 1 0 1 0 1 0 1 0 1 0 1 0 
1 0 1 0 1 0 1 0 1 0 1 0 1 0 1 0 
1 0 1 0 1 0 1 0 1 0 1 0 1 0 1 0 
1 0 1 0 1 0 1 0 1 0 1 0 1 0 1 0 
1 0 1 0 1 0 1 0 1 0 1 0 1 0 1 0 
1 0 1 0 1 0 1 0 1 0 1 0 1 0 1 0 
1 0 1 0 1 0 1 0 1 0 1 0 1 0 1 0 
1 0 1 0 1 0 1 0 1 0 1 0 1 0 1 0 
1 0 1 0 1 0 1 0 1 0 1 0 1 0 1 2 
1 0 1 0 1 0 1 -2 1 0 1 0 1 0 1 0 
1 0 0 2 1 0 1 0 1 0 1 0 1 0 1 0 
1 0 1 0 1 0 1 0 1 0 1 0 1 0 1 0 
1 0 1 0 1 0 1 0 1 0 1 0 1 0 1 0 
1 0 1 0 1 0 1 0 1 0 1 0 1 0 1 0 
1 0 1 0 1 0 1 0 1 0 1 0 1 0 1 0 
1 0 1 0 1 0 1 0 1 0 1 0 1 0 1 0 
1 0 1 0 1 0 1 0 1 0 1 0 1 0 1 0 
1 0 1 0 1 0 1 0 1 0 1 0 1 0 1 0 
1 0 1 0 1 0 1 0 1 0 1 0 1 0 1 0 
1 0 1 0 1 0 1 0 1 0 1 0 1 0 1 0 
1 0 1 1 1 0 1 0 1 0 1 0 1 0 1 0 
1 0 1 0 1 0 5527 1666 300 MP stroke
1 0 1 0 1 0 1 0 1 0 1 0 1 0 1 0 
1 0 1 0 1 0 1 0 1 0 1 0 1 0 1 0 
1 0 1 0 1 0 1 0 1 0 1 0 1 0 1 0 
1 0 1 0 1 0 1 0 1 0 1 0 1 0 1 0 
1 0 1 0 1 0 1 0 1 0 1 0 1 0 1 0 
1 0 1 0 1 0 1 0 1 0 1 0 1 0 1 0 
1 0 1 0 1 0 1 0 1 0 1 0 1 0 1 0 
1 0 1 0 1 0 1 0 1 1 1 0 1 0 1 0 
1 0 1 -1 1 0 1 0 1 0 1 1 1 0 1 0 
1 0 1 0 1 0 1 0 1 0 1 0 1 0 1 0 
1 0 1 0 1 0 1 0 1 0 1 0 1 0 1 0 
1 0 1 0 1 0 1 0 1 0 1 0 1 0 1 0 
1 0 1 0 1 0 1 0 1 0 1 0 1 0 1 0 
1 0 1 0 1 0 1 0 1 0 1 0 1 0 1 0 
1 0 1 0 1 0 1 0 1 0 1 0 1 0 1 0 
1 0 1 0 1 0 1 0 1 0 1 0 1 0 1 0 
1 0 1 0 1 0 1 0 1 0 1 0 1 2 1 0 
1 0 1 0 1 0 1 0 1 0 1 0 1 0 1 0 
1 0 1 0 1 0 1 0 1 0 1 0 1 0 1 0 
1 0 1 0 1 0 1 0 1 0 1 0 1 0 1 0 
1 0 1 0 1 0 1 0 1 0 1 0 1 0 1 0 
1 0 1 0 1 0 1 0 1 0 1 0 1 0 1 0 
1 0 1 0 1 0 1 0 1 0 1 0 1 0 1 0 
1 0 1 0 1 0 1 0 1 0 1 0 1 0 1 0 
1 0 1 0 1 0 1 0 1 0 1 0 1 0 1 0 
1 0 1 0 1 0 1 0 1 0 1 1 1 0 1 0 
1 0 1 0 1 0 1 0 1 0 1 0 1 0 1 0 
1 0 1 0 1 0 1 0 1 0 1 0 1 0 1 0 
1 0 1 0 1 0 1 0 1 0 1 0 1 0 1 0 
1 0 1 0 1 0 1 0 1 0 1 0 1 0 1 0 
1 0 1 0 1 0 1 0 1 0 1 0 1 0 1 0 
0 2 1 0 1 0 1 0 1 0 1 0 1 0 1 0 
1 0 1 0 1 0 1 0 1 0 1 0 1 0 1 0 
1 0 1 0 1 0 1 0 1 0 1 0 1 0 1 0 
1 0 1 0 1 0 1 0 1 0 1 0 1 0 1 0 
1 0 1 0 1 0 1 0 1 0 1 0 1 0 1 0 
1 0 1 0 1 0 1 0 1 0 1 0 1 0 1 0 
1 0 1 0 1 0 5229 1660 300 MP stroke
1 0 1 0 1 0 1 0 1 0 1 0 1 0 1 0 
1 0 1 0 1 0 1 0 1 0 1 0 1 0 1 0 
1 0 1 0 1 0 1 0 1 0 1 0 1 0 1 0 
1 0 1 0 1 0 1 0 1 0 1 0 1 0 1 0 
1 0 1 0 1 0 1 0 1 0 1 0 1 0 1 0 
1 1 1 0 1 0 1 0 1 -1 1 0 1 0 1 0 
1 1 1 0 1 0 1 0 1 0 1 0 1 0 1 0 
1 0 1 0 1 0 1 0 1 0 1 0 1 0 1 0 
1 0 1 0 1 0 1 0 1 0 1 0 1 0 1 0 
1 0 1 0 1 0 1 0 1 0 1 0 1 0 1 0 
1 0 1 0 1 0 1 0 1 0 1 0 1 0 1 0 
1 0 1 0 1 0 1 0 1 0 1 0 1 0 1 0 
1 0 1 0 1 0 1 0 1 0 1 0 1 0 1 0 
1 0 1 0 1 0 1 0 1 0 1 0 1 0 1 0 
1 0 1 0 1 0 0 2 1 0 1 0 1 0 1 0 
1 -2 1 0 1 0 1 2 1 0 1 0 1 0 1 0 
1 0 1 -2 1 0 1 2 1 0 1 0 1 0 1 0 
1 0 1 0 1 0 1 0 1 0 1 0 1 0 1 0 
1 0 1 0 1 0 1 0 1 0 1 0 1 0 1 0 
1 0 1 0 1 0 1 0 1 0 1 0 1 0 1 0 
1 0 1 0 1 0 1 0 1 0 1 0 1 0 1 0 
1 0 1 0 1 0 1 0 1 0 1 0 1 0 1 0 
1 0 1 0 1 0 1 0 1 0 1 0 1 0 1 0 
1 0 1 0 0 -2 1 0 1 0 1 0 1 0 0 2 
1 0 1 0 1 0 1 0 0 -2 1 0 1 0 1 0 
1 0 1 0 1 0 1 0 1 0 1 0 1 0 1 0 
1 0 1 0 1 0 1 0 1 0 1 0 1 0 1 0 
1 0 1 0 1 0 1 0 1 0 1 0 1 0 1 0 
1 0 1 0 1 0 1 0 1 0 1 0 1 0 1 0 
1 0 1 0 1 0 1 0 0 2 1 0 1 0 1 0 
0 -2 1 0 1 0 1 0 1 0 1 0 1 0 0 2 
1 0 1 0 0 -2 1 0 1 0 1 0 1 0 1 0 
1 2 1 0 1 0 1 0 0 -2 1 0 1 0 1 0 
1 0 1 0 0 2 1 0 1 0 1 0 1 -2 1 0 
1 0 1 0 1 0 0 2 1 0 1 0 1 0 1 0 
0 -2 1 0 1 0 1 0 1 0 0 2 1 0 1 0 
1 0 1 0 1 -2 1 0 1 0 1 0 1 0 0 2 
1 0 1 0 1 0 4944 1657 300 MP stroke
1 0 0 -2 1 0 1 0 1 0 1 0 0 2 1 0 
1 0 1 0 1 0 0 -2 1 0 1 0 1 0 1 0 
0 2 1 0 1 0 1 0 1 0 1 0 0 -2 1 0 
1 0 1 0 1 2 1 0 1 0 1 0 1 0 0 -2 
1 0 1 0 1 0 1 0 1 0 1 0 1 0 1 0 
1 0 1 0 1 0 1 0 1 0 1 0 1 0 1 0 
1 0 1 0 1 0 1 0 1 0 1 0 1 0 1 0 
1 0 1 0 1 0 1 0 1 0 1 0 1 -1 1 0 
1 0 1 0 1 0 1 0 1 0 1 0 1 0 1 0 
1 0 1 0 1 0 1 0 1 -2 1 0 1 0 1 0 
1 0 1 0 1 0 1 0 1 0 1 0 1 -1 1 0 
1 0 1 0 1 0 1 0 1 0 1 0 1 0 1 0 
1 0 1 0 1 0 1 0 0 -2 1 0 1 0 1 0 
1 0 1 0 1 0 1 0 1 0 1 0 1 0 1 -1 
1 0 1 0 1 0 1 0 1 0 1 0 1 0 1 0 
1 0 1 0 1 0 1 0 1 0 1 0 1 0 1 0 
1 -1 1 1 1 0 1 0 1 0 1 0 1 -1 1 0 
1 0 1 0 1 0 1 0 1 0 1 0 1 0 1 0 
1 0 1 0 1 0 1 0 1 0 1 0 1 0 1 0 
1 0 1 0 1 0 1 0 1 0 1 0 1 0 1 0 
1 0 1 0 1 0 1 0 1 0 1 0 1 0 1 0 
1 0 1 0 1 1 1 0 1 0 1 0 1 0 1 0 
1 0 1 0 1 0 1 0 1 0 1 0 1 0 1 0 
1 0 1 0 1 0 1 0 1 0 1 0 1 0 1 0 
1 0 1 0 1 0 1 1 1 0 1 0 1 0 1 0 
1 0 1 0 1 0 1 0 1 0 1 0 1 0 1 0 
1 0 1 0 1 0 1 0 1 0 1 0 1 0 1 0 
1 0 1 0 1 0 1 0 1 0 1 0 1 0 1 0 
1 0 1 0 1 0 1 0 1 0 1 0 1 0 1 0 
1 0 1 0 1 0 1 0 1 0 1 0 1 0 1 0 
1 0 1 0 1 -1 1 0 1 0 1 0 1 0 1 0 
1 0 1 0 1 0 1 0 1 -1 1 0 1 0 1 0 
1 0 1 0 1 0 1 0 0 -2 1 0 1 0 1 0 
1 0 1 0 1 0 1 0 1 0 1 -1 1 0 1 0 
1 0 1 0 1 0 0 -2 1 0 1 0 1 0 1 0 
1 0 1 0 1 -1 1 0 1 0 1 0 1 0 0 -2 
1 0 1 0 1 0 1 0 1 0 1 0 1 -1 1 0 
1 0 1 0 1 0 4655 1676 300 MP stroke
1 0 1 -1 1 0 1 0 1 0 0 -2 1 0 1 0 
1 0 1 0 1 0 1 -1 1 0 1 0 1 0 1 0 
1 -2 1 0 1 0 1 0 1 0 1 0 1 -1 1 0 
1 0 1 0 1 0 0 -2 1 0 1 0 1 0 1 0 
1 0 1 0 1 -1 1 0 1 0 1 0 1 0 1 0 
1 0 1 0 1 0 0 -2 1 0 1 0 1 0 1 0 
1 0 1 0 1 0 1 0 1 0 1 0 1 0 1 0 
1 0 1 0 1 0 1 0 1 0 1 0 1 0 1 0 
1 0 1 0 1 0 1 0 1 0 1 0 1 0 1 0 
1 0 1 0 1 0 1 2 1 0 1 0 1 0 1 0 
1 0 1 0 1 0 1 0 1 0 1 1 1 0 1 0 
1 0 1 0 1 0 1 2 1 0 1 0 1 0 1 0 
1 1 1 0 1 0 1 0 1 0 0 2 1 0 1 0 
1 0 1 0 1 1 1 0 1 0 1 0 0 2 1 0 
1 0 1 0 1 1 1 0 1 0 1 1 1 0 1 0 
0 2 1 0 1 0 1 0 1 1 1 0 1 0 0 2 
1 0 1 0 1 1 1 0 1 0 0 2 1 0 1 0 
1 1 1 0 1 0 1 1 1 0 0 2 1 0 1 0 
1 0 1 1 1 0 0 2 1 0 1 0 1 1 1 0 
0 2 1 0 1 0 1 1 1 0 1 1 1 0 1 0 
0 2 1 0 1 0 1 1 1 0 1 2 1 0 1 1 
1 0 1 2 1 0 1 0 1 1 1 0 1 1 1 0 
0 2 1 0 1 0 1 1 1 0 1 2 1 0 1 0 
1 1 1 0 0 2 1 0 1 0 1 1 1 0 1 1 
1 0 0 2 1 0 1 0 1 1 1 0 0 2 1 0 
1 0 1 1 1 0 0 2 1 0 1 0 1 1 1 0 
1 1 1 0 1 2 1 0 1 1 1 0 1 2 1 0 
1 1 1 0 1 2 1 0 1 1 1 0 1 1 1 0 
1 2 1 0 1 1 1 0 1 2 1 0 1 1 1 0 
1 2 1 0 1 1 1 0 1 1 1 0 1 2 1 0 
1 0 1 1 1 0 0 2 1 0 1 0 1 1 1 0 
0 2 1 0 1 0 1 1 1 0 1 2 1 0 1 0 
1 1 1 0 1 1 1 0 0 2 1 0 1 0 1 1 
1 0 1 2 1 0 1 0 1 1 1 0 1 2 1 0 
1 1 1 0 1 0 1 1 1 0 1 2 1 0 1 0 
1 1 1 0 0 2 1 0 1 0 1 1 1 0 1 0 
0 2 1 0 1 0 1 1 1 0 1 0 1 1 1 0 
1 2 1 0 1 0 4378 1570 300 MP stroke
1 1 1 0 1 2 1 0 1 0 1 1 1 0 1 2 
1 0 1 0 1 1 1 0 1 0 1 1 1 0 1 2 
1 0 1 0 1 1 1 0 1 0 1 0 0 2 1 0 
1 0 1 0 1 1 1 0 1 0 0 2 1 0 1 0 
1 0 1 0 1 1 1 0 1 0 1 1 1 0 1 0 
1 0 1 2 1 0 1 0 1 0 1 1 1 0 1 0 
1 0 1 2 1 0 1 0 1 0 1 0 1 1 1 0 
1 0 1 0 0 2 1 0 1 0 1 0 1 0 1 1 
1 0 1 0 1 0 1 1 1 0 1 0 1 0 1 2 
1 0 1 0 1 0 1 1 1 0 1 0 1 0 1 0 
1 2 1 0 1 0 1 0 1 1 1 0 1 0 1 0 
1 0 1 0 0 2 1 0 1 0 1 0 1 0 1 1 
1 0 1 0 1 0 1 0 1 0 1 1 1 0 1 0 
1 0 1 0 1 0 1 2 1 0 1 0 1 0 1 0 
1 0 1 0 1 0 1 1 1 0 1 0 1 0 1 0 
1 0 1 0 1 2 1 0 1 0 1 0 1 0 1 1 
1 0 1 0 1 0 1 0 1 0 1 0 1 0 1 0 
1 0 1 2 1 0 1 0 1 0 1 0 1 1 1 0 
1 0 1 0 1 0 1 0 1 0 1 0 1 1 1 0 
1 0 1 0 1 0 1 0 1 0 1 0 0 2 1 0 
1 0 1 0 1 0 1 0 1 0 1 0 1 0 1 0 
1 0 1 0 1 0 1 0 1 1 1 0 1 0 1 0 
1 0 1 0 1 0 1 0 1 0 1 0 1 0 1 0 
1 0 1 0 1 0 1 0 1 0 0 2 1 0 1 0 
1 0 1 0 1 0 1 0 1 0 1 0 1 0 1 0 
1 0 1 0 1 0 1 0 1 0 1 0 1 0 1 0 
1 0 1 0 1 0 1 0 1 0 1 0 1 0 1 0 
1 0 1 0 1 -2 1 0 1 0 1 0 1 0 1 0 
1 0 1 0 1 0 1 0 1 0 1 0 1 0 1 0 
1 0 1 0 1 0 1 0 1 -1 1 0 1 0 1 0 
1 0 1 0 1 0 1 0 0 -2 1 0 1 0 1 0 
1 0 1 0 1 0 1 0 1 -1 1 0 1 0 1 -1 
1 0 1 0 1 0 1 0 1 0 1 -2 1 0 1 0 
1 -1 1 0 1 0 1 0 1 0 0 -2 1 0 1 0 
1 -1 1 0 1 0 1 0 1 -2 1 0 1 0 1 -1 
1 -1 1 0 1 0 1 0 0 -2 1 0 1 0 1 -1 
1 0 0 -2 1 0 1 0 1 0 1 -1 1 0 1 0 
0 -2 1 0 1 -1 4090 1543 300 MP stroke
1 0 1 -1 1 0 1 0 0 -2 1 0 1 0 1 -1 
1 -2 1 0 1 -1 1 0 1 -2 1 0 1 -1 1 0 
1 -1 0 -2 1 0 1 -1 1 0 1 -2 1 0 1 -1 
1 -2 1 0 1 -1 1 -1 1 -2 1 0 1 -1 1 0 
0 -2 1 -1 1 0 0 -2 1 0 1 -1 1 -1 1 0 
0 -2 1 0 1 -1 1 -2 1 -1 0 -2 1 0 1 -1 
1 -1 1 0 0 -2 1 0 1 -1 0 -2 1 0 1 -1 
0 -2 1 0 1 -1 1 -1 0 -2 1 0 1 -1 1 -2 
1 -1 0 -2 1 0 1 -1 0 -2 1 0 1 -1 1 -1 
0 -2 1 0 1 -1 0 -2 1 0 1 -1 0 -2 1 -1 
1 -1 1 -2 1 -1 1 -2 1 -1 0 -2 1 0 1 -1 
1 -1 0 -2 2 -3 0 0 2 -3 0 0 2 -2 0 -2 
1 0 1 -1 0 -2 1 -1 1 -2 1 -1 1 -1 0 -2 
1 0 1 -1 0 -2 1 -1 1 0 0 -2 1 -1 1 -1 
0 -2 1 0 1 -1 0 -2 1 0 1 -1 0 -2 1 -1 
1 -1 0 -2 1 -1 1 0 0 -2 1 -1 0 -2 1 0 
1 -1 1 -1 0 -2 2 -3 1 -1 0 -2 1 0 1 -1 
0 -2 1 -1 1 -1 0 -2 1 0 1 -1 0 -2 1 -1 
1 -2 1 -1 1 -1 0 -2 1 -1 1 -2 1 -1 0 -2 
2 -2 0 -2 1 0 1 -1 0 -2 1 -1 1 -2 1 -1 
1 -1 0 -2 2 -3 1 -1 0 -2 1 0 1 -1 1 -1 
0 -2 1 -1 1 -2 1 -1 0 -2 2 -2 1 -2 1 -1 
0 -2 1 0 1 -1 0 -2 2 -2 0 -2 1 0 1 -1 
0 -2 1 -1 1 -2 1 -1 1 -1 0 -2 1 0 1 -1 
0 -2 1 0 1 -1 0 -2 1 -1 1 -2 1 -1 1 -1 
1 -2 1 -1 0 -2 1 0 1 -1 0 -2 1 0 0 -1 
2 -3 1 -1 1 0 0 -2 1 0 1 -1 0 -2 1 -1 
1 -1 1 -2 1 -1 1 -2 1 -1 1 -2 1 0 1 -1 
1 -1 0 -2 1 -1 1 -2 1 -1 1 0 0 -2 1 0 
1 -1 1 -1 0 -2 1 0 1 -1 0 -2 1 0 1 -1 
0 -2 1 -1 1 0 1 -1 1 0 0 -2 1 -1 1 -2 
1 -1 1 0 0 -2 1 0 1 -1 1 -1 1 -2 1 -1 
1 0 0 -2 1 0 1 -1 0 -2 1 0 1 -1 1 0 
1 -1 1 -2 1 -1 1 -2 1 0 1 0 1 -1 0 -2 
1 0 1 -1 1 0 1 -2 1 0 1 -1 1 -1 1 0 
1 0 0 -2 1 0 1 -1 0 -2 1 0 1 0 1 0 
1 -1 1 -2 1 -1 1 0 1 1 0 0 2 -2 1 -2 
1 0 1 2 1 0 3849 1866 300 MP stroke
1 -2 1 -1 0 -2 1 2 1 0 1 0 1 -2 0 0 
2 0 1 0 1 0 1 -1 1 0 1 0 1 1 1 0 
1 -1 1 0 1 0 1 1 1 0 1 -1 1 0 1 1 
0 2 1 0 1 -2 1 0 1 0 1 2 1 1 1 0 
1 -1 1 1 0 2 1 0 1 1 1 0 1 -1 1 1 
0 1 1 2 1 1 1 0 1 -1 1 1 0 2 1 1 
0 2 1 1 1 -1 1 0 1 0 0 2 1 2 1 1 
0 2 1 0 1 0 1 0 0 3 2 3 1 1 1 1 
1 0 1 2 0 3 1 1 1 2 1 1 0 0 2 3 
1 1 0 3 1 2 1 0 1 1 1 1 0 2 1 1 
0 2 1 1 0 2 1 1 1 1 1 2 0 1 1 2 
1 1 0 3 1 1 1 2 1 1 0 2 1 1 0 2 
1 1 1 1 0 3 1 2 1 1 0 2 2 2 0 2 
1 1 0 2 1 1 0 2 1 1 0 1 1 2 0 1 
1 2 1 1 0 3 1 2 1 1 0 3 1 1 0 2 
1 1 0 2 1 0 0 2 1 2 0 1 1 2 0 1 
1 2 0 1 1 1 0 2 1 1 0 2 1 1 0 3 
2 3 0 3 1 1 0 2 1 1 0 1 1 2 0 1 
1 2 0 3 2 2 0 3 1 2 0 1 1 2 0 2 
1 2 0 1 1 2 0 1 1 2 0 2 1 2 0 1 
1 2 0 3 1 1 0 2 1 1 0 3 1 1 0 2 
1 1 0 3 1 1 0 2 1 1 0 3 1 2 0 1 
1 1 0 2 1 1 0 2 1 1 0 3 1 3 0 1 
1 2 0 3 1 1 0 1 1 2 0 3 1 1 0 2 
1 1 0 3 1 1 0 2 1 1 0 3 1 1 0 3 
1 3 0 2 1 1 0 3 1 1 0 2 1 1 0 3 
1 2 0 1 1 1 0 5 1 1 0 2 1 1 0 3 
1 3 0 1 1 2 0 2 1 2 0 1 1 2 0 3 
1 1 0 3 1 1 0 3 1 2 0 1 1 1 0 3 
1 3 1 2 0 4 1 1 0 2 1 1 0 3 1 1 
0 5 1 1 0 2 1 1 0 4 1 2 0 1 1 2 
0 3 1 1 0 3 1 1 0 3 1 2 0 1 1 3 
0 3 1 1 0 2 1 1 0 4 1 2 0 1 1 2 
0 4 1 1 0 2 1 3 0 2 1 2 0 1 1 2 
0 4 1 1 0 2 1 1 0 5 1 1 0 1 1 2 
0 4 1 2 0 2 1 2 0 3 1 1 0 3 1 3 
0 1 1 2 0 3 1 3 0 1 1 1 0 3 1 3 
0 2 1 1 0 4 3663 1403 300 MP stroke
1 2 0 1 1 2 0 2 1 3 0 2 1 1 0 4 
1 2 0 1 1 2 0 4 1 1 0 2 1 1 0 5 
1 1 0 1 1 2 0 4 1 2 0 1 1 3 0 3 
1 1 0 5 1 1 0 1 1 3 0 3 1 2 0 2 
1 2 0 3 1 1 0 2 1 2 0 3 1 2 0 3 
1 1 0 3 1 3 0 1 1 2 0 4 1 1 0 2 
1 1 0 4 1 2 0 3 1 1 0 3 1 1 0 3 
1 2 0 3 1 1 0 3 1 1 0 5 1 1 0 2 
1 1 0 4 1 2 0 3 1 1 0 3 1 1 0 5 
1 1 0 1 1 2 0 4 1 2 0 1 1 1 0 5 
1 1 0 2 1 2 0 3 1 2 0 3 1 1 0 3 
1 1 0 2 1 3 0 2 1 3 0 2 1 1 0 4 
1 2 0 1 1 2 0 3 1 3 0 1 1 1 0 5 
1 1 0 2 1 2 0 3 1 2 0 4 1 1 0 2 
1 1 0 5 1 1 0 1 1 3 0 3 1 2 0 1 
1 1 0 5 1 1 0 2 1 2 0 3 1 3 0 2 
1 1 0 4 1 2 0 1 1 2 0 2 1 3 0 2 
1 1 0 5 1 1 0 1 1 2 0 3 1 1 0 2 
1 2 0 3 1 3 0 2 1 1 0 3 1 1 0 3 
1 2 0 2 1 2 0 4 1 2 0 1 1 3 0 3 
1 1 0 2 1 1 0 3 1 1 0 2 1 3 0 2 
1 2 0 3 1 1 0 3 1 1 0 2 1 1 0 5 
1 1 0 2 1 1 0 4 1 2 0 1 1 2 0 2 
1 2 0 1 1 2 0 4 1 1 0 3 1 2 0 3 
1 1 0 1 1 2 0 3 1 1 0 3 1 1 0 3 
1 2 0 3 1 1 0 1 1 2 0 3 1 1 0 2 
1 1 0 4 1 2 0 1 1 2 0 4 2 3 0 3 
1 1 0 2 1 1 0 4 1 2 0 1 1 2 0 1 
1 1 0 2 1 1 0 3 1 2 0 1 1 3 0 3 
1 1 0 2 1 0 0 2 1 2 0 3 1 1 0 2 
1 2 0 2 1 1 0 2 1 1 0 2 1 1 0 1 
1 2 0 3 1 1 0 3 1 0 0 1 0 -1 1 3 
1 1 0 3 1 2 0 1 1 3 0 3 1 1 1 2 
1 1 0 2 1 1 0 3 1 1 0 2 1 1 0 2 
1 1 1 1 0 2 1 1 0 3 1 2 0 1 1 1 
0 2 1 1 1 2 1 1 0 2 1 1 0 3 1 1 
1 2 0 1 1 2 1 1 0 1 1 2 1 1 0 2 
1 1 0 2 2 2 3507 795 300 MP stroke
1 0 0 2 1 1 0 2 1 1 0 2 1 1 1 1 
0 2 2 3 1 1 0 2 1 0 0 1 2 3 1 1 
0 2 1 0 1 1 0 2 1 1 1 1 1 2 1 0 
0 1 0 -1 1 3 1 1 0 2 1 0 1 1 0 2 
1 0 1 1 1 1 1 2 1 1 0 2 1 0 1 1 
1 2 1 0 1 1 1 1 0 2 1 0 1 0 1 1 
0 2 1 0 1 1 1 2 1 0 1 1 1 0 1 1 
0 2 1 0 1 1 1 0 0 2 1 0 1 0 1 1 
1 0 0 2 1 0 1 0 1 1 1 0 1 1 1 0 
1 2 1 0 1 1 1 0 0 2 1 0 1 0 1 0 
1 0 1 1 1 0 1 2 1 0 1 0 1 1 1 0 
1 0 1 0 1 1 1 0 1 0 1 2 1 0 1 0 
1 0 1 0 1 1 1 0 1 0 1 0 1 2 1 0 
1 0 1 0 1 0 1 0 1 0 1 1 1 0 1 0 
1 0 1 0 1 0 1 0 1 0 0 2 1 0 1 0 
1 0 1 0 1 0 1 0 1 0 1 0 1 0 1 0 
1 0 1 0 1 0 1 0 1 0 1 0 1 0 1 0 
1 0 1 0 1 0 1 0 1 0 1 0 1 0 1 0 
1 0 1 0 1 0 1 0 1 0 1 0 1 0 1 0 
1 0 1 0 1 0 1 0 1 0 1 0 1 0 1 0 
1 0 1 0 1 0 1 0 1 0 1 0 1 0 1 0 
1 0 1 0 1 1 1 0 1 0 1 0 1 -1 1 0 
1 0 1 0 1 0 1 0 1 0 1 1 1 0 1 0 
1 0 1 -1 1 0 1 0 1 0 1 0 1 0 1 0 
1 0 1 0 1 0 1 0 1 0 1 0 1 0 1 0 
1 0 1 0 1 0 1 0 1 0 1 0 1 0 1 0 
1 0 1 0 1 0 1 0 1 0 1 0 1 0 1 0 
1 0 1 0 1 0 1 0 1 0 1 0 1 0 1 0 
1 0 1 0 1 0 1 0 1 0 1 0 1 0 1 0 
1 0 1 0 1 0 1 0 1 0 1 0 1 0 1 0 
1 0 1 0 1 0 1 0 1 0 1 0 1 0 1 0 
1 0 1 0 1 0 1 0 1 0 1 0 1 0 1 0 
1 0 1 0 1 0 1 0 1 0 1 0 1 0 1 0 
1 0 1 0 1 0 1 0 1 0 1 0 1 0 1 0 
1 0 1 0 1 0 1 0 1 0 1 0 1 0 1 0 
1 0 1 0 1 0 1 0 1 0 1 0 1 0 1 0 
1 0 1 0 1 0 1 0 1 0 1 0 1 0 1 0 
1 0 1 0 1 1 3226 703 300 MP stroke
1 0 1 0 1 0 1 0 1 0 1 0 1 0 1 0 
1 0 1 0 1 0 1 0 1 0 1 0 1 0 1 0 
1 0 1 0 1 0 1 0 1 0 1 0 1 0 1 0 
1 0 1 0 1 0 1 0 1 0 1 0 1 0 1 0 
1 0 1 0 1 0 1 0 1 0 1 0 1 0 1 0 
1 0 1 0 1 0 1 0 1 0 1 0 1 0 1 0 
1 0 1 0 1 0 1 0 1 0 1 0 1 0 1 0 
1 0 1 0 1 0 1 0 1 0 1 0 1 0 1 0 
1 0 1 0 1 0 1 0 1 0 1 0 1 0 1 0 
1 0 1 0 1 0 1 0 1 0 1 0 1 0 1 0 
1 0 1 0 1 0 1 0 1 0 1 0 1 0 1 0 
1 0 1 0 1 1 1 0 1 0 1 0 1 0 1 0 
1 0 1 0 1 0 1 0 1 0 1 0 1 0 1 0 
1 0 1 0 1 0 1 0 1 0 1 0 1 0 1 0 
1 0 1 0 1 0 1 0 1 0 1 0 1 0 1 0 
1 0 1 0 1 0 1 0 1 0 1 0 1 0 1 0 
1 0 1 -1 1 0 1 0 1 0 1 0 1 0 1 0 
1 0 1 0 1 0 1 0 1 0 1 0 1 0 1 0 
1 1 1 0 1 0 1 0 1 0 1 0 1 -1 1 0 
1 0 1 0 1 0 1 0 1 0 1 0 1 0 1 0 
1 0 1 0 1 0 1 0 1 0 1 0 1 0 1 0 
1 0 1 0 1 0 1 0 1 0 1 0 1 0 1 0 
1 0 1 0 1 0 1 0 1 0 1 0 1 0 1 0 
1 0 1 0 1 0 1 0 1 1 1 0 1 0 1 0 
1 0 1 0 1 0 1 0 1 0 1 0 1 0 1 0 
1 0 1 0 1 0 1 0 1 0 1 0 1 0 1 0 
1 0 1 0 1 0 1 0 1 0 1 0 1 0 1 0 
1 0 1 0 1 0 1 0 1 0 1 0 1 0 1 0 
1 0 1 0 1 0 1 0 1 0 1 0 1 0 1 0 
1 0 1 0 1 0 1 0 1 0 1 0 1 0 1 0 
1 0 1 0 1 0 1 0 1 0 1 0 1 0 1 0 
1 0 1 0 1 0 1 2 1 0 1 0 1 0 1 0 
1 0 1 0 1 0 1 0 1 0 1 0 1 0 1 0 
1 0 1 0 1 0 1 0 1 0 1 0 1 0 1 0 
1 0 1 0 1 0 1 0 1 0 1 0 1 0 1 0 
1 0 1 0 1 0 1 0 1 0 1 0 1 0 1 0 
1 0 1 0 1 0 1 0 1 0 1 0 1 0 1 0 
1 0 1 0 1 0 2927 700 300 MP stroke
1 0 1 0 1 0 1 0 1 0 1 0 1 0 1 0 
1 0 1 0 1 0 1 0 1 0 1 0 1 0 1 0 
1 0 1 0 1 0 1 0 1 0 1 0 1 0 1 0 
1 0 1 0 1 0 1 0 1 0 1 0 1 0 1 0 
1 0 1 0 1 0 1 0 1 0 1 0 1 0 1 0 
1 0 1 0 1 0 1 0 1 0 1 0 1 0 1 0 
1 0 1 0 1 0 1 0 1 0 1 0 1 0 1 0 
1 0 1 0 1 0 1 0 1 0 1 0 1 0 1 0 
1 0 1 0 1 0 1 0 1 0 1 0 1 0 1 0 
1 0 1 0 1 0 1 0 1 0 1 0 1 0 1 0 
1 0 1 0 1 0 1 0 1 0 1 0 1 0 1 0 
1 0 1 0 1 0 1 0 1 0 1 0 1 0 1 0 
1 0 1 0 1 0 1 0 1 0 1 0 1 0 1 0 
1 0 1 0 1 0 1 0 1 0 1 0 1 0 1 0 
1 0 1 0 1 0 1 0 1 0 1 0 1 0 1 0 
1 0 1 0 1 0 1 0 1 0 1 0 1 0 1 0 
1 0 1 0 1 0 1 0 1 1 1 0 1 0 1 0 
1 0 1 0 1 0 1 0 1 0 1 0 1 0 1 0 
1 0 1 0 1 0 1 0 1 0 1 0 1 0 1 0 
1 0 1 0 1 0 1 0 1 0 1 0 1 0 1 0 
1 0 1 0 1 0 1 0 1 0 1 0 1 0 1 0 
1 0 1 0 1 0 1 0 1 0 1 0 1 0 1 0 
1 0 1 0 1 0 1 0 1 0 1 0 1 0 1 0 
1 0 1 0 1 0 1 0 1 0 1 0 1 0 1 0 
1 0 1 0 1 0 1 0 1 0 1 0 1 0 1 0 
1 0 1 0 1 0 1 0 1 0 1 0 1 0 0 2 
1 0 1 0 1 0 1 0 1 0 1 0 1 0 1 0 
1 0 1 0 1 0 1 0 1 0 1 0 1 0 1 0 
1 0 1 0 1 0 1 0 1 0 1 0 1 0 1 0 
1 0 1 0 1 0 1 0 1 0 1 0 1 0 1 0 
1 0 1 0 1 0 1 0 1 0 1 0 1 0 1 0 
1 0 1 0 1 0 1 0 1 0 1 0 1 0 1 0 
1 0 1 0 1 0 1 0 1 0 1 0 1 0 1 0 
1 0 1 0 1 0 1 0 1 0 1 0 1 0 1 0 
1 0 1 0 1 0 1 0 1 0 1 0 1 0 1 0 
1 0 1 0 1 0 1 0 1 0 1 0 1 0 1 0 
1 0 1 0 1 0 1 0 1 0 1 0 1 1 1 0 
1 0 1 0 1 0 2629 696 300 MP stroke
1 0 1 0 1 0 1 0 1 0 1 0 1 0 1 0 
1 0 1 0 1 0 1 0 1 0 1 0 1 0 1 0 
1 0 1 0 1 0 1 0 1 0 1 0 1 0 1 0 
1 0 1 0 1 0 1 0 1 0 1 0 1 0 1 0 
1 0 1 0 1 0 1 0 1 0 1 0 1 0 1 0 
1 0 1 0 1 0 1 0 1 0 1 0 1 0 1 0 
1 0 1 0 1 0 1 0 1 0 1 0 1 0 1 0 
1 0 1 0 1 0 1 0 1 0 1 0 1 0 1 0 
1 0 1 0 1 0 1 0 1 0 1 0 0 2 1 0 
1 0 1 0 1 0 1 0 1 0 1 0 1 0 1 0 
1 0 1 0 1 0 1 0 1 0 1 0 1 0 1 0 
1 0 1 0 1 0 1 0 1 0 1 0 1 0 1 0 
1 0 1 0 1 0 1 0 1 0 1 0 1 0 1 0 
1 0 1 0 1 0 1 0 1 0 1 0 1 0 1 0 
1 0 1 0 1 0 1 0 1 0 1 0 1 0 1 0 
1 0 1 0 1 0 1 0 1 0 1 0 1 0 1 0 
1 0 1 0 1 0 1 0 1 0 1 0 1 0 1 0 
1 0 1 0 1 0 1 0 1 0 1 0 1 0 1 0 
1 0 1 0 1 0 1 0 1 0 1 0 1 0 1 0 
1 0 1 0 1 0 1 0 1 0 1 0 1 0 1 0 
1 0 1 0 1 0 1 0 1 0 1 0 1 0 1 0 
1 0 1 0 1 0 1 0 1 1 1 0 1 0 1 0 
1 0 1 0 1 0 1 0 1 0 1 0 1 0 1 0 
1 0 1 0 1 0 1 0 1 0 1 0 1 0 1 0 
1 0 1 0 1 0 1 0 1 0 1 0 1 0 1 0 
1 0 1 0 1 0 1 0 1 0 1 0 1 0 1 0 
1 0 1 0 1 0 1 0 1 0 1 0 1 0 1 0 
1 0 1 0 1 0 1 0 1 0 1 0 1 0 1 0 
1 0 1 0 1 0 1 0 1 0 1 0 1 0 1 0 
1 0 1 0 1 0 1 0 1 0 1 0 1 0 1 0 
1 0 1 0 1 0 1 0 1 0 1 0 1 0 1 0 
1 1 1 0 1 0 1 0 1 0 1 0 1 0 1 0 
1 0 1 0 1 0 1 0 1 0 1 0 1 0 1 0 
1 0 1 0 1 0 1 0 1 0 1 0 1 0 1 0 
1 0 1 0 1 0 1 0 1 0 1 0 1 0 1 0 
1 0 1 0 1 0 1 0 1 0 1 0 1 0 1 0 
1 0 1 0 1 0 1 0 1 0 1 0 1 0 1 0 
1 0 1 0 1 0 2331 692 300 MP stroke
1 0 1 0 1 0 1 0 1 0 1 0 1 0 1 0 
1 0 1 0 1 0 1 0 1 0 1 0 1 0 1 0 
1 0 1 0 1 0 1 0 1 0 1 0 1 0 1 0 
1 0 1 0 1 0 1 0 1 0 1 0 1 0 1 0 
1 0 1 0 1 0 1 0 1 0 1 0 1 0 1 0 
1 0 1 0 1 0 1 0 1 0 1 0 1 0 1 0 
1 0 1 0 1 0 1 0 1 0 1 0 1 0 1 0 
1 0 1 0 1 0 1 0 1 0 1 0 1 0 1 0 
1 0 1 0 1 0 1 0 1 0 1 0 1 0 1 0 
1 0 1 0 1 0 1 0 1 0 1 0 1 0 1 0 
1 0 1 0 1 0 1 0 1 0 1 0 1 0 1 0 
1 0 1 0 1 0 1 0 1 0 1 0 1 0 1 0 
1 0 1 0 1 0 1 0 1 0 1 0 1 0 1 0 
1 0 1 0 1 0 1 0 1 0 1 0 1 0 1 0 
1 0 1 0 1 0 1 0 1 0 1 0 1 0 1 0 
1 0 1 0 1 0 1 0 1 0 1 0 1 0 1 0 
1 0 1 0 1 0 1 0 1 0 1 0 1 0 1 0 
1 0 1 0 1 0 1 0 1 0 1 0 1 0 1 0 
1 0 1 0 1 0 1 0 1 0 1 0 1 0 1 0 
1 0 1 0 1 0 1 0 1 0 1 0 1 0 1 0 
1 0 1 0 1 0 1 0 1 -1 1 0 1 0 1 0 
1 0 1 0 1 0 1 0 1 0 1 0 1 0 1 0 
1 0 1 0 1 0 1 0 1 0 1 0 1 0 1 0 
1 0 1 0 1 0 1 0 1 0 1 0 1 0 1 0 
1 0 1 0 1 0 1 0 1 0 1 0 1 0 1 0 
1 0 1 0 1 0 1 0 1 0 1 0 1 0 1 0 
1 0 1 0 1 0 1 0 1 0 1 0 1 0 1 0 
1 0 1 0 1 0 1 0 1 0 1 0 1 0 1 0 
1 0 1 0 1 0 1 0 1 0 1 0 1 0 1 0 
1 0 1 0 1 0 1 0 1 0 1 0 1 0 1 0 
1 0 1 0 1 0 1 0 1 0 1 -1 1 0 1 0 
1 0 1 0 1 0 1 0 1 0 1 0 1 0 1 0 
1 0 1 0 1 0 1 0 1 0 1 0 1 0 1 0 
1 0 1 0 1 0 1 0 1 0 1 0 1 0 1 0 
1 0 1 0 1 0 1 0 1 0 1 0 1 0 1 0 
1 0 1 0 1 0 1 0 1 0 1 0 1 0 1 0 
1 0 1 0 1 0 1 0 1 0 1 0 1 0 1 0 
1 0 1 0 1 0 2032 694 300 MP stroke
1 0 1 0 1 -2 1 0 1 0 1 0 1 0 1 0 
1 0 1 0 1 0 1 0 1 0 1 0 1 0 1 0 
1 0 1 0 1 0 1 0 1 0 1 0 1 0 1 0 
1 0 1 0 1 0 1 0 1 0 1 0 1 0 1 0 
1 0 1 0 1 0 1 -1 1 0 1 0 1 0 1 0 
1 0 1 0 1 0 1 0 1 0 1 0 1 0 1 0 
1 0 1 0 1 0 1 0 1 0 0 -2 1 0 1 0 
1 0 1 0 1 0 1 0 1 0 1 0 1 0 1 0 
1 0 1 0 1 0 1 0 1 0 1 -1 1 0 1 0 
1 0 1 0 1 0 1 0 1 0 1 0 1 0 1 0 
1 0 1 0 1 0 1 0 1 0 1 0 1 0 1 0 
1 0 1 0 1 0 1 0 1 0 0 -2 1 0 1 0 
1 0 1 0 1 0 1 0 1 0 1 0 1 0 1 0 
1 0 1 0 1 0 1 0 1 0 1 0 1 0 1 0 
1 0 1 0 1 0 1 0 1 0 1 0 1 0 1 0 
1 0 1 -1 1 0 1 0 1 0 1 0 1 0 1 0 
1 0 1 0 1 0 1 0 1 0 1 0 1 0 1 0 
1 0 1 0 1 0 1 0 1 0 1 0 1 0 1 0 
1 0 1 0 1 0 1 0 1 0 1 0 1 0 1 0 
1 0 1 0 1 0 1 0 1 0 1 0 1 0 1 0 
1 0 1 0 1 0 1 0 1 0 1 0 1 0 1 0 
1 0 1 0 1 0 1 0 1 0 1 0 1 0 1 -1 
1 0 1 0 1 0 1 0 1 0 1 0 1 0 1 0 
1 0 1 0 1 0 1 0 1 0 1 0 1 0 1 0 
1 0 1 0 1 0 1 0 1 0 1 0 1 0 1 0 
1 0 1 0 1 0 1 0 1 0 1 0 1 0 1 0 
1 0 1 0 1 0 1 0 1 0 1 0 1 -2 1 0 
1 0 1 0 1 0 1 0 1 0 1 0 1 0 1 0 
1 0 1 0 1 0 1 0 1 0 1 0 1 0 1 0 
1 0 1 0 1 0 1 0 1 0 1 0 1 -1 1 0 
1 0 1 0 1 0 1 0 1 0 1 0 1 0 1 0 
1 0 1 0 1 0 1 0 1 0 1 0 0 -2 1 0 
1 0 1 0 1 0 1 0 1 0 1 0 1 0 1 0 
1 0 1 0 1 0 1 0 1 -1 1 0 1 0 1 0 
1 0 1 0 1 0 1 0 1 0 1 0 1 0 0 -2 
1 0 1 0 1 0 1 0 1 0 1 0 1 0 1 0 
1 0 1 0 1 -1 1 0 1 0 1 0 1 0 1 0 
1 0 1 0 1 0 1737 713 300 MP stroke
1 0 1 0 1 0 1 -1 1 0 1 0 1 0 1 0 
1 0 1 0 1 0 1 0 1 0 1 0 1 0 1 0 
1 0 1 0 1 -2 1 0 1 0 1 0 1 0 1 0 
1 0 1 0 1 0 1 0 1 0 1 0 1 0 1 0 
1 0 1 0 1 -1 1 0 1 0 1 0 1 0 1 0 
1 0 1 0 1 0 1 0 1 0 1 0 1 0 1 0 
1 0 1 0 1 -2 1 0 1 0 1 0 1 0 1 0 
1 0 1 0 1 0 1 0 1 0 1 0 1 0 1 0 
1 0 1 0 1 0 1 0 1 0 1 0 1 0 1 0 
1 0 1 0 1 0 1 0 1 0 1 0 0 2 1 0 
1 0 1 0 1 0 1 0 1 0 1 0 1 0 1 0 
1 0 1 0 1 0 1 0 1 0 1 0 1 0 1 1 
1 0 1 0 1 0 1 0 1 0 1 0 1 0 1 0 
1 0 1 0 1 0 1 0 1 0 0 2 1 0 1 0 
1 0 1 0 1 0 1 0 1 0 1 0 1 0 1 0 
1 0 1 1 1 0 1 0 1 0 1 0 1 0 1 0 
1 0 1 0 1 0 1 1 1 0 1 0 1 0 1 0 
1 0 1 0 1 0 1 0 0 2 1 0 1 0 1 0 
1 0 1 0 1 0 1 0 1 0 1 0 1 0 1 1 
1 0 1 0 1 0 1 0 1 0 1 2 1 0 1 0 
1 0 1 0 1 0 1 0 1 0 1 0 1 1 1 0 
1 0 1 0 1 0 1 0 1 0 1 0 0 2 1 0 
1 0 1 0 1 0 1 0 1 0 1 0 1 0 1 1 
1 0 1 0 1 0 1 0 1 0 1 0 1 0 1 0 
1 0 1 1 1 0 1 0 1 0 1 0 1 0 1 0 
1 0 1 0 0 2 1 0 1 0 1 0 1 0 1 0 
1 0 1 0 1 0 1 1 1 0 1 0 1 0 1 0 
1 0 1 0 1 0 1 0 1 0 1 0 0 2 1 0 
1 0 1 0 1 0 1 0 1 0 1 0 1 0 1 0 
1 0 1 0 1 0 1 0 1 1 1 0 1 0 1 0 
1 0 1 0 1 0 1 0 1 0 1 0 1 0 1 0 
1 0 1 0 0 2 1 0 1 0 1 0 1 0 1 0 
1 0 1 0 1 0 1 0 1 0 1 0 1 0 1 0 
1 0 1 0 1 0 1 0 1 0 1 0 1 0 1 0 
1 0 1 0 1 0 1 0 1 0 1 0 1 0 1 0 
1 0 1 0 1 0 1 0 1 0 1 0 1 0 1 0 
1 0 1 0 1 0 1 0 1 0 1 0 1 0 1 0 
1 0 1 0 1 0 1445 694 300 MP stroke
1 0 1 0 1 0 1 0 1 0 1 0 1 0 1 0 
0 -2 1 0 1 0 1 0 1 0 1 0 1 0 1 0 
1 0 1 0 1 0 1 0 1 0 1 0 1 0 1 0 
1 0 1 -1 1 0 1 0 1 0 1 0 1 0 1 0 
1 0 1 0 0 -2 1 0 1 0 1 0 1 0 1 0 
1 0 1 0 1 -1 1 0 1 0 1 0 1 0 1 0 
1 0 0 -2 1 0 1 0 1 0 1 0 1 0 1 0 
1 -1 1 0 1 0 1 0 1 -1 1 0 1 0 1 0 
1 0 1 0 0 -2 1 0 1 0 1 0 1 0 1 -1 
1 0 1 0 1 0 1 -2 1 0 1 0 1 0 1 0 
1 -1 1 0 1 0 0 -2 1 0 1 0 1 0 1 -1 
1 0 1 0 1 0 1 -1 1 0 1 -2 1 0 1 0 
1 0 1 -1 1 0 1 -2 1 0 1 -1 1 0 1 0 
1 0 0 -2 1 0 1 0 1 -1 1 0 1 -1 1 0 
1 -2 1 0 1 0 1 -1 1 0 0 -2 1 0 1 -1 
1 0 1 -2 1 0 1 0 1 -1 1 -1 1 0 0 -2 
1 0 1 0 1 -1 1 0 0 -2 1 0 1 0 1 -1 
1 -2 1 -1 1 0 1 -1 1 0 0 -2 1 0 1 -1 
1 0 0 -2 1 0 1 -1 0 -2 1 0 1 0 1 -1 
1 0 1 -1 0 -2 1 0 1 -1 1 -2 1 -1 1 0 
0 -2 1 0 1 -1 1 -2 1 -1 1 -1 1 -2 1 0 
1 -1 1 -2 1 -1 1 0 0 -2 1 -1 0 0 2 -3 
1 0 1 -1 0 -2 1 0 1 -1 0 -2 1 0 1 -1 
1 -1 0 -2 1 0 1 -1 0 -2 1 0 1 -1 0 -2 
2 -2 1 0 0 -2 1 -1 1 -2 1 -1 0 -2 1 0 
1 -1 1 -1 0 -2 1 -1 1 -2 1 -1 0 -2 2 -2 
1 -2 1 -1 1 -2 1 -1 0 -2 2 -2 0 -2 2 -3 
1 -1 1 -2 0 -1 2 -3 1 -1 0 -2 1 -1 0 -2 
1 0 0 -1 2 -3 1 -1 0 -2 2 -3 1 -1 0 -2 
1 -1 1 -1 0 -2 2 -3 1 -1 0 -2 1 -1 1 -1 
0 -2 1 -1 0 -2 1 -1 1 -2 0 -1 1 -1 1 -2 
0 -1 1 -2 1 -1 0 -2 1 -1 1 -1 0 -2 1 -1 
1 -2 0 -1 1 -2 1 -1 0 -1 1 -2 1 -1 0 -2 
1 -1 0 -2 2 -2 0 -2 1 -1 0 -2 2 -3 1 -1 
0 -3 2 -3 1 -1 0 -2 1 -1 0 -1 1 -2 1 -1 
0 -2 1 -1 0 -2 1 0 0 -3 2 -2 0 -2 2 -3 
0 -1 1 -2 1 -1 0 -1 1 -2 1 -1 0 -2 1 -1 
0 -2 1 0 0 -2 1191 963 300 MP stroke
1 -2 1 -1 0 -2 1 -1 0 -2 1 -1 1 -1 0 -2 
1 -1 0 -2 1 0 0 -3 2 -2 0 -2 1 -1 1 -2 
0 -1 1 -2 0 -1 2 -3 1 -1 0 -2 1 -1 0 -2 
1 -1 0 -1 1 -2 1 -1 0 -2 1 -1 0 -2 1 -1 
0 -1 1 -2 1 -1 0 -2 2 -3 0 -1 1 -2 0 -1 
1 -1 0 -2 2 -3 1 -1 0 -2 1 -1 0 -1 1 -2 
0 -1 1 -2 1 -1 0 -2 1 -1 1 -1 0 -2 1 -1 
0 -2 2 -3 0 -1 2 -3 1 -1 0 -2 1 -1 0 -2 
2 -2 0 -2 2 -3 0 -1 1 -2 0 -1 2 -3 1 -1 
0 -2 2 -3 0 -1 1 -1 1 -2 1 -1 0 -2 2 -3 
1 -1 0 -1 0 1 1 -3 1 -1 0 -2 1 0 1 -1 
0 -2 1 -1 0 -2 2 -2 1 0 0 -2 1 -1 0 -2 
2 -3 1 -1 1 -1 0 -2 1 0 1 -1 0 -2 1 0 
1 -1 0 -2 1 -1 1 0 1 -1 0 -2 1 0 1 -1 
0 -2 1 0 1 -1 0 -2 1 0 1 -1 1 -1 0 -2 
1 0 1 -1 0 -2 1 0 1 -1 1 0 0 -2 1 0 
1 -1 1 -1 1 -2 1 0 1 -1 0 -2 1 0 1 0 
1 -1 0 -2 1 0 1 -1 1 0 1 -1 1 0 0 -2 
1 0 1 0 1 -1 1 -2 1 0 1 -1 1 -2 1 0 
1 0 1 -1 1 0 1 -1 1 0 0 -2 1 0 1 0 
1 -1 1 0 1 0 1 -2 1 0 1 -1 1 0 1 -2 
1 0 1 0 1 0 1 -1 1 0 1 0 1 -1 1 0 
1 0 1 0 1 -2 1 0 1 0 1 0 1 -1 1 0 
1 0 1 0 1 0 1 0 0 -2 1 0 1 0 1 0 
1 0 1 0 1 0 1 -1 1 0 1 0 1 0 1 0 
1 0 1 0 1 0 0 -2 1 0 1 0 1 0 1 0 
1 0 1 0 1 0 1 0 1 0 1 0 1 0 1 0 
1 0 1 0 1 0 1 0 1 0 1 -1 1 0 1 0 
1 0 1 0 1 0 1 0 1 0 1 0 1 0 1 0 
1 0 1 0 1 0 1 0 997 1188 237 MP stroke
SO
1 0 100 0 0 -2 99 0 0 -3 99 0 0 -9 99 0 
0 -12 99 0 0 -25 99 0 0 -26 99 0 0 -50 99 0 
0 -41 99 0 0 -93 99 0 0 -38 99 0 0 -132 99 0 
0 -57 99 0 99 0 99 0 100 0 99 0 99 0 99 0 
99 0 99 0 99 0 99 0 99 0 99 0 99 0 99 0 
99 0 99 0 99 0 100 0 99 0 99 0 99 0 99 0 
0 22 99 0 0 955 99 0 99 0 99 0 99 0 99 0 
99 0 99 0 99 0 99 0 100 0 99 0 99 0 99 0 
99 0 99 0 99 0 99 0 99 0 99 0 99 0 99 0 
99 0 99 0 99 0 0 -489 997 1217 77 MP stroke
gr

24 w
c8
0 sg
3816  471 mt 
(q=0.1) s
 980 2237 mt 
( ) s
6925  608 mt 
( ) s
6 w
1 sg
0 1627 5944 0 0 -1627 997 4454 4 MP
PP
-5944 0 0 1627 5944 0 0 -1627 997 4454 5 MP stroke
4 w
DO
SO
6 w
0 sg
 997 4454 mt 6941 4454 L
 997 4454 mt  997 2827 L
 997 4454 mt  997 4394 L
 964 4599 mt 
(5) s
2978 4454 mt 2978 4394 L
2912 4599 mt 
(10) s
4959 4454 mt 4959 4394 L
4893 4599 mt 
(15) s
6941 4454 mt 6941 4394 L
6875 4599 mt 
(20) s
 997 4454 mt 1056 4454 L
 759 4498 mt 
(-30) s
 997 4221 mt 1056 4221 L
 759 4265 mt 
(-20) s
 997 3989 mt 1056 3989 L
 759 4033 mt 
(-10) s
 997 3756 mt 1056 3756 L
 896 3800 mt 
(0) s
 997 3524 mt 1056 3524 L
 829 3568 mt 
(10) s
 997 3291 mt 1056 3291 L
 829 3335 mt 
(20) s
 997 3059 mt 1056 3059 L
 829 3103 mt 
(30) s
 997 2827 mt 1056 2827 L
 829 2871 mt 
(40) s
gs 997 2827 5945 1628 rc
DA
24 w
/c9 { 0.000000 0.000000 1.000000 sr} bdef
c9
1 0 1 -3 1 0 1 0 1 0 1 0 1 0 1 0 
1 0 1 0 1 0 1 0 1 0 1 0 1 0 1 0 
1 0 1 0 1 0 1 0 1 0 1 0 1 0 1 0 
1 -2 1 0 1 0 1 0 1 0 1 0 1 0 1 0 
1 0 1 0 1 0 1 0 1 0 1 0 1 0 1 0 
1 0 1 0 1 0 1 0 1 0 1 0 1 0 1 0 
1 0 1 0 1 -2 1 0 1 0 1 0 1 0 1 0 
1 0 1 0 1 0 1 0 1 0 1 0 1 0 1 0 
1 0 1 0 1 0 1 0 1 0 1 0 1 0 1 0 
1 0 1 0 1 0 1 0 1 0 1 0 1 -2 1 0 
1 0 1 0 1 0 1 0 1 0 1 0 1 0 1 0 
1 0 1 0 1 0 1 0 1 0 1 0 1 0 1 0 
1 0 1 0 1 0 1 0 1 0 1 0 0 -2 1 0 
1 0 1 0 1 0 1 0 1 0 1 0 1 0 1 0 
1 0 1 0 1 0 1 0 1 0 1 0 1 0 1 0 
1 0 1 0 1 0 0 -2 1 0 1 0 1 0 1 0 
1 0 1 0 1 0 1 0 1 0 1 0 1 0 1 0 
1 0 1 0 1 0 1 0 1 0 0 -2 1 0 1 0 
1 0 1 0 1 0 1 0 1 0 1 0 1 0 1 0 
1 0 1 0 1 0 1 0 1 0 1 0 1 0 1 -2 
1 0 1 0 1 0 1 0 1 0 1 0 1 0 1 0 
1 0 1 0 1 0 1 0 1 0 1 0 1 -2 1 0 
1 0 1 0 1 0 1 0 1 0 1 0 1 0 1 0 
1 0 1 0 1 0 1 0 1 -2 1 0 1 0 1 0 
1 0 1 0 1 0 1 0 1 0 1 0 1 0 1 0 
1 0 1 0 1 0 0 -2 1 0 1 0 1 0 1 0 
1 0 1 0 1 0 1 0 1 0 1 0 1 0 1 0 
1 0 1 0 1 0 0 -2 1 0 1 0 1 0 1 0 
1 0 1 0 1 0 1 0 1 0 1 0 1 0 1 0 
1 0 0 -2 1 0 1 0 1 0 1 0 1 0 1 0 
1 0 1 0 1 0 1 0 1 0 1 0 0 -2 1 0 
1 0 1 0 1 0 1 0 1 0 1 0 1 0 1 0 
1 0 1 0 1 0 0 -2 1 0 1 0 1 0 1 0 
1 0 1 0 1 0 1 0 1 0 1 0 1 0 1 0 
1 0 0 -2 1 0 1 0 1 0 1 0 1 0 1 0 
1 0 1 0 1 0 1 0 1 0 1 0 1 0 1 0 
0 -2 1 0 1 0 1 0 1 0 1 0 1 0 1 0 
1 0 1 0 1 0 6653 3756 300 MP stroke
1 0 1 0 1 0 1 0 1 0 0 -2 1 0 1 0 
1 0 1 0 1 0 1 0 1 0 1 0 1 0 1 0 
1 0 1 0 0 -2 1 0 1 0 1 0 1 0 1 0 
1 0 1 0 1 0 1 0 1 0 1 0 1 0 1 -2 
1 0 1 0 1 0 1 0 1 0 1 0 1 0 1 0 
1 0 1 0 1 0 0 -2 1 0 1 0 1 0 1 0 
1 0 1 0 1 0 1 0 1 0 1 0 1 0 0 -2 
1 0 1 0 1 0 1 0 1 0 1 0 1 0 1 0 
1 0 1 0 1 -2 1 0 1 0 1 0 1 0 1 0 
1 0 1 0 1 0 1 0 1 0 0 -3 1 0 1 0 
1 0 1 0 1 0 1 0 1 0 1 0 1 0 1 0 
0 -2 1 0 1 0 1 0 1 0 1 0 1 0 1 0 
1 0 1 0 1 -2 1 0 1 0 1 0 1 0 1 0 
1 0 1 0 1 0 1 0 1 -2 1 0 1 0 1 0 
1 0 1 0 1 0 1 0 1 0 1 0 1 0 1 -2 
1 0 1 0 1 0 1 0 1 0 1 0 1 0 1 0 
1 0 0 -2 1 0 1 0 1 0 1 0 1 0 1 0 
1 0 1 0 1 0 1 -2 1 0 1 0 1 0 1 0 
1 0 1 0 1 0 1 0 0 -2 1 0 1 0 1 0 
1 0 1 0 1 0 1 0 1 0 0 -2 1 0 1 0 
1 0 1 0 1 0 1 0 1 0 1 0 1 0 0 -2 
1 0 1 0 1 0 1 0 1 0 1 0 1 0 1 0 
1 0 1 0 0 -2 1 0 1 0 1 0 1 0 1 0 
1 0 1 0 1 0 1 0 1 0 0 -2 1 0 1 0 
1 0 1 0 1 0 1 0 1 0 1 0 1 0 1 0 
0 -2 1 0 1 0 1 0 1 0 1 0 1 0 1 0 
1 -2 1 0 1 0 1 0 1 0 1 0 1 0 1 0 
1 0 1 -2 1 0 1 0 1 0 1 0 1 0 1 0 
1 0 1 0 1 0 0 -2 1 0 1 0 1 0 1 0 
1 0 1 0 1 0 1 0 1 0 0 -2 1 0 1 0 
1 0 1 0 1 0 1 0 1 0 0 -2 1 0 1 0 
1 0 1 0 1 0 1 0 1 0 1 0 1 0 0 -2 
1 0 1 0 1 0 1 0 1 0 1 0 1 0 1 0 
1 0 0 -2 1 0 1 0 1 0 1 0 1 0 1 0 
1 0 1 0 1 0 0 -2 1 0 1 0 1 0 1 0 
1 0 1 0 1 0 1 0 0 -2 1 0 1 0 1 0 
1 0 1 0 1 0 1 0 1 0 0 -2 1 0 1 0 
1 0 1 0 1 0 6375 3815 300 MP stroke
1 0 1 0 1 0 1 0 0 -3 1 0 1 0 1 0 
1 0 1 0 1 0 1 0 1 0 1 -2 1 0 1 0 
1 0 1 0 1 0 1 0 0 -2 1 0 1 0 1 0 
1 0 1 0 1 0 1 0 1 0 1 -2 1 0 1 0 
1 0 1 0 1 0 1 0 1 0 1 0 0 -2 1 0 
1 0 1 0 1 0 1 0 1 0 1 0 0 -2 1 0 
1 0 1 0 1 0 1 0 1 0 1 0 1 0 0 -2 
1 0 1 0 1 0 1 0 1 0 1 0 0 -2 1 0 
1 0 1 0 1 0 1 0 1 0 1 -2 1 0 1 0 
1 0 1 0 1 0 1 0 1 0 1 -2 1 0 1 0 
1 0 1 0 1 0 1 0 0 -2 1 0 1 0 1 0 
1 0 1 0 1 0 1 0 0 -2 1 0 1 0 1 0 
1 0 1 0 1 0 1 0 1 -2 1 0 1 0 1 0 
1 0 1 0 1 0 0 -2 1 0 1 0 1 0 1 0 
1 0 1 0 1 0 1 0 1 -2 1 0 1 0 1 0 
1 0 1 0 1 0 1 0 0 -2 1 0 1 0 1 0 
1 0 1 0 1 0 1 -2 1 0 1 0 1 0 1 0 
1 0 1 0 1 0 1 -2 1 0 1 0 1 0 1 0 
1 0 1 0 0 -2 1 0 1 0 1 0 1 0 1 0 
1 0 1 0 0 -2 1 0 1 0 1 0 1 0 1 0 
1 0 1 0 0 -2 1 0 1 0 1 0 1 0 1 0 
1 0 0 -2 1 0 1 0 1 0 1 0 1 0 1 0 
1 0 1 0 0 -2 1 0 1 0 1 0 1 0 1 0 
1 0 0 -2 1 0 1 0 1 0 1 0 1 0 1 0 
1 0 0 -3 1 0 1 0 1 0 1 0 1 0 1 0 
1 0 1 0 0 -2 1 0 1 0 1 0 1 0 1 0 
1 0 0 -2 1 0 1 0 1 0 1 0 1 0 1 0 
1 0 0 -2 1 0 1 0 1 0 1 0 1 0 1 0 
1 0 1 -2 1 0 1 0 1 0 1 0 1 0 1 0 
0 -2 1 0 1 0 1 0 1 0 1 0 1 0 1 0 
1 0 0 -2 1 0 1 0 1 0 1 0 1 0 1 0 
1 -2 1 0 1 0 1 0 1 0 1 0 0 -2 1 0 
1 0 1 0 1 0 1 0 1 0 1 0 1 -2 1 0 
1 0 1 0 1 0 1 0 1 -2 1 0 1 0 1 0 
1 0 1 0 1 0 0 -2 1 0 1 0 1 0 1 0 
1 0 1 0 0 -2 1 0 1 0 1 0 1 0 1 0 
1 0 1 -2 1 0 1 0 1 0 1 0 1 -2 1 0 
1 0 1 0 1 0 6101 3895 300 MP stroke
1 0 1 0 0 -2 1 0 1 0 1 0 1 0 1 0 
1 -2 1 0 1 0 1 0 1 0 1 0 1 0 0 -2 
1 0 1 0 1 0 1 0 1 0 1 0 1 -2 1 0 
1 0 1 0 1 0 1 0 1 0 0 -2 1 0 1 0 
1 0 1 0 1 0 1 0 0 -2 1 0 1 0 1 0 
1 0 1 0 1 0 1 -2 1 0 1 0 1 0 1 0 
1 0 1 0 1 0 0 -2 1 0 1 0 1 0 1 0 
1 0 1 -3 1 0 1 0 1 0 1 0 1 0 1 0 
1 -2 1 0 1 0 1 0 1 0 1 0 0 -2 1 0 
1 0 1 0 1 0 1 0 1 0 1 0 0 -2 1 0 
1 0 1 0 1 0 1 0 1 -2 1 0 1 0 1 0 
1 0 1 0 1 -2 1 0 1 0 1 0 1 0 1 0 
1 0 1 -2 1 0 1 0 1 0 1 0 1 0 0 -2 
1 0 1 0 1 0 1 0 1 0 1 0 1 -2 1 0 
1 0 1 0 1 0 1 0 0 -2 1 0 1 0 1 0 
1 0 1 0 1 0 1 0 1 0 0 -2 1 0 1 0 
1 0 1 0 1 0 1 -2 1 0 1 0 1 0 1 0 
1 0 1 0 1 -2 1 0 1 0 1 0 1 0 1 -2 
1 0 1 0 1 0 1 0 1 0 1 0 0 -2 1 0 
1 0 1 0 1 0 1 0 1 0 0 -2 1 0 1 0 
1 0 1 0 1 0 1 0 0 -2 1 0 1 0 1 0 
1 0 1 0 1 0 0 -2 1 0 1 0 1 0 1 0 
1 0 1 0 1 -2 1 0 1 0 1 0 1 0 1 0 
1 -2 1 0 1 0 1 0 1 0 1 0 0 -2 1 0 
1 0 1 0 1 0 1 0 1 0 0 -2 1 0 1 0 
1 0 1 0 1 0 1 -2 1 0 1 0 1 0 1 0 
1 0 1 0 0 -3 1 0 1 0 1 0 1 0 1 -2 
1 0 1 0 1 0 1 0 1 0 1 -2 1 0 1 0 
1 0 1 0 1 -2 1 0 1 0 1 0 1 0 1 0 
1 0 0 -2 1 0 1 0 1 0 1 0 1 0 1 -2 
1 0 1 0 1 0 1 0 1 0 1 -2 1 0 1 0 
1 0 1 0 1 0 1 0 0 -2 1 0 1 0 1 0 
1 0 1 0 1 0 0 -2 1 0 1 0 1 0 1 0 
1 0 0 -2 1 0 1 0 1 0 1 0 1 0 1 0 
0 -2 1 0 1 0 1 0 1 0 1 0 1 0 0 -2 
1 0 1 0 1 0 1 0 1 0 1 0 0 -2 1 0 
1 0 1 0 1 0 1 -2 1 0 1 0 1 0 1 0 
1 0 1 -2 1 0 5826 3989 300 MP stroke
1 0 1 0 1 0 0 -2 1 0 1 0 1 0 1 0 
1 0 1 0 1 -2 1 0 1 0 1 0 1 0 0 -2 
1 0 1 0 1 0 1 0 1 0 1 0 0 -2 1 0 
1 0 1 0 1 0 1 0 1 0 0 -2 1 0 1 0 
1 0 1 0 1 0 1 -2 1 0 1 0 1 0 1 0 
1 0 0 -2 1 0 1 0 1 0 1 0 1 0 1 0 
0 -2 1 0 1 0 1 0 1 0 1 0 1 0 0 -3 
1 0 1 0 1 0 1 0 1 0 1 0 0 -2 1 0 
1 0 1 0 1 0 1 0 0 -2 1 0 1 0 1 0 
1 0 1 0 1 0 0 -2 1 0 1 0 1 0 1 0 
1 0 1 -2 1 0 1 0 1 0 1 0 1 0 1 -2 
1 0 1 0 1 0 1 0 1 -2 1 0 1 0 1 0 
1 0 1 0 0 -2 1 0 1 0 1 0 1 0 1 0 
1 0 0 -2 1 0 1 0 1 0 1 0 1 0 0 -2 
1 0 1 0 1 0 1 0 1 0 1 0 0 -2 1 0 
1 0 1 0 1 0 1 0 0 -2 1 0 1 0 1 0 
1 0 1 0 1 0 0 -2 1 0 1 0 1 0 1 0 
1 0 1 -2 1 0 1 0 1 0 1 0 0 -2 1 0 
1 0 1 0 1 0 1 0 1 0 0 -2 1 0 1 0 
1 0 1 0 1 0 0 -2 1 0 1 0 1 0 1 0 
1 0 1 0 0 -2 1 0 1 0 1 0 1 0 1 0 
0 -2 1 0 1 0 1 0 1 0 1 0 1 -2 1 0 
1 0 1 0 1 0 1 0 0 -2 1 0 1 0 1 0 
1 0 1 0 1 -2 1 0 1 0 1 0 1 0 1 0 
1 -2 1 0 1 0 1 0 1 0 1 -2 1 0 1 0 
1 0 1 0 1 0 1 -3 1 0 1 0 1 0 1 0 
1 -2 1 0 1 0 1 0 1 0 1 0 0 -2 1 0 
1 0 1 0 1 0 1 -2 1 0 1 0 1 0 1 0 
1 0 1 0 0 -2 1 0 1 0 1 0 1 0 1 -2 
1 0 1 0 1 0 1 0 1 0 0 -2 1 0 1 0 
1 0 1 0 1 0 0 -2 1 0 1 0 1 0 1 0 
1 0 1 -2 1 0 1 0 1 0 1 0 1 0 0 -2 
1 0 1 0 1 0 1 0 1 0 0 -2 1 0 1 0 
1 0 1 0 1 0 1 0 0 -2 1 0 1 0 1 0 
1 0 1 0 0 -2 1 0 1 0 1 0 1 0 1 0 
1 0 1 -2 1 0 1 0 1 0 1 0 1 0 0 -2 
1 0 1 0 1 0 1 0 1 0 1 0 0 -2 1 0 
1 0 1 0 1 0 5559 4087 300 MP stroke
1 0 1 -2 1 0 1 0 1 0 1 0 1 0 0 -2 
1 0 1 0 1 0 1 0 1 0 1 0 0 -2 1 0 
1 0 1 0 1 0 1 -2 1 0 1 0 1 0 1 0 
1 0 1 0 0 -2 1 0 1 0 1 0 1 0 1 0 
0 -2 1 0 1 0 1 0 1 0 1 0 0 -2 1 0 
1 0 1 0 1 0 1 0 1 0 0 -3 1 0 1 0 
1 0 1 0 1 0 0 -2 1 0 1 0 1 0 1 0 
1 0 1 0 0 -2 1 0 1 0 1 0 1 0 1 0 
0 -2 1 0 1 0 1 0 1 0 1 0 1 -2 1 0 
1 0 1 0 1 0 1 0 0 -2 1 0 1 0 1 0 
1 0 1 0 0 -2 1 0 1 0 1 0 1 0 1 0 
1 0 0 -2 1 0 1 0 1 0 1 0 1 0 0 -2 
1 0 1 0 1 0 1 0 1 0 1 0 0 -2 1 0 
1 0 1 0 1 0 1 0 1 0 1 -2 1 0 1 0 
1 0 1 0 1 0 0 -2 1 0 1 0 1 0 1 0 
1 0 1 0 1 -2 1 0 1 0 1 0 1 0 0 -2 
1 0 1 0 1 0 1 0 1 0 1 0 1 -2 1 0 
1 0 1 0 1 0 1 -2 1 0 1 0 1 0 1 0 
1 0 0 -2 1 0 1 0 1 0 1 0 1 0 1 0 
0 -2 1 0 1 0 1 0 1 0 1 -2 1 0 1 0 
1 0 1 0 1 0 1 -2 1 0 1 0 1 0 1 0 
0 -2 1 0 1 0 1 0 1 0 1 0 0 -2 1 0 
1 0 1 0 1 0 1 0 1 0 1 -2 1 0 1 0 
1 0 1 0 1 -3 1 0 1 0 1 0 1 0 1 0 
1 0 0 -2 1 0 1 0 1 0 1 0 1 0 1 0 
0 -2 1 0 1 0 1 0 1 0 1 0 1 0 0 -2 
1 0 1 0 1 0 1 0 1 0 1 0 0 -2 1 0 
1 0 1 0 1 0 1 0 1 -2 1 0 1 0 1 0 
1 0 1 0 1 0 1 -2 1 0 1 0 1 0 1 0 
1 -2 1 0 1 0 1 0 1 0 1 0 1 0 0 -2 
1 0 1 0 1 0 1 0 0 -2 1 0 1 0 1 0 
1 0 1 0 1 0 1 -2 1 0 1 0 1 0 1 0 
1 0 0 -2 1 0 1 0 1 0 1 0 1 0 0 -2 
1 0 1 0 1 0 1 0 1 0 1 0 0 -2 1 0 
1 0 1 0 1 0 1 0 0 -2 1 0 1 0 1 0 
1 0 1 0 1 0 1 -2 1 0 1 0 1 0 1 0 
1 -2 1 0 1 0 1 0 1 0 1 0 0 -2 1 0 
1 0 1 0 1 0 5291 4185 300 MP stroke
1 0 1 0 1 -2 1 0 1 0 1 0 1 0 0 -2 
1 0 1 0 1 0 1 0 1 0 1 0 1 -2 1 0 
1 0 1 0 1 0 0 -2 1 0 1 0 1 0 1 0 
1 0 1 0 1 0 0 -2 1 0 1 0 1 0 1 0 
1 0 1 0 0 -3 1 0 1 0 1 0 1 0 1 0 
1 0 0 -2 1 0 1 0 1 0 1 0 1 0 1 0 
0 -2 1 0 1 0 1 0 1 0 1 0 1 0 0 -2 
1 0 1 0 1 0 1 0 1 0 1 0 1 -2 1 0 
1 0 1 0 1 0 1 -2 1 0 1 0 1 0 1 0 
1 0 1 0 1 -2 1 0 1 0 1 0 1 0 1 -2 
1 0 1 0 1 0 1 0 1 0 1 0 0 -2 1 0 
1 0 1 0 1 0 1 0 1 -2 1 0 1 0 1 0 
1 0 1 0 0 -2 1 0 1 0 1 0 1 0 1 0 
1 0 1 -2 1 0 1 0 1 0 1 0 1 0 1 0 
1 0 0 -2 1 0 1 0 1 0 1 0 1 0 1 0 
0 -2 1 0 1 0 1 0 1 0 1 0 1 0 1 0 
0 -2 1 0 1 0 1 0 1 0 1 0 1 0 0 -2 
1 0 1 0 1 0 1 0 1 0 1 0 1 -2 1 0 
1 0 1 0 1 0 1 0 1 0 0 -2 1 0 1 0 
1 0 1 0 1 0 1 0 0 -2 1 0 1 0 1 0 
1 0 1 0 1 0 0 -2 1 0 1 0 1 0 1 0 
1 0 1 0 0 -2 1 0 1 0 1 0 1 0 1 0 
1 0 0 -2 1 0 1 0 1 0 1 0 1 0 0 -2 
1 0 1 0 1 0 1 0 1 0 1 0 1 0 0 -3 
1 0 1 0 1 0 1 0 1 0 1 0 0 -2 1 0 
1 0 1 0 1 0 1 0 1 0 0 -2 1 0 1 0 
1 0 1 0 1 0 1 0 1 -2 1 0 1 0 1 0 
1 0 1 0 1 0 0 -2 1 0 1 0 1 0 1 0 
1 0 1 0 1 -2 1 0 1 0 1 0 1 0 1 0 
1 0 1 -2 1 0 1 0 1 0 1 0 1 0 1 0 
0 -2 1 0 1 0 1 0 1 0 1 0 1 0 1 0 
0 -2 1 0 1 0 1 0 1 0 1 0 1 0 1 -2 
1 0 1 0 1 0 1 0 1 0 1 -2 1 0 1 0 
1 0 1 0 1 0 1 0 1 -2 1 0 1 0 1 0 
1 0 1 0 1 0 1 -2 1 0 1 0 1 0 1 0 
1 0 1 0 1 -2 1 0 1 0 1 0 1 0 1 0 
1 0 0 -2 1 0 1 0 1 0 1 0 1 0 1 0 
0 -2 1 0 1 0 5019 4275 300 MP stroke
1 0 1 0 1 0 1 0 1 0 1 -2 1 0 1 0 
1 0 1 0 1 0 1 0 1 -2 1 0 1 0 1 0 
1 0 1 0 1 -2 1 0 1 0 1 0 1 0 1 0 
1 0 1 0 0 -2 1 0 1 0 1 0 1 0 1 0 
1 0 1 0 0 -2 1 0 1 0 1 0 1 0 1 0 
1 0 1 0 1 0 0 -2 1 0 1 0 1 0 1 0 
1 0 1 0 1 0 1 0 1 0 0 -2 1 0 1 0 
1 0 1 0 1 0 1 0 1 -2 1 0 1 0 1 0 
1 0 1 0 1 0 1 0 1 0 0 -3 1 0 1 0 
1 0 1 0 1 0 1 0 1 0 1 0 0 -2 1 0 
1 0 1 0 1 0 1 0 1 0 1 0 0 -2 1 0 
1 0 1 0 1 0 1 0 1 0 1 0 0 -2 1 0 
1 0 1 0 1 0 1 0 1 0 1 0 1 -2 1 0 
1 0 1 0 1 0 1 0 1 0 1 0 1 0 0 -2 
1 0 1 0 1 0 1 0 1 0 1 0 1 -2 1 0 
1 0 1 0 1 0 1 0 1 0 1 0 1 0 1 -2 
1 0 1 0 1 0 1 0 1 0 1 0 1 0 1 0 
1 0 0 -2 1 0 1 0 1 0 1 0 1 0 1 0 
1 0 1 0 0 -2 1 0 1 0 1 0 1 0 1 0 
1 0 1 0 1 0 1 0 0 -2 1 0 1 0 1 0 
1 0 1 0 1 0 1 0 1 0 1 0 0 -2 1 0 
1 0 1 0 1 0 1 0 1 0 1 0 1 0 0 -2 
1 0 1 0 1 0 1 0 1 0 1 0 1 0 1 0 
1 0 0 -2 1 0 1 0 1 0 1 0 1 0 1 0 
1 0 1 -2 1 0 1 0 1 0 1 0 1 0 1 0 
1 0 1 0 1 -2 1 0 1 0 1 0 1 0 1 0 
1 0 1 0 1 0 1 0 0 -2 1 0 1 0 1 0 
1 0 1 0 1 0 1 0 1 0 0 -2 1 0 1 0 
1 0 1 0 1 0 1 0 1 0 1 0 1 0 1 -2 
1 0 1 0 1 0 1 0 1 0 1 0 1 0 1 0 
1 0 1 0 0 -2 1 0 1 0 1 0 1 0 1 0 
1 0 1 0 1 0 1 0 1 0 0 -2 1 0 1 0 
1 0 1 0 1 0 1 0 1 0 1 0 1 0 1 0 
1 -2 1 0 1 0 1 0 1 0 1 0 1 0 1 0 
1 0 1 0 1 0 1 0 1 0 0 -2 1 0 1 0 
1 0 1 0 1 0 1 0 1 0 1 0 1 0 1 0 
1 0 0 -3 1 0 1 0 1 0 1 0 1 0 1 0 
1 0 1 0 1 0 4741 4341 300 MP stroke
1 0 1 0 1 0 1 -2 1 0 1 0 1 0 1 0 
1 0 1 0 1 0 1 0 1 0 1 0 1 0 1 -2 
1 0 1 0 1 0 1 0 1 0 1 0 1 0 1 0 
1 0 1 0 1 0 1 0 0 -2 1 0 1 0 1 0 
1 0 1 0 1 0 1 0 1 0 1 0 1 0 1 0 
1 0 0 -2 1 0 1 0 1 0 1 0 1 0 1 0 
1 0 1 0 1 0 1 0 1 0 1 0 1 0 1 0 
1 0 0 -2 1 0 1 0 1 0 1 0 1 0 1 0 
1 0 1 0 1 0 1 0 1 0 1 0 1 0 1 0 
1 0 1 0 1 -2 1 0 1 0 1 0 1 0 1 0 
1 0 1 0 1 0 1 0 1 0 1 0 1 0 1 0 
1 -2 1 0 1 0 1 0 1 0 1 0 1 0 1 0 
1 0 1 0 1 0 1 0 1 0 1 0 1 0 1 0 
1 0 1 0 1 0 0 -2 1 0 1 0 1 0 1 0 
1 0 1 0 1 0 1 0 1 0 1 0 1 0 1 0 
1 0 1 0 1 0 1 0 1 0 1 0 1 0 0 -2 
1 0 1 0 1 0 1 0 1 0 1 0 1 0 1 0 
1 0 1 0 1 0 1 0 1 0 1 0 1 0 1 0 
1 0 1 0 1 0 1 0 1 0 1 0 1 0 1 0 
1 0 1 0 1 0 1 -2 1 0 1 0 1 0 1 0 
1 0 1 0 1 0 1 0 1 0 1 0 1 0 1 0 
1 0 1 0 1 0 1 0 1 0 1 0 1 0 1 0 
1 0 1 0 1 0 1 0 1 0 1 0 0 -2 1 0 
1 0 1 0 1 0 1 0 1 0 1 0 1 0 1 0 
1 0 1 0 1 0 1 0 1 0 1 0 1 0 1 0 
1 0 1 0 1 0 1 0 1 0 1 0 1 0 1 0 
1 0 1 0 1 0 1 0 1 0 1 0 1 0 1 0 
1 0 1 0 1 0 1 0 1 0 1 0 1 0 1 0 
1 0 1 0 0 -2 1 0 1 0 1 0 1 0 1 0 
1 0 1 0 1 0 1 0 1 0 1 0 1 0 1 0 
1 0 1 0 1 0 1 0 1 0 1 0 1 0 1 0 
1 0 1 0 1 0 1 0 1 0 1 0 1 0 1 0 
1 0 1 0 1 0 1 0 1 0 1 0 1 0 1 0 
1 0 1 0 1 0 1 0 1 2 1 0 1 0 1 0 
1 0 1 0 1 0 1 0 1 0 1 0 1 0 1 0 
1 0 1 0 1 0 1 0 1 0 1 0 1 0 1 0 
1 0 1 0 1 0 1 0 1 0 1 0 1 0 1 0 
1 0 1 0 1 0 4449 4363 300 MP stroke
1 0 1 0 1 0 1 0 1 0 1 0 1 0 1 0 
1 0 1 0 1 0 1 0 1 0 1 0 1 0 1 0 
1 0 1 0 1 0 1 0 1 0 1 0 1 0 1 0 
1 0 0 2 1 0 1 0 1 0 1 0 1 0 1 0 
1 0 1 0 1 0 1 0 1 0 1 0 1 0 1 0 
1 0 1 0 1 0 1 0 0 2 1 0 1 0 1 0 
1 0 1 0 1 0 1 0 1 0 1 0 1 0 1 0 
1 0 1 0 1 0 1 0 1 0 1 0 1 0 1 0 
1 0 1 0 1 0 1 0 0 2 1 0 1 0 1 0 
1 0 1 0 1 0 1 0 1 0 1 0 1 0 1 0 
1 0 1 0 1 0 1 0 1 0 1 0 1 0 1 2 
1 0 1 0 1 0 1 0 1 0 1 0 1 0 1 0 
1 0 1 0 1 0 1 0 1 0 1 0 1 0 1 0 
1 0 1 0 1 0 1 0 1 2 1 0 1 0 1 0 
1 0 1 0 1 0 1 0 1 0 1 0 1 0 1 0 
1 0 0 2 1 0 1 0 1 0 1 0 1 0 1 0 
1 0 1 0 1 0 1 0 1 0 1 0 1 2 1 0 
1 0 1 0 1 0 1 0 1 0 1 0 1 0 1 0 
1 0 1 0 1 0 1 0 0 2 1 0 1 0 1 0 
1 0 1 0 1 0 1 0 1 0 1 0 1 0 0 2 
1 0 1 0 1 0 1 0 1 0 1 0 1 0 1 0 
1 0 0 2 1 0 1 0 1 0 1 0 1 0 1 0 
1 0 1 0 1 0 1 0 1 0 1 2 1 0 1 0 
1 0 1 0 1 0 1 0 1 0 1 0 1 0 1 0 
0 3 1 0 1 0 1 0 1 0 1 0 1 2 1 0 
1 0 1 0 1 0 1 0 1 0 1 0 1 0 1 0 
0 2 1 0 1 0 1 0 1 0 1 0 1 0 1 0 
1 0 1 0 0 2 1 0 1 0 1 0 1 0 1 0 
1 0 1 0 1 0 0 2 1 0 1 0 1 0 1 0 
1 0 1 0 1 0 1 0 0 2 1 0 1 0 1 0 
1 0 1 0 1 2 1 0 1 0 1 0 1 0 1 0 
1 0 1 0 1 0 1 2 1 0 1 0 1 0 1 0 
1 0 0 2 1 0 1 0 1 0 1 0 1 0 1 0 
1 0 1 0 0 2 1 0 1 0 1 0 1 0 1 2 
1 0 1 0 1 0 1 0 1 0 1 0 1 0 0 2 
1 0 1 0 1 0 1 0 1 0 0 2 1 0 1 0 
1 0 1 0 1 0 1 0 1 0 1 0 0 2 1 0 
1 0 1 0 1 0 4167 4312 300 MP stroke
1 2 1 0 1 0 1 0 1 0 1 0 1 0 1 2 
1 0 1 0 1 0 1 0 1 0 0 2 1 0 1 0 
1 0 1 0 1 0 0 2 1 0 1 0 1 0 1 0 
1 0 1 0 1 2 1 0 1 0 1 0 1 0 0 2 
1 0 1 0 1 0 1 0 1 0 1 0 1 0 0 2 
1 0 1 0 1 0 1 0 0 2 1 0 1 0 1 0 
1 0 1 2 1 0 1 0 1 0 1 0 1 0 1 0 
0 3 1 0 1 0 1 0 1 0 0 2 1 0 1 0 
1 0 1 0 1 0 1 0 1 2 1 0 1 0 1 0 
1 0 0 2 1 0 1 0 1 0 1 2 1 0 1 0 
1 0 1 0 1 0 1 0 1 2 1 0 1 0 1 0 
0 2 1 0 1 0 1 0 1 0 1 0 0 2 1 0 
1 0 1 0 1 0 1 0 1 0 0 2 1 0 1 0 
1 0 1 2 1 0 1 0 1 0 1 0 1 0 0 2 
1 0 1 0 1 0 1 0 1 0 0 2 1 0 1 0 
1 0 1 2 1 0 1 0 1 0 1 0 0 2 1 0 
1 0 1 0 1 0 1 0 0 2 1 0 1 0 1 2 
1 0 1 0 1 0 0 2 1 0 1 0 1 0 1 0 
1 0 1 0 0 2 1 0 1 0 1 0 0 2 1 0 
1 0 1 0 0 2 1 0 1 0 1 0 1 0 1 0 
1 0 0 2 1 0 1 0 1 0 0 2 1 0 1 0 
1 0 1 2 1 0 1 0 1 0 1 0 0 2 1 0 
1 0 1 0 1 0 0 3 1 0 1 0 1 0 0 2 
1 0 1 0 1 0 1 2 1 0 1 0 1 0 1 0 
0 2 1 0 1 0 1 0 1 0 0 2 1 0 1 0 
1 0 1 2 1 0 1 0 1 0 0 2 1 0 1 0 
1 0 1 0 1 2 1 0 1 0 1 2 1 0 1 0 
1 2 1 0 1 0 1 0 0 2 1 0 1 0 1 0 
1 0 0 2 1 0 1 0 1 0 0 2 1 0 1 0 
1 2 1 0 1 0 1 0 1 0 0 2 1 0 1 0 
1 0 1 2 1 0 1 0 1 2 1 0 1 0 0 2 
1 0 1 0 1 0 1 0 0 2 1 0 1 0 1 0 
1 2 1 0 1 0 1 2 1 0 1 0 0 2 1 0 
1 0 1 0 1 2 1 0 1 0 1 0 1 3 1 0 
1 0 0 2 1 0 1 0 1 0 0 2 1 0 1 0 
1 2 1 0 1 0 1 0 1 2 1 0 1 0 1 0 
0 2 1 0 1 0 0 2 1 0 1 0 1 0 0 2 
1 0 1 0 1 0 3907 4181 300 MP stroke
1 2 1 0 1 0 1 0 0 2 1 0 1 0 1 2 
1 0 1 2 1 0 1 0 1 2 1 0 1 0 1 0 
1 2 1 0 1 0 1 0 0 2 1 0 1 0 0 2 
1 0 1 0 0 2 1 0 1 0 1 0 1 0 0 2 
1 0 1 0 1 0 1 0 0 2 1 0 1 0 0 2 
1 0 1 0 1 2 1 0 1 0 0 2 1 0 1 0 
1 0 1 2 1 0 1 0 0 3 1 0 1 0 1 2 
1 0 1 2 1 0 1 0 0 2 1 0 1 0 1 0 
1 2 1 0 1 0 0 2 1 0 1 0 0 2 1 0 
1 0 1 2 1 0 1 2 1 0 1 0 0 2 1 0 
1 0 1 0 0 2 1 0 1 0 1 0 0 2 1 0 
1 0 0 2 1 0 1 0 0 2 1 0 1 0 0 2 
1 0 1 0 1 2 1 0 1 0 1 2 1 0 1 0 
0 2 1 0 1 2 1 0 1 2 1 0 1 0 0 2 
1 0 1 0 1 0 0 2 1 0 1 0 1 2 1 0 
1 0 0 3 1 0 1 0 0 2 1 0 1 0 0 2 
1 0 1 0 1 2 1 0 1 0 1 2 1 0 1 2 
1 0 1 2 1 0 1 2 1 0 1 0 0 2 1 0 
1 0 0 2 1 0 1 0 1 0 0 2 1 0 1 0 
1 2 1 0 1 2 1 0 1 2 1 0 0 2 1 0 
1 0 1 2 1 0 1 0 1 2 1 0 1 2 1 0 
1 2 1 0 1 2 1 0 1 2 1 0 1 2 1 0 
1 0 0 2 1 0 1 0 0 3 1 0 1 0 0 2 
1 0 1 0 0 2 1 0 1 2 1 0 1 2 1 0 
1 0 0 2 1 0 1 0 1 2 1 0 1 2 1 0 
1 2 1 0 1 2 1 0 0 2 1 0 1 0 0 2 
1 0 1 0 0 2 1 0 1 0 1 2 1 0 1 2 
1 0 1 2 1 0 0 2 1 0 1 0 0 2 1 0 
1 0 0 2 1 0 1 0 1 2 1 0 1 2 1 0 
1 0 0 2 1 0 1 2 1 0 1 2 1 0 1 3 
1 0 1 2 1 0 1 0 0 2 1 0 1 0 0 2 
1 0 1 0 0 2 1 0 1 0 0 2 1 0 1 2 
1 0 1 2 1 0 1 2 1 0 1 0 0 2 1 0 
1 0 0 2 1 0 1 2 1 0 1 2 1 0 0 2 
1 0 1 0 0 2 1 0 1 0 0 2 1 0 1 0 
1 2 1 0 1 2 1 0 1 2 1 0 0 2 1 0 
1 2 1 0 1 2 1 0 1 2 1 0 1 3 1 0 
1 2 1 0 1 2 3658 3954 300 MP stroke
1 0 0 2 1 0 1 0 0 2 1 0 1 2 1 0 
1 2 1 0 0 2 1 0 1 0 0 2 1 0 1 0 
0 2 1 0 1 0 0 2 1 0 1 2 1 0 0 2 
1 0 1 2 1 0 1 2 1 0 1 2 1 0 1 2 
1 0 0 2 1 0 1 0 0 2 1 0 0 2 1 0 
1 0 0 2 1 0 1 0 0 2 1 0 1 2 1 0 
1 3 1 0 0 2 1 0 1 0 0 2 1 0 1 2 
1 0 0 2 1 0 1 0 0 2 1 0 1 2 1 0 
1 2 1 0 0 2 1 0 1 0 0 2 1 0 1 0 
0 2 1 0 1 2 1 0 0 2 1 0 0 2 1 0 
1 0 0 2 1 0 1 0 0 2 1 0 1 0 0 2 
1 0 1 0 0 2 1 0 1 2 1 0 0 2 1 0 
1 2 1 0 0 2 1 0 1 0 0 2 1 0 1 0 
0 3 1 0 1 2 1 0 1 2 1 0 0 2 1 0 
1 0 0 2 1 0 0 2 1 0 1 2 1 0 0 2 
1 0 1 0 0 2 1 0 1 0 0 2 1 0 1 0 
0 2 1 0 0 2 1 0 1 0 0 2 1 0 0 2 
1 0 1 2 1 0 0 2 1 0 1 2 1 0 0 2 
1 0 1 0 0 2 1 0 1 2 1 0 0 2 1 0 
1 2 1 0 0 2 1 0 0 2 1 0 1 0 0 3 
1 0 0 2 1 0 1 0 0 2 1 0 1 2 1 0 
0 2 1 0 0 2 1 0 1 0 0 2 1 0 0 2 
1 0 1 2 1 0 0 2 1 0 1 2 1 0 0 2 
1 0 1 0 0 2 1 0 1 2 1 0 0 2 1 0 
0 2 1 0 1 2 1 0 0 2 1 0 0 2 1 0 
1 0 0 2 1 0 1 2 1 0 1 2 1 0 0 2 
1 0 1 3 1 0 0 2 1 0 0 2 1 0 1 2 
1 0 0 2 1 0 1 0 0 2 1 0 0 2 1 0 
1 0 0 2 1 0 1 2 1 0 0 2 1 0 0 2 
1 0 1 0 0 2 1 0 0 2 1 0 1 2 1 0 
0 2 1 0 1 0 0 2 1 0 1 2 1 0 1 2 
1 2 1 0 0 2 1 0 0 2 1 0 1 0 0 2 
1 0 0 2 1 0 0 3 1 0 1 0 0 2 1 0 
1 0 0 2 1 0 1 2 1 0 0 2 1 0 0 2 
1 0 1 2 1 2 1 0 0 2 1 0 1 2 1 0 
0 2 1 0 1 2 1 0 0 2 1 0 1 2 1 0 
0 2 1 0 1 2 1 2 1 0 0 2 1 0 1 2 
1 0 0 2 1 0 3447 3683 300 MP stroke
1 2 1 0 0 2 1 0 1 0 0 2 1 0 0 3 
1 0 0 2 1 0 1 2 1 0 0 2 1 0 0 2 
1 0 0 2 1 0 1 0 0 2 1 0 1 2 1 2 
1 0 0 2 1 0 1 0 0 2 1 0 0 2 1 0 
0 2 1 0 1 2 1 0 0 2 1 0 1 2 1 0 
0 2 1 0 1 2 1 0 0 2 1 0 1 2 1 2 
1 0 0 2 1 0 1 2 1 2 1 0 0 3 1 0 
1 2 1 0 0 2 1 0 1 2 1 0 0 2 1 0 
1 2 1 2 1 0 0 2 1 0 0 2 1 0 0 2 
1 0 1 0 0 2 1 0 0 2 1 0 1 2 1 0 
0 2 1 0 1 2 1 0 0 2 1 0 0 2 1 0 
0 2 1 0 1 2 1 0 0 2 1 0 0 2 1 0 
1 0 0 2 1 0 1 2 1 3 1 0 0 2 1 0 
1 2 1 2 1 0 0 2 1 0 0 2 1 0 0 2 
1 0 0 2 1 0 1 0 0 2 1 0 0 2 1 0 
0 2 1 0 1 0 0 2 1 0 0 2 1 0 0 2 
1 0 1 2 0 2 1 0 1 2 1 2 1 0 0 2 
1 0 0 2 1 0 1 2 1 2 1 0 0 2 1 0 
0 3 1 0 1 2 1 2 0 2 1 0 1 2 1 2 
1 0 0 2 1 0 0 2 1 0 0 2 1 0 1 0 
0 2 1 0 0 2 1 0 0 2 1 0 0 2 1 0 
0 2 1 0 1 2 1 2 1 2 1 2 1 2 1 0 
0 2 1 0 0 2 1 0 0 2 1 0 1 2 1 3 
1 0 0 2 1 0 0 2 1 0 0 2 1 0 1 2 
0 2 1 0 1 2 1 2 1 0 0 2 1 0 0 2 
1 0 0 2 1 0 1 2 1 0 0 2 1 0 0 2 
1 0 0 2 1 0 0 2 1 0 0 2 1 0 1 2 
1 2 1 0 0 2 1 0 0 2 1 0 1 2 1 0 
0 2 1 0 0 3 1 0 0 2 1 0 1 2 1 2 
1 0 0 2 1 0 0 2 1 0 0 2 1 0 0 2 
1 0 1 0 0 2 1 0 0 2 1 0 1 2 1 0 
0 2 1 0 0 2 1 0 0 2 1 0 1 2 1 2 
1 0 0 2 1 0 1 2 1 2 1 0 0 2 1 0 
0 2 1 0 0 2 1 0 1 2 1 0 0 2 1 0 
0 3 1 0 0 2 1 0 1 2 1 2 1 0 0 2 
1 0 0 2 1 0 1 2 1 0 0 2 1 0 0 2 
1 0 0 2 1 0 1 0 0 2 1 0 0 2 1 0 
0 2 1 0 1 2 3248 3362 300 MP stroke
1 2 1 2 1 0 0 2 1 0 1 2 1 0 0 2 
1 0 0 2 1 0 1 2 1 2 1 0 0 2 1 0 
1 3 1 2 1 0 0 2 1 0 1 2 1 2 1 0 
0 2 1 0 1 0 0 2 1 0 0 2 1 0 1 2 
1 2 1 0 0 2 1 0 1 2 1 0 0 2 1 0 
0 2 1 0 1 0 0 2 1 0 1 2 1 0 0 2 
1 0 0 2 1 0 1 0 0 2 1 0 1 2 1 2 
1 0 0 2 1 0 1 2 1 0 0 3 1 0 1 0 
0 2 1 0 0 2 1 0 0 2 1 0 1 2 1 0 
0 2 1 0 1 0 0 2 1 0 1 2 1 0 0 2 
1 0 1 2 1 2 1 0 0 2 1 0 1 0 0 2 
1 0 0 2 1 0 1 2 1 2 1 0 0 2 1 0 
1 2 1 2 1 0 0 2 1 0 1 2 1 2 1 0 
0 2 1 0 1 3 1 2 1 0 0 2 1 0 0 2 
1 0 0 2 1 0 1 2 1 2 1 0 0 2 1 0 
0 2 1 0 0 2 1 0 0 2 1 0 1 2 1 2 
1 0 0 2 1 0 0 2 1 0 0 2 1 0 0 2 
1 0 0 2 1 0 1 2 1 2 1 0 0 2 1 0 
0 2 1 0 0 2 1 0 0 2 1 0 0 3 1 0 
0 2 1 0 0 2 1 0 0 2 1 0 1 2 1 2 
1 0 0 2 1 2 1 0 0 2 1 2 1 0 0 2 
1 0 1 2 1 2 1 2 1 2 1 2 1 2 1 2 
1 2 1 0 0 2 1 0 0 2 1 0 0 2 1 0 
0 2 1 0 0 3 1 0 0 2 1 0 1 2 1 2 
1 0 0 2 1 0 0 2 1 0 0 2 1 0 0 2 
1 0 0 2 1 0 1 2 1 2 1 0 0 2 1 0 
0 2 1 0 0 2 1 0 0 2 1 0 0 2 1 0 
1 2 1 2 1 0 0 2 1 0 0 2 1 0 0 2 
1 0 0 2 1 0 0 2 1 0 1 3 1 0 0 2 
1 0 1 2 1 2 1 0 0 2 1 0 0 2 1 0 
0 2 1 0 1 0 0 2 1 0 1 2 1 2 1 0 
0 2 1 0 0 2 1 0 1 0 0 2 1 0 1 0 
0 2 1 0 0 2 1 0 0 2 1 0 1 2 1 0 
0 2 1 0 1 0 0 2 1 0 1 0 0 2 1 0 
0 2 1 0 1 2 1 0 0 2 1 0 1 0 1 3 
1 0 0 2 1 0 1 2 1 0 0 2 1 0 1 0 
0 2 1 0 1 0 1 0 0 2 1 0 1 2 1 0 
1 2 1 0 1 0 3042 3043 300 MP stroke
0 2 1 0 1 0 1 2 1 0 0 2 1 0 1 0 
1 0 1 0 0 2 1 0 1 0 1 2 1 0 1 2 
1 0 1 0 1 0 0 2 1 0 1 0 1 0 1 2 
1 0 1 0 1 0 1 2 1 0 1 0 1 0 1 0 
0 2 1 0 1 0 1 0 1 0 1 0 1 0 1 2 
1 0 1 0 1 0 1 0 1 0 1 0 1 0 1 0 
1 2 1 0 1 0 1 0 1 0 1 0 1 0 1 0 
1 0 1 0 1 0 1 0 1 0 1 0 1 0 1 0 
1 0 1 0 1 0 1 0 1 0 1 0 1 0 1 0 
1 0 1 0 1 0 1 0 1 0 1 0 1 0 1 0 
0 2 1 0 1 0 1 0 1 0 1 0 1 0 1 0 
1 0 1 0 1 0 1 0 1 0 1 0 1 0 1 0 
1 0 1 0 1 0 1 0 1 0 1 0 1 0 1 0 
0 -2 1 0 1 0 1 0 1 0 1 0 1 0 1 0 
1 0 1 0 1 0 1 0 1 0 1 0 1 0 1 0 
1 0 1 0 1 0 1 0 1 0 1 0 1 0 1 0 
1 0 1 0 1 0 1 0 1 0 1 0 1 0 1 0 
1 0 1 0 1 0 1 0 1 0 1 0 1 0 1 0 
1 0 1 0 1 0 1 0 1 0 1 0 1 0 1 0 
1 0 1 0 1 0 1 0 1 0 1 0 1 0 1 0 
1 0 1 0 1 0 1 0 1 0 1 0 1 0 1 0 
1 0 1 0 1 0 1 0 1 0 1 2 1 0 1 0 
1 0 1 0 1 0 1 0 1 0 1 0 1 0 1 0 
1 0 1 0 1 0 1 0 1 0 1 0 1 0 1 0 
1 0 1 0 1 0 1 0 1 0 1 0 1 0 1 0 
1 0 1 0 1 0 1 0 1 0 1 0 1 0 1 0 
1 0 1 0 1 0 1 0 1 0 0 2 1 0 1 0 
1 0 1 0 1 0 1 0 1 0 1 0 1 0 1 0 
1 0 1 0 1 0 1 0 1 0 1 0 1 0 1 0 
1 0 1 0 1 0 1 0 1 0 1 0 1 0 1 0 
1 0 1 0 1 0 1 0 1 0 1 0 1 0 1 0 
1 0 1 0 1 0 1 0 0 2 1 0 1 0 1 0 
1 0 1 0 1 0 1 0 1 0 1 0 1 0 1 0 
1 0 1 0 1 0 1 0 1 0 1 0 1 0 1 0 
1 0 1 0 1 0 1 0 1 0 1 0 1 0 1 0 
1 0 1 0 1 0 1 0 1 0 1 0 1 0 1 0 
1 0 1 0 1 0 1 0 1 0 1 0 1 0 1 0 
1 0 1 0 1 0 2752 3013 300 MP stroke
0 -2 1 0 1 0 1 0 1 0 1 0 1 0 1 0 
1 0 1 0 1 0 1 0 1 0 1 0 1 0 1 0 
1 0 1 0 1 0 1 0 1 0 1 0 1 0 1 0 
1 0 1 0 1 0 1 0 1 0 1 0 1 0 1 0 
1 0 1 0 1 0 1 0 1 0 1 0 1 0 1 0 
1 0 1 0 1 0 1 0 1 0 1 0 1 0 1 0 
1 0 1 0 1 0 1 0 1 0 1 0 1 0 1 0 
1 0 1 0 0 2 1 0 1 0 1 0 1 0 1 0 
1 0 1 0 1 0 1 0 1 0 1 0 1 0 1 0 
1 0 1 0 1 0 1 0 1 0 1 0 1 0 1 0 
1 0 1 0 1 0 1 0 1 0 1 0 1 0 1 0 
1 0 1 0 1 0 1 0 1 0 1 0 1 0 1 0 
1 0 1 0 1 0 0 2 1 0 1 0 1 0 1 0 
1 0 1 0 1 0 1 0 1 0 1 0 1 0 1 0 
1 0 1 0 1 0 1 0 1 0 1 0 1 0 1 0 
1 0 1 0 1 0 1 0 1 0 1 0 1 0 1 0 
1 0 1 0 1 0 1 0 1 0 1 0 1 0 1 0 
1 0 1 0 1 0 1 0 1 0 1 0 1 0 1 0 
1 0 1 0 1 0 1 0 1 0 1 0 1 0 1 0 
1 0 1 0 1 0 1 0 1 0 1 0 1 0 1 0 
1 0 1 0 1 0 1 0 1 0 1 0 1 0 1 3 
1 0 1 0 1 0 1 0 1 0 1 0 1 0 1 0 
1 0 1 0 1 0 1 0 1 0 1 0 1 0 0 -3 
1 0 1 0 1 0 1 0 1 0 0 3 1 0 1 0 
1 0 1 0 1 0 0 -3 1 0 1 0 1 0 1 0 
1 0 1 0 1 0 1 0 1 0 1 0 1 0 1 0 
1 0 1 0 1 0 1 0 1 0 1 0 1 0 1 0 
1 0 1 0 1 0 1 0 1 0 1 0 1 0 1 0 
1 0 1 0 1 0 1 0 1 0 1 0 1 0 1 0 
1 0 1 0 1 0 1 0 1 0 1 0 1 0 1 0 
1 0 1 0 1 0 1 0 1 0 1 0 1 0 1 0 
1 0 1 0 1 0 1 0 1 0 1 0 1 0 1 0 
1 0 1 0 1 0 1 0 1 0 1 0 1 0 1 0 
1 0 1 0 1 0 1 0 1 0 1 0 1 0 1 0 
1 0 1 0 1 0 1 0 1 0 1 0 1 0 1 0 
1 0 1 0 1 0 1 0 1 0 1 0 1 0 1 0 
1 0 1 0 1 0 1 0 1 0 1 0 1 0 1 0 
1 0 1 0 1 0 2459 3011 300 MP stroke
1 3 1 0 1 0 1 0 1 0 1 0 1 0 1 0 
1 0 1 0 1 0 1 0 1 0 1 0 1 0 1 0 
1 0 1 0 1 0 1 0 1 0 1 0 1 0 1 0 
1 0 1 0 1 0 1 0 1 0 1 0 1 0 1 0 
1 0 1 0 1 0 1 0 1 0 1 0 1 0 1 0 
1 0 1 0 1 0 1 0 1 0 1 0 1 0 1 0 
1 0 1 0 1 0 1 0 1 0 1 0 1 0 1 0 
1 0 1 0 1 0 1 0 1 0 1 0 1 0 1 0 
1 0 1 0 1 0 1 0 1 0 1 0 1 0 1 0 
1 0 1 0 1 0 1 0 1 0 1 0 1 0 1 0 
1 0 1 0 1 0 1 2 1 0 1 0 1 0 1 0 
1 0 1 0 1 0 1 0 1 0 1 0 1 0 1 0 
1 0 1 0 1 0 1 0 1 0 1 0 1 0 1 0 
1 0 1 0 1 0 1 0 1 0 1 0 1 0 1 0 
1 0 1 0 1 0 1 0 1 0 1 0 1 0 1 0 
1 0 1 0 1 0 1 0 1 0 1 0 1 0 1 0 
1 0 1 0 1 0 1 0 1 0 1 0 1 0 1 0 
1 0 1 0 1 0 1 0 1 0 1 -2 1 0 1 0 
1 0 1 0 1 0 1 0 1 0 1 0 1 0 1 0 
1 0 1 0 1 0 1 0 1 0 1 0 1 0 1 0 
1 0 1 0 1 0 1 0 1 0 1 0 1 0 1 0 
1 0 1 0 1 0 1 0 1 0 1 0 1 0 1 0 
1 0 1 0 1 0 1 0 1 0 1 0 1 0 1 0 
1 0 1 0 1 0 1 0 1 0 1 0 1 0 1 0 
1 0 1 0 1 0 1 0 1 0 1 0 1 0 1 0 
1 0 1 0 1 0 1 0 1 0 1 0 1 0 1 0 
1 0 0 2 1 0 1 0 1 0 1 0 1 0 1 0 
1 0 1 0 1 0 1 0 1 0 1 0 1 0 1 0 
1 0 1 0 1 0 1 0 1 0 1 0 1 0 1 0 
1 0 1 0 1 0 1 0 1 0 1 0 1 0 1 0 
1 0 1 0 1 0 1 0 1 0 1 0 1 0 0 -2 
1 0 1 0 1 0 1 0 1 0 1 0 1 0 1 0 
1 0 1 0 1 0 1 0 1 0 1 0 1 0 1 0 
1 0 1 0 1 0 1 0 1 0 1 0 1 0 1 0 
1 0 1 0 1 0 1 0 1 0 1 0 1 0 1 0 
1 0 1 0 1 0 1 0 1 0 1 0 1 0 1 0 
1 0 1 0 1 0 1 0 1 0 1 0 1 0 1 0 
1 0 1 0 1 0 2162 3008 300 MP stroke
1 0 1 0 1 0 1 0 1 0 1 0 1 0 1 0 
1 0 1 0 1 0 1 0 1 0 1 0 1 0 1 0 
1 0 1 0 1 0 1 0 1 0 1 0 1 0 1 0 
1 0 1 0 1 0 1 0 1 0 1 0 1 0 1 0 
1 0 1 0 1 0 1 0 1 0 1 0 1 0 1 0 
1 0 1 0 1 0 1 0 1 0 1 0 1 0 1 0 
1 0 1 0 1 0 1 0 1 0 1 0 0 -3 1 0 
1 0 1 0 1 0 1 0 1 0 1 0 1 0 1 0 
1 0 1 0 1 0 1 0 1 0 1 0 1 0 1 0 
1 0 1 0 1 0 1 0 1 0 1 0 1 0 1 0 
1 0 1 0 1 0 1 0 1 0 1 0 1 0 1 0 
1 0 1 0 1 0 1 0 1 0 1 0 1 0 1 0 
1 0 1 0 1 0 1 0 1 0 1 0 1 0 1 0 
1 0 1 0 1 0 1 0 1 0 1 0 1 0 1 0 
1 0 1 0 1 0 1 0 1 0 1 0 1 0 1 0 
1 0 1 0 1 0 1 0 1 0 1 0 1 0 1 0 
1 0 1 0 1 0 1 0 1 0 1 0 1 0 1 0 
1 0 1 0 1 0 1 0 1 0 1 0 1 -2 1 0 
1 0 1 0 1 0 1 0 1 0 1 0 1 0 1 0 
1 0 1 0 1 0 1 0 1 0 1 0 1 0 1 0 
1 0 1 0 1 0 1 0 1 0 1 0 1 0 1 0 
1 0 1 0 1 0 1 0 1 0 1 0 1 0 0 -2 
1 0 1 0 1 0 1 0 1 0 1 0 1 0 1 0 
1 0 1 0 1 0 1 0 1 0 1 0 1 0 1 0 
1 0 1 0 1 0 0 -2 1 0 1 0 1 0 1 0 
1 0 1 0 1 0 1 0 1 0 1 0 1 0 1 0 
1 0 1 0 1 0 1 0 1 0 1 0 1 0 1 0 
1 0 1 0 1 0 1 0 1 0 1 0 1 0 0 -2 
1 0 1 0 1 0 1 0 1 0 1 0 1 0 1 0 
1 0 1 0 1 0 1 0 1 0 1 0 1 0 1 0 
1 0 1 0 1 0 1 0 1 0 1 0 1 0 1 -2 
1 0 1 0 1 0 1 0 1 0 1 0 1 0 1 0 
1 0 1 0 1 0 1 0 1 0 1 0 1 0 1 0 
1 0 1 0 0 -2 1 0 1 0 1 0 1 0 1 0 
1 0 1 0 1 0 1 0 1 0 1 0 1 0 1 0 
1 0 1 0 1 0 1 0 1 0 1 0 1 0 1 0 
1 0 1 0 1 0 1 0 1 0 1 0 1 0 1 0 
1 0 1 0 1 0 1868 3023 300 MP stroke
1 0 1 0 1 0 1 0 1 0 1 0 1 0 1 0 
1 0 1 0 1 0 1 0 1 0 1 0 1 0 1 0 
1 0 1 0 1 0 1 0 1 0 1 0 1 0 1 0 
1 0 1 0 1 0 1 0 1 0 1 0 1 0 1 0 
1 0 0 -2 1 0 1 0 1 0 1 0 1 0 1 0 
1 0 1 0 1 0 1 0 1 0 1 0 1 0 1 0 
1 0 1 0 1 0 1 0 1 0 1 0 1 0 1 0 
1 0 1 0 1 0 1 0 1 0 1 0 1 0 1 0 
1 0 1 0 1 0 1 0 1 0 1 0 1 0 0 -2 
1 0 1 0 1 0 1 0 1 0 1 0 1 0 1 0 
1 0 1 0 1 0 1 0 1 0 1 0 1 0 1 0 
1 0 0 -2 1 0 1 0 1 0 1 0 1 0 1 0 
1 0 1 0 1 0 1 0 1 0 1 0 1 0 1 -2 
1 0 1 0 1 0 1 0 1 0 1 0 1 0 1 0 
1 0 1 0 1 0 1 0 0 -2 1 0 1 0 1 0 
1 0 1 0 1 0 1 0 1 0 1 0 1 0 1 0 
1 0 0 -2 1 0 1 0 1 0 1 0 1 0 1 0 
1 0 1 0 1 0 1 0 1 0 1 0 1 -2 1 0 
1 0 1 0 1 0 1 0 1 0 1 0 1 0 1 0 
1 0 1 0 1 0 0 -2 1 0 1 0 1 0 1 0 
1 0 1 0 1 0 1 0 1 0 1 0 1 0 1 0 
1 0 1 0 0 -2 1 0 1 0 1 0 1 0 1 0 
1 0 1 0 1 0 1 0 1 0 1 0 1 0 1 0 
1 0 1 0 1 0 0 -2 1 0 1 0 1 0 1 0 
1 0 1 0 1 0 1 0 1 0 1 0 1 0 1 0 
1 0 1 0 1 0 1 0 1 0 1 0 1 0 1 0 
1 0 1 0 1 0 1 0 1 0 1 0 1 0 1 0 
1 0 1 0 1 0 1 0 1 0 1 0 1 0 1 0 
1 0 1 0 1 0 1 0 1 0 1 0 0 2 1 0 
1 0 1 0 1 0 1 0 1 0 1 0 1 0 1 0 
1 0 1 0 1 0 1 0 1 0 1 0 1 0 1 0 
0 2 1 0 1 0 1 0 1 0 1 0 1 0 1 0 
1 0 1 0 1 0 1 0 1 0 1 0 0 2 1 0 
1 0 1 0 1 0 1 0 1 0 1 0 1 0 1 0 
1 0 0 2 1 0 1 0 1 0 1 0 1 0 1 0 
1 0 1 0 1 0 1 0 0 2 1 0 1 0 1 0 
1 0 1 0 1 0 1 0 1 0 1 2 1 0 1 0 
1 0 1 0 1 0 1582 3031 300 MP stroke
1 0 1 2 1 0 1 0 1 0 1 0 1 0 1 0 
1 0 0 2 1 0 1 0 1 0 1 0 1 0 1 0 
1 0 0 2 1 0 1 0 1 0 1 0 1 0 1 0 
1 0 1 0 1 0 0 2 1 0 1 0 1 0 1 0 
1 0 1 0 1 0 1 0 0 2 1 0 1 0 1 0 
1 0 1 0 1 0 1 0 1 0 1 0 0 2 1 0 
1 0 1 0 1 0 1 0 1 0 1 0 1 0 1 0 
0 2 1 0 1 0 1 0 1 0 1 0 1 0 1 0 
1 0 1 0 1 0 1 0 1 2 1 0 1 0 1 0 
1 0 1 0 1 0 1 0 1 0 1 2 1 0 1 0 
1 0 1 0 1 0 1 0 1 0 1 0 1 0 0 2 
1 0 1 0 1 0 1 0 1 0 1 0 1 0 1 0 
1 0 1 0 1 0 1 0 1 0 1 0 1 0 1 0 
1 3 1 0 1 0 1 0 1 0 1 0 1 0 1 0 
1 0 1 0 1 0 1 0 1 0 1 0 1 0 1 0 
1 0 1 0 1 0 1 0 1 0 1 0 1 0 1 0 
1 0 1 0 1 0 1 0 1 0 1 0 1 0 1 0 
1 0 1 0 1 0 1 0 1 0 1 0 1 0 1 0 
1 0 1 -3 1 0 1 0 1 0 1 0 1 0 1 0 
1 0 1 0 1 0 1 0 1 0 1 0 1 0 1 0 
1 0 1 0 1 0 1 0 0 -2 1 0 1 0 1 0 
1 0 1 0 1 0 1 0 1 0 1 0 1 0 1 -2 
1 0 1 0 1 0 1 0 1 0 1 0 1 0 0 -2 
1 0 1 0 1 0 1 0 1 0 1 0 1 -2 1 0 
1 0 1 0 1 0 1 0 1 0 0 -2 1 0 1 0 
1 0 1 0 1 0 1 0 0 -2 1 0 1 0 1 0 
1 -2 1 0 1 0 1 0 1 0 1 -2 1 0 1 0 
1 0 0 -2 1 0 1 0 1 0 1 0 1 -2 1 0 
1 0 0 -2 1 0 1 0 1 0 1 0 0 -2 1 0 
1 0 1 0 1 0 0 -2 1 0 1 0 0 -2 1 0 
1 0 1 0 1 -2 1 0 1 0 0 -2 1 0 1 0 
1 0 0 -2 1 0 1 0 1 0 0 -2 1 0 1 -2 
1 0 1 -2 1 0 1 0 1 -2 1 0 1 0 0 -2 
1 0 1 0 0 -2 1 0 0 -3 1 0 1 0 1 0 
0 -2 1 0 1 -2 1 0 0 -2 1 0 1 0 0 -2 
1 0 1 0 0 -2 1 0 1 0 0 -2 1 0 1 -2 
1 -2 1 0 1 -2 1 0 0 -2 1 0 1 0 0 -2 
1 0 0 -2 1 0 1313 3084 300 MP stroke
0 -2 1 0 0 -2 1 0 1 0 0 -2 1 0 1 0 
0 -2 1 0 1 -2 0 -2 1 0 1 -2 1 0 0 -2 
1 0 0 -2 1 0 1 0 0 -2 1 -3 1 0 0 -2 
1 0 0 -2 1 0 0 -2 1 0 1 0 0 -2 1 0 
0 -2 1 0 0 -2 1 0 0 -2 1 0 0 -2 1 0 
0 -2 1 0 1 -2 0 -2 1 0 1 -2 1 -2 1 0 
0 -2 1 -2 1 0 0 -2 1 -2 1 0 0 -2 1 -2 
1 0 0 -2 1 -2 1 -2 1 -3 1 -2 0 -2 1 0 
0 -2 1 0 0 -2 1 0 0 -2 1 -2 1 0 0 -2 
1 -2 1 -2 1 -2 0 -2 1 0 0 -2 1 -2 1 -2 
0 -2 1 0 1 -2 0 -2 1 0 0 -2 1 0 0 -2 
1 -2 1 -2 0 -2 1 -3 1 0 0 -2 1 -2 1 -2 
0 -2 1 0 0 -2 1 -2 0 -2 1 0 0 -4 1 0 
0 -2 1 0 0 -2 1 -2 1 -2 0 -2 1 0 0 -2 
1 0 0 -2 1 -2 0 -2 1 0 0 -2 1 -2 0 -2 
1 0 0 -2 1 -2 1 -3 0 -2 1 -2 1 -2 0 -2 
1 -2 1 -2 0 -2 1 -2 1 -2 0 -2 1 -2 0 -2 
1 0 0 -2 1 0 0 -4 1 0 0 -2 1 0 0 -4 
1 0 0 -2 1 -2 0 -2 1 -2 1 -3 0 -2 1 0 
0 -2 1 -2 0 -2 1 0 0 -2 1 -2 0 -2 1 -2 
1 -2 0 -2 1 -2 1 -2 0 -2 1 -2 1 -2 0 -2 
1 -2 1 -2 0 -2 1 -2 0 -2 1 -2 0 -3 1 -2 
0 -2 1 0 0 -2 1 -2 0 -2 1 0 0 -2 1 -2 
0 -2 1 -2 1 -2 0 -2 1 -2 1 -2 0 -2 1 -2 
0 -2 1 0 0 -4 1 0 0 -2 1 -2 0 -2 1 -2 
1 -3 0 -2 1 -2 0 -2 1 0 0 -4 1 0 0 -2 
1 -2 0 -2 1 0 0 -4 1 0 0 -2 1 -2 0 -2 
1 -2 1 -2 0 -2 1 -2 0 -2 1 0 0 -4 1 0 
0 -2 1 -2 0 -2 1 0 0 -3 1 -2 0 -2 1 -2 
1 -2 0 -4 1 0 0 -2 1 0 0 -4 1 0 0 -2 
1 0 0 -4 1 -2 1 -2 0 -2 1 -2 1 -2 0 -2 
1 -2 0 -2 1 0 0 -4 1 0 0 -5 1 0 0 -2 
1 0 0 -4 1 0 0 -2 1 0 0 -4 1 -2 1 -2 
0 -2 1 -2 1 -2 0 -2 1 -2 1 -2 0 -2 1 -2 
0 -2 1 0 0 -2 1 -2 1 -2 0 -2 1 -3 0 -2 
1 0 0 -2 1 -2 1 -2 0 -2 1 -2 1 -2 0 -2 
1 -2 0 -2 1 -2 1 -2 0 -2 1 0 0 -2 1 0 
0 -2 1 -2 0 -2 1139 3568 300 MP stroke
1 0 0 -4 1 0 1 -2 0 -2 1 0 0 -2 1 -3 
0 -2 1 0 0 -2 1 0 0 -2 1 -2 1 -2 0 -2 
1 0 0 -2 1 0 0 -4 1 0 0 -2 1 0 0 -2 
1 0 0 -2 1 0 0 -2 1 0 0 -4 1 0 0 -2 
1 0 0 -2 1 0 0 -2 1 0 0 -2 1 0 0 -2 
1 0 0 -2 1 -2 1 0 0 -3 1 0 0 -2 1 0 
0 -2 1 -2 1 0 0 -2 1 -2 1 0 0 -2 1 0 
1 -2 1 -2 1 -2 1 -2 1 0 0 -2 1 0 0 -2 
1 0 0 -2 1 0 1 -2 1 0 0 -2 1 0 0 -2 
1 0 1 -2 1 0 0 -2 1 0 1 -2 1 0 0 -2 
1 0 1 -2 1 0 0 -2 1 0 1 0 0 -2 1 0 
1 0 0 -3 1 0 1 0 0 -2 1 0 0 -2 1 0 
1 0 0 -2 1 0 1 0 1 -2 1 0 1 0 0 -2 
1 0 1 0 0 -2 1 0 1 0 1 -2 1 0 1 0 
1 0 0 -2 1 0 1 0 0 -2 1 0 1 0 1 0 
1 0 0 -2 1 0 1 0 1 0 0 -2 1 0 1 0 
1 0 1 0 1 -2 1 0 1 0 1 0 1 -2 1 0 
1 0 1 0 1 0 1 0 1 0 0 -2 1 0 1 0 
1 0 1 0 1 0 1 0 1 0 0 -2 1 0 1 0 
1 0 1 0 1 0 1 0 1 0 1 0 1 0 1 0 
0 -2 1 0 1 0 1 0 1 0 1 0 1 0 1 0 
1 0 1 0 1 0 1 0 1 0 1 0 1 0 1 0 
1 0 1 0 1 0 1 0 1 0 1 -2 1 0 1 0 
1 0 1 0 1 0 1 0 1 0 997 3711 190 MP stroke
SO
1 0 100 0 0 -4 99 0 0 -6 99 0 0 -11 99 0 
0 -14 99 0 0 -18 99 0 0 -20 99 0 0 -24 99 0 
0 -26 99 0 0 -29 99 0 0 -31 99 0 0 -33 99 0 
0 -35 99 0 0 -36 99 0 0 -37 99 0 0 -38 100 0 
0 -38 99 0 0 -39 99 0 0 -37 99 0 0 -36 99 0 
0 -35 99 0 0 -32 99 0 0 -29 99 0 0 -24 99 0 
0 -20 99 0 0 -14 99 0 0 -8 99 0 0 1 99 0 
0 10 99 0 0 21 99 0 0 32 100 0 0 45 99 0 
0 61 99 0 0 75 99 0 0 96 99 0 0 110 99 0 
0 143 99 0 0 145 99 0 0 207 99 0 0 123 99 0 
0 302 99 0 99 0 99 0 99 0 99 0 100 0 99 0 
99 0 99 0 99 0 99 0 99 0 99 0 99 0 99 0 
99 0 99 0 99 0 99 0 99 0 0 -697 997 3756 103 MP stroke
gr

24 w
c9
0 sg
3866 2732 mt 
(q=1) s
 980 4497 mt 
( ) s
6925 2869 mt 
( ) s
6 w
1 sg
0 1628 5944 0 0 -1628 997 6715 4 MP
PP
-5944 0 0 1628 5944 0 0 -1628 997 6715 5 MP stroke
4 w
DO
SO
6 w
0 sg
 997 6715 mt 6941 6715 L
 997 6715 mt  997 5087 L
 997 6715 mt  997 6655 L
 964 6860 mt 
(5) s
2978 6715 mt 2978 6655 L
2912 6860 mt 
(10) s
4959 6715 mt 4959 6655 L
4893 6860 mt 
(15) s
6941 6715 mt 6941 6655 L
6875 6860 mt 
(20) s
 997 6715 mt 1056 6715 L
 759 6759 mt 
(-10) s
 997 6389 mt 1056 6389 L
 896 6433 mt 
(0) s
 997 6063 mt 1056 6063 L
 829 6107 mt 
(10) s
 997 5738 mt 1056 5738 L
 829 5782 mt 
(20) s
 997 5412 mt 1056 5412 L
 829 5456 mt 
(30) s
 997 5087 mt 1056 5087 L
 829 5131 mt 
(40) s
gs 997 5087 5945 1629 rc
DA
24 w
/c10 { 0.000000 1.000000 0.000000 sr} bdef
c10
1 0 1 0 1 0 1 0 1 0 1 0 1 0 1 0 
1 0 1 0 1 0 1 0 1 0 1 0 1 0 1 0 
1 0 1 0 1 0 1 0 1 0 1 0 1 0 1 0 
1 0 1 0 1 0 1 0 1 0 1 0 1 0 1 0 
1 0 1 0 1 0 1 0 1 0 1 0 1 0 1 0 
1 0 1 0 1 0 1 0 1 0 1 0 1 0 1 0 
1 0 1 0 1 0 1 0 1 0 1 0 1 0 1 0 
1 0 1 0 1 0 1 0 0 -3 1 0 1 0 1 0 
1 0 1 0 1 0 1 0 1 0 1 0 1 0 1 0 
1 0 1 0 1 0 1 0 1 0 1 0 1 0 1 0 
1 0 1 0 1 0 1 0 1 0 1 0 1 0 1 0 
1 0 1 0 1 0 1 0 1 0 1 0 1 0 1 0 
1 0 1 0 1 0 1 0 1 0 1 0 1 0 1 0 
1 0 1 0 1 0 1 0 1 0 1 0 1 0 1 0 
1 0 1 0 1 0 1 0 1 0 1 0 1 0 1 0 
1 0 1 0 1 0 1 0 1 0 1 0 1 0 1 0 
1 0 1 -3 1 0 1 0 1 0 1 0 1 0 1 0 
1 0 1 0 1 0 1 0 1 0 1 0 1 0 1 0 
1 0 1 0 1 0 1 0 1 0 1 0 1 0 1 0 
1 0 1 0 1 0 1 0 1 0 1 0 1 0 1 0 
1 0 1 0 1 0 1 0 1 0 1 0 1 0 1 0 
1 0 1 0 1 0 1 0 1 0 1 0 1 0 1 0 
1 0 1 0 1 0 1 0 1 0 1 0 1 0 1 0 
1 0 1 0 0 -3 1 0 1 0 1 0 1 0 1 0 
1 0 1 0 1 0 1 0 1 0 1 0 1 0 1 0 
1 0 1 0 1 0 1 0 1 0 1 0 1 0 1 0 
1 0 1 0 1 0 1 0 1 0 1 0 1 0 1 0 
1 0 1 0 1 0 1 0 1 0 1 0 1 0 1 0 
1 0 1 0 1 0 1 0 1 0 1 0 1 0 1 0 
1 0 1 0 1 0 1 0 1 0 1 0 1 0 1 0 
1 0 1 0 1 0 0 -2 1 0 1 0 1 0 1 0 
1 0 1 0 1 0 1 0 1 0 1 0 1 0 1 0 
1 0 1 0 1 0 1 0 1 0 1 0 1 0 1 0 
1 0 1 0 1 0 1 0 1 0 1 0 1 0 1 0 
1 0 1 0 1 0 1 0 1 0 1 0 1 0 1 0 
1 0 1 0 1 0 1 0 1 0 1 0 1 0 1 0 
1 0 1 0 1 0 1 0 1 0 1 0 1 0 1 0 
1 0 1 0 1 0 6646 6337 300 MP stroke
1 0 1 0 0 -3 1 0 1 0 1 0 1 0 1 0 
1 0 1 0 1 0 1 0 1 0 1 0 1 0 1 0 
1 0 1 0 1 0 1 0 1 0 1 0 1 0 1 0 
1 0 1 0 1 0 1 0 1 0 1 0 1 0 1 0 
1 0 1 0 1 0 1 0 1 0 1 0 1 0 1 0 
1 0 1 0 1 0 1 0 1 -3 1 0 1 0 1 0 
1 0 1 0 1 0 1 0 1 0 1 0 1 0 1 0 
1 0 1 0 1 0 1 0 1 0 1 0 1 0 1 0 
1 0 1 0 1 0 1 0 1 0 1 0 1 0 1 0 
1 0 1 0 1 0 1 0 1 0 1 0 1 0 1 0 
1 0 1 0 1 0 1 0 1 0 1 0 1 0 1 0 
1 0 1 0 1 0 1 0 1 0 1 0 1 -3 1 0 
1 0 1 0 1 0 1 0 1 0 1 0 1 0 1 0 
1 0 1 0 1 0 1 0 1 0 1 0 1 0 1 0 
1 0 1 0 1 0 1 0 1 0 1 0 1 0 1 0 
1 0 1 0 1 0 1 0 1 0 1 0 1 0 1 0 
1 0 1 -3 1 0 1 0 1 0 1 0 1 0 1 0 
1 0 1 0 1 0 1 0 1 0 1 0 1 0 1 0 
1 0 1 0 1 0 1 0 1 0 1 0 1 0 1 0 
1 0 1 0 1 0 1 0 1 0 1 0 1 0 1 0 
1 0 1 0 1 0 1 0 1 0 0 -3 1 0 1 0 
1 0 1 0 1 0 1 0 1 0 1 0 1 0 1 0 
1 0 1 0 1 0 1 0 1 0 1 0 1 0 1 0 
1 0 1 0 1 0 1 0 1 0 1 0 1 0 1 0 
1 0 1 0 1 0 1 0 1 0 1 0 1 0 1 0 
1 0 1 0 1 0 1 0 1 0 1 0 1 0 1 0 
0 -3 1 0 1 0 1 0 1 0 1 0 1 0 1 0 
1 0 1 0 1 0 1 0 1 0 1 0 1 0 1 0 
1 0 1 0 1 0 1 0 1 0 1 0 1 0 1 0 
1 0 1 0 1 0 1 0 1 0 1 0 1 0 1 0 
1 -2 1 0 1 0 1 0 1 0 1 0 1 0 1 0 
1 0 1 0 1 0 1 0 1 0 1 0 1 0 1 0 
1 0 1 0 1 0 1 0 1 0 1 0 1 0 1 0 
1 0 1 0 1 0 1 -3 1 0 1 0 1 0 1 0 
1 0 1 0 1 0 1 0 1 0 1 0 1 0 1 0 
1 0 1 0 1 0 1 0 1 0 1 0 1 0 1 0 
1 0 1 0 1 0 1 0 1 0 1 0 1 0 1 0 
1 0 1 0 1 0 6350 6360 300 MP stroke
1 0 1 0 1 0 1 0 0 -3 1 0 1 0 1 0 
1 0 1 0 1 0 1 0 1 0 1 0 1 0 1 0 
1 0 1 0 1 0 1 0 1 0 1 0 1 0 1 0 
1 0 1 0 1 0 1 0 1 0 1 0 1 0 1 0 
1 0 1 0 1 0 1 0 1 -3 1 0 1 0 1 0 
1 0 1 0 1 0 1 0 1 0 1 0 1 0 1 0 
1 0 1 0 1 0 1 0 1 0 1 0 1 0 1 0 
1 0 1 0 1 0 1 0 1 0 1 0 1 0 1 0 
1 0 1 0 1 0 1 0 1 0 1 0 1 0 0 -3 
1 0 1 0 1 0 1 0 1 0 1 0 1 0 1 0 
1 0 1 0 1 0 1 0 1 0 1 0 1 0 1 0 
1 0 1 0 0 -3 1 0 1 0 1 0 1 0 1 0 
1 0 1 0 1 0 1 0 1 0 1 0 1 0 1 0 
1 0 1 0 1 0 1 0 1 0 1 0 1 0 1 0 
1 0 1 0 1 0 1 0 1 0 1 0 1 0 1 0 
1 0 1 -3 1 0 1 0 1 0 1 0 1 0 1 0 
1 0 1 0 1 0 1 0 1 0 1 0 1 0 1 0 
1 0 1 0 1 0 1 0 1 0 1 0 1 0 1 0 
1 0 1 0 0 -2 1 0 1 0 1 0 1 0 1 0 
1 0 1 0 1 0 1 0 1 0 1 0 1 0 1 0 
1 0 1 0 1 0 1 0 1 0 1 0 1 0 1 0 
1 0 1 -3 1 0 1 0 1 0 1 0 1 0 1 0 
1 0 1 0 1 0 1 0 1 0 1 0 1 0 1 0 
1 0 1 0 1 0 1 0 1 0 1 0 1 0 1 0 
1 0 0 -3 1 0 1 0 1 0 1 0 1 0 1 0 
1 0 1 0 1 0 1 0 1 0 1 0 1 0 1 0 
1 0 1 0 1 0 1 0 1 0 1 0 1 0 1 0 
1 0 1 0 1 0 1 0 1 0 1 0 1 0 1 0 
0 -3 1 0 1 0 1 0 1 0 1 0 1 0 1 0 
1 0 1 0 1 0 1 0 1 0 1 0 1 0 1 0 
1 0 1 0 1 0 1 0 1 0 1 0 1 0 1 0 
1 0 1 0 1 0 0 -3 1 0 1 0 1 0 1 0 
1 0 1 0 1 0 1 0 1 0 1 0 1 0 1 0 
1 0 1 0 1 0 1 0 1 0 1 0 1 0 1 0 
1 0 1 0 1 0 1 0 1 0 1 0 1 0 1 0 
1 0 1 0 1 0 1 0 1 0 1 0 0 -3 1 0 
1 0 1 0 1 0 1 0 1 0 1 0 1 0 1 0 
1 0 1 0 1 0 6059 6392 300 MP stroke
1 0 1 0 1 0 1 0 1 0 1 0 1 0 1 0 
1 0 1 0 1 0 1 0 1 0 1 0 0 -3 1 0 
1 0 1 0 1 0 1 0 1 0 1 0 1 0 1 0 
1 0 1 0 1 0 1 0 1 0 1 0 1 0 1 0 
1 0 1 0 1 0 1 0 1 0 1 0 1 0 1 0 
1 0 1 0 1 0 1 0 1 0 1 0 1 0 1 -2 
1 0 1 0 1 0 1 0 1 0 1 0 1 0 1 0 
1 0 1 0 1 0 1 0 1 0 1 0 1 0 1 0 
1 0 1 0 1 0 1 0 1 0 1 0 1 0 1 0 
1 0 1 0 1 0 1 0 1 0 1 0 1 0 1 0 
1 0 1 -3 1 0 1 0 1 0 1 0 1 0 1 0 
1 0 1 0 1 0 1 0 1 0 1 0 1 0 1 0 
1 0 1 0 1 0 1 0 1 0 1 0 1 0 1 0 
1 0 1 0 1 0 1 0 1 0 1 0 1 0 1 0 
1 0 1 0 1 0 1 0 1 -3 1 0 1 0 1 0 
1 0 1 0 1 0 1 0 1 0 1 0 1 0 1 0 
1 0 1 0 1 0 1 0 1 0 1 0 1 0 1 0 
1 0 1 0 1 0 1 0 1 0 1 0 1 0 1 -3 
1 0 1 0 1 0 1 0 1 0 1 0 1 0 1 0 
1 0 1 0 1 0 1 0 1 0 1 0 1 0 1 0 
1 0 1 0 1 0 1 0 1 0 1 0 1 0 1 0 
1 0 1 0 1 0 1 0 1 0 1 0 1 -3 1 0 
1 0 1 0 1 0 1 0 1 0 1 0 1 0 1 0 
1 0 1 0 1 0 1 0 1 0 1 0 1 0 1 0 
1 0 1 0 1 0 1 0 1 0 1 0 1 0 1 0 
1 0 1 0 1 0 1 0 1 0 1 0 1 0 1 0 
1 0 0 -3 1 0 1 0 1 0 1 0 1 0 1 0 
1 0 1 0 1 0 1 0 1 0 1 0 1 0 1 0 
1 0 1 0 1 0 1 0 1 0 1 0 1 0 1 0 
1 0 1 0 1 0 1 0 1 0 1 0 1 0 1 0 
1 0 1 0 1 0 1 0 0 -3 1 0 1 0 1 0 
1 0 1 0 1 0 1 0 1 0 1 0 1 0 1 0 
1 0 1 0 1 0 1 0 1 0 1 0 1 0 1 0 
1 0 1 0 1 0 1 0 1 0 0 -3 1 0 1 0 
1 0 1 0 1 0 1 0 1 0 1 0 1 0 1 0 
1 0 1 0 1 0 1 0 1 0 1 0 1 0 1 0 
1 0 1 0 1 0 1 0 1 0 1 0 1 0 0 -2 
1 0 1 0 1 0 5765 6420 300 MP stroke
1 0 1 0 1 0 1 0 1 0 1 0 1 0 1 0 
1 0 1 0 1 0 1 0 1 0 1 0 1 0 1 0 
1 0 1 0 1 0 1 0 1 0 1 0 1 0 1 0 
1 0 1 0 1 0 1 0 0 -3 1 0 1 0 1 0 
1 0 1 0 1 0 1 0 1 0 1 0 1 0 1 0 
1 0 1 0 1 0 1 0 1 0 1 0 1 0 1 0 
1 0 1 0 1 0 1 0 1 0 1 0 0 -3 1 0 
1 0 1 0 1 0 1 0 1 0 1 0 1 0 1 0 
1 0 1 0 1 0 1 0 1 0 1 0 1 0 1 0 
1 0 1 0 1 0 1 0 1 0 1 0 1 0 1 0 
0 -3 1 0 1 0 1 0 1 0 1 0 1 0 1 0 
1 0 1 0 1 0 1 0 1 0 1 0 1 0 1 0 
1 0 1 0 1 0 1 0 1 0 1 0 1 0 1 0 
1 0 1 0 1 0 1 0 1 0 1 0 1 0 1 0 
1 0 0 -3 1 0 1 0 1 0 1 0 1 0 1 0 
1 0 1 0 1 0 1 0 1 0 1 0 1 0 1 0 
1 0 1 0 1 0 1 0 1 0 1 0 1 0 1 0 
1 0 1 0 1 0 1 0 1 0 1 0 1 0 1 0 
1 0 1 0 1 0 1 0 1 -3 1 0 1 0 1 0 
1 0 1 0 1 0 1 0 1 0 1 0 1 0 1 0 
1 0 1 0 1 0 1 0 1 0 1 0 1 0 1 0 
1 0 1 0 1 0 1 0 1 0 1 0 1 0 1 0 
1 0 1 0 1 0 1 0 1 0 1 0 1 -3 1 0 
1 0 1 0 1 0 1 0 1 0 1 0 1 0 1 0 
1 0 1 0 1 0 1 0 1 0 1 0 1 0 1 0 
1 0 1 0 1 0 1 0 1 0 1 0 1 0 1 0 
1 0 1 0 1 0 1 0 1 0 1 -2 1 0 1 0 
1 0 1 0 1 0 1 0 1 0 1 0 1 0 1 0 
1 0 1 0 1 0 1 0 1 0 1 0 1 0 1 0 
1 0 1 0 1 0 1 0 1 0 1 0 1 0 1 0 
1 0 1 0 1 0 1 0 1 0 1 0 1 0 0 -3 
1 0 1 0 1 0 1 0 1 0 1 0 1 0 1 0 
1 0 1 0 1 0 1 0 1 0 1 0 1 0 1 0 
1 0 1 0 1 0 1 0 1 0 1 0 1 0 1 0 
1 0 1 0 1 0 1 0 1 0 1 0 1 0 1 -3 
1 0 1 0 1 0 1 0 1 0 1 0 1 0 1 0 
1 0 1 0 1 0 1 0 1 0 1 0 1 0 1 0 
1 0 1 0 1 0 5471 6446 300 MP stroke
1 0 1 0 1 0 1 0 1 0 1 0 1 0 1 0 
1 0 1 0 1 0 1 0 1 0 1 0 1 0 1 0 
1 0 1 0 1 0 1 0 1 0 1 0 0 -3 1 0 
1 0 1 0 1 0 1 0 1 0 1 0 1 0 1 0 
1 0 1 0 1 0 1 0 1 0 1 0 1 0 1 0 
1 0 1 0 1 0 1 0 1 0 1 0 1 0 1 0 
1 0 1 0 1 0 1 0 0 -3 1 0 1 0 1 0 
1 0 1 0 1 0 1 0 1 0 1 0 1 0 1 0 
1 0 1 0 1 0 1 0 1 0 1 0 1 0 1 0 
1 0 1 0 1 0 1 0 1 0 1 0 1 0 1 0 
1 0 1 0 1 0 1 0 1 0 1 0 1 0 1 0 
1 -3 1 0 1 0 1 0 1 0 1 0 1 0 1 0 
1 0 1 0 1 0 1 0 1 0 1 0 1 0 1 0 
1 0 1 0 1 0 1 0 1 0 1 0 1 0 1 0 
1 0 1 0 1 0 1 0 1 0 1 0 1 0 1 0 
1 0 1 0 1 0 1 0 1 0 1 0 1 0 1 0 
1 -3 1 0 1 0 1 0 1 0 1 0 1 0 1 0 
1 0 1 0 1 0 1 0 1 0 1 0 1 0 1 0 
1 0 1 0 1 0 1 0 1 0 1 0 1 0 1 0 
1 0 1 0 1 0 1 0 1 0 1 0 1 0 1 0 
1 0 1 0 1 0 1 0 1 0 1 0 1 0 1 0 
1 0 1 0 1 0 1 0 1 0 1 0 1 -2 1 0 
1 0 1 0 1 0 1 0 1 0 1 0 1 0 1 0 
1 0 1 0 1 0 1 0 1 0 1 0 1 0 1 0 
1 0 1 0 1 0 1 0 1 0 1 0 1 0 1 0 
1 0 1 0 1 0 1 0 1 0 1 0 1 0 1 0 
1 0 1 0 1 0 1 0 1 -3 1 0 1 0 1 0 
1 0 1 0 1 0 1 0 1 0 1 0 1 0 1 0 
1 0 1 0 1 0 1 0 1 0 1 0 1 0 1 0 
1 0 1 0 1 0 1 0 1 0 1 0 1 0 1 0 
1 0 1 -3 1 0 1 0 1 0 1 0 1 0 1 0 
1 0 1 0 1 0 1 0 1 0 1 0 1 0 1 0 
1 0 1 0 1 0 1 0 1 0 1 0 1 0 1 0 
1 0 1 0 1 0 1 0 1 0 1 0 1 0 1 0 
1 0 1 0 0 -3 1 0 1 0 1 0 1 0 1 0 
1 0 1 0 1 0 1 0 1 0 1 0 1 0 1 0 
1 0 1 0 1 0 1 0 1 0 1 0 1 0 1 0 
1 0 1 0 1 0 5175 6469 300 MP stroke
1 0 1 0 1 0 1 0 1 0 1 0 1 0 1 0 
1 0 1 0 1 0 1 0 1 0 1 0 1 0 1 0 
1 0 1 0 1 0 1 0 1 0 1 0 0 -3 1 0 
1 0 1 0 1 0 1 0 1 0 1 0 1 0 1 0 
1 0 1 0 1 0 1 0 1 0 1 0 1 0 1 0 
1 0 1 0 1 0 1 0 1 0 1 0 1 0 1 0 
1 0 1 0 1 0 1 0 1 0 1 0 1 0 1 0 
1 0 1 0 1 0 1 0 1 0 1 0 1 0 1 0 
1 0 1 0 1 0 1 0 1 0 1 -3 1 0 1 0 
1 0 1 0 1 0 1 0 1 0 1 0 1 0 1 0 
1 0 1 0 1 0 1 0 1 0 1 0 1 0 1 0 
1 0 1 0 1 0 1 0 1 0 1 0 1 0 1 0 
1 0 1 0 1 0 1 0 1 0 1 0 1 0 1 0 
1 0 1 0 1 0 1 0 1 0 1 0 1 0 1 0 
1 0 1 0 1 0 1 0 1 0 1 0 1 0 1 0 
1 0 1 0 1 0 1 0 1 0 1 0 1 0 1 0 
1 0 1 0 1 0 1 0 1 0 1 0 1 0 1 0 
0 -3 1 0 1 0 1 0 1 0 1 0 1 0 1 0 
1 0 1 0 1 0 1 0 1 0 1 0 1 0 1 0 
1 0 1 0 1 0 1 0 1 0 1 0 1 0 1 0 
1 0 1 0 1 0 1 0 1 0 1 0 1 0 1 0 
1 0 1 0 1 0 1 0 1 0 1 0 1 0 1 0 
1 0 1 0 0 -2 1 0 1 0 1 0 1 0 1 0 
1 0 1 0 1 0 1 0 1 0 1 0 1 0 1 0 
1 0 1 0 1 0 1 0 1 0 1 0 1 0 1 0 
1 0 1 0 1 0 1 0 1 0 1 0 1 0 1 0 
1 0 1 0 1 0 1 0 1 0 1 0 1 0 1 0 
1 0 1 0 1 0 1 0 1 0 1 0 1 0 1 0 
1 0 1 0 1 0 1 0 1 0 1 0 1 0 1 0 
1 0 1 0 1 0 1 0 1 0 1 0 1 0 1 0 
1 0 1 0 1 0 1 0 1 0 1 0 1 0 1 0 
1 0 1 0 0 -3 1 0 1 0 1 0 1 0 1 0 
1 0 1 0 1 0 1 0 1 0 1 0 1 0 1 0 
1 0 1 0 1 0 1 0 1 0 1 0 1 0 1 0 
1 0 1 0 1 0 1 0 1 0 1 0 1 0 1 0 
1 0 1 0 1 0 1 0 1 0 1 0 1 0 1 0 
1 0 1 0 1 0 1 0 1 0 1 0 1 0 1 0 
1 0 1 0 1 0 4880 6483 300 MP stroke
1 0 1 0 1 0 1 0 1 0 1 0 0 -3 1 0 
1 0 1 0 1 0 1 0 1 0 1 0 1 0 1 0 
1 0 1 0 1 0 1 0 1 0 1 0 1 0 1 0 
1 0 1 0 1 0 1 0 1 0 1 0 1 0 1 0 
1 0 1 0 1 0 1 0 1 0 1 0 1 0 1 0 
1 0 1 0 1 0 1 0 1 0 1 0 1 0 1 0 
1 0 1 0 1 0 1 0 1 0 1 0 1 0 1 0 
1 0 1 0 1 0 1 0 1 0 1 0 1 0 1 0 
1 0 1 0 1 0 1 0 1 0 1 0 1 0 1 0 
1 0 1 0 1 0 1 0 1 0 1 0 1 0 1 0 
1 0 1 0 1 0 1 0 1 0 1 0 1 0 1 0 
1 0 1 0 1 0 1 0 1 0 1 0 1 0 1 0 
1 0 1 0 1 0 1 0 1 0 1 0 1 0 1 0 
1 0 1 0 1 0 1 0 1 0 1 0 1 0 1 0 
1 0 1 0 1 0 1 0 1 0 1 0 1 0 1 0 
1 0 1 0 1 0 1 0 1 0 1 0 1 0 1 0 
1 0 1 0 1 0 1 0 1 0 1 0 1 0 1 0 
1 0 1 0 1 0 1 0 1 0 1 0 1 0 1 0 
1 0 1 0 1 0 1 -3 1 0 1 0 1 0 1 0 
1 0 1 0 1 0 1 0 1 0 1 0 1 0 1 0 
1 0 1 0 1 0 1 0 1 0 1 0 1 0 1 0 
1 0 1 0 1 0 1 0 1 0 1 0 1 0 1 0 
1 0 1 0 1 0 1 0 1 0 1 0 1 0 1 0 
1 0 1 0 1 0 1 0 1 0 1 0 1 0 1 0 
1 0 1 0 1 0 1 0 0 3 1 0 1 0 1 0 
1 0 1 0 1 0 1 0 1 0 1 0 1 0 1 0 
1 0 1 0 1 0 1 0 1 0 1 0 1 0 1 0 
1 0 1 0 1 0 1 0 1 0 1 0 1 0 1 0 
1 0 1 0 1 0 1 0 1 0 1 0 1 0 1 0 
1 0 1 0 1 0 1 0 1 0 1 0 1 0 1 0 
1 0 1 0 1 0 1 0 1 0 1 0 1 0 1 0 
1 0 1 0 1 0 1 0 1 0 1 0 1 0 1 0 
1 0 1 0 0 -3 1 0 1 0 1 0 1 0 1 0 
1 0 1 0 1 0 1 0 1 0 1 0 1 0 1 0 
1 0 1 0 1 0 1 0 1 0 1 0 1 0 1 0 
1 0 1 0 1 0 1 0 1 0 1 0 1 0 1 0 
1 0 1 0 1 0 1 0 1 0 1 0 1 0 1 0 
1 0 1 0 1 0 4584 6489 300 MP stroke
1 0 1 0 1 0 1 0 1 0 1 0 1 0 1 0 
1 0 1 0 1 0 1 0 1 0 1 0 1 0 1 0 
1 0 1 0 1 0 1 0 0 3 1 0 1 0 1 0 
1 0 1 0 1 0 1 0 1 0 1 0 1 0 1 0 
1 0 1 0 1 0 1 0 1 0 1 0 1 0 1 0 
1 0 1 0 1 0 1 0 1 0 1 0 1 0 1 0 
1 0 1 0 1 0 1 0 1 0 1 0 1 0 1 0 
1 0 1 0 1 0 1 0 1 0 1 0 1 0 1 0 
1 3 1 0 1 0 1 0 1 0 1 0 1 0 1 0 
1 0 1 0 1 0 1 0 1 0 1 0 1 0 1 0 
1 0 1 0 1 0 1 0 1 0 1 0 1 0 1 0 
1 0 1 0 1 0 1 0 1 0 1 0 1 0 1 0 
1 0 1 0 1 0 1 0 1 0 1 0 1 0 1 0 
1 0 1 0 1 0 1 0 1 0 1 0 1 0 1 0 
1 0 1 0 1 0 1 0 1 0 1 0 1 0 1 0 
1 0 1 0 1 0 1 0 1 0 1 0 1 0 1 0 
1 0 1 0 1 0 1 0 1 0 1 0 1 0 1 0 
1 0 1 0 1 0 1 0 1 0 0 3 1 0 1 0 
1 0 1 0 1 0 1 0 1 0 1 0 1 0 1 0 
1 0 1 0 1 0 1 0 1 0 1 0 1 0 1 0 
1 0 1 0 1 0 1 0 1 0 1 0 1 0 1 0 
1 0 1 0 1 0 1 0 1 0 1 0 1 0 1 0 
1 0 1 0 1 0 1 0 1 0 1 0 1 0 1 0 
1 0 1 0 1 0 1 0 1 0 1 0 1 0 1 0 
1 0 1 0 1 0 1 0 1 0 1 0 1 0 1 0 
1 2 1 0 1 0 1 0 1 0 1 0 1 0 1 0 
1 0 1 0 1 0 1 0 1 0 1 0 1 0 1 0 
1 0 1 0 1 0 1 0 1 0 1 0 1 0 1 0 
1 0 1 0 1 0 1 0 1 0 1 0 1 0 1 0 
1 0 1 0 1 0 1 0 1 0 1 0 1 0 0 3 
1 0 1 0 1 0 1 0 1 0 1 0 1 0 1 0 
1 0 1 0 1 0 1 0 1 0 1 0 1 0 1 0 
1 0 1 0 1 0 1 0 1 0 1 0 1 0 1 0 
1 0 1 0 1 0 0 3 1 0 1 0 1 0 1 0 
1 0 1 0 1 0 1 0 1 0 1 0 1 0 1 0 
1 0 1 0 1 0 1 0 1 0 1 0 1 0 1 0 
1 0 1 0 1 0 1 0 1 0 1 0 1 0 0 3 
1 0 1 0 1 0 4290 6469 300 MP stroke
1 0 1 0 1 0 1 0 1 0 1 0 1 0 1 0 
1 0 1 0 1 0 1 0 1 0 1 0 1 0 1 0 
1 0 1 0 1 0 1 0 1 0 1 0 1 0 1 0 
1 0 1 0 1 0 1 0 1 0 1 0 1 0 1 3 
1 0 1 0 1 0 1 0 1 0 1 0 1 0 1 0 
1 0 1 0 1 0 1 0 1 0 1 0 1 0 1 0 
1 0 1 0 1 0 1 0 1 0 1 0 1 0 1 0 
1 0 1 0 1 0 1 0 1 0 1 0 1 0 1 0 
1 0 1 3 1 0 1 0 1 0 1 0 1 0 1 0 
1 0 1 0 1 0 1 0 1 0 1 0 1 0 1 0 
1 0 1 0 1 0 1 0 1 0 1 0 1 0 1 0 
1 0 1 0 1 0 1 0 0 3 1 0 1 0 1 0 
1 0 1 0 1 0 1 0 1 0 1 0 1 0 1 0 
1 0 1 0 1 0 1 0 1 0 1 0 1 0 1 0 
1 0 1 0 1 0 1 0 1 0 1 2 1 0 1 0 
1 0 1 0 1 0 1 0 1 0 1 0 1 0 1 0 
1 0 1 0 1 0 1 0 1 0 1 0 1 0 1 0 
1 0 1 0 1 0 1 0 1 0 0 3 1 0 1 0 
1 0 1 0 1 0 1 0 1 0 1 0 1 0 1 0 
1 0 1 0 1 0 1 0 1 0 1 0 1 0 1 0 
1 0 1 0 1 0 0 3 1 0 1 0 1 0 1 0 
1 0 1 0 1 0 1 0 1 0 1 0 1 0 1 0 
1 0 1 0 1 0 1 0 1 0 1 0 1 0 0 3 
1 0 1 0 1 0 1 0 1 0 1 0 1 0 1 0 
1 0 1 0 1 0 1 0 1 0 1 0 1 0 1 0 
1 0 1 0 1 0 1 0 1 3 1 0 1 0 1 0 
1 0 1 0 1 0 1 0 1 0 1 0 1 0 1 0 
1 0 1 0 1 0 1 0 1 0 1 0 1 0 1 0 
0 3 1 0 1 0 1 0 1 0 1 0 1 0 1 0 
1 0 1 0 1 0 1 0 1 0 1 0 1 0 1 0 
1 0 1 0 1 0 1 0 0 3 1 0 1 0 1 0 
1 0 1 0 1 0 1 0 1 0 1 0 1 0 1 0 
1 0 1 0 1 0 1 0 1 0 1 2 1 0 1 0 
1 0 1 0 1 0 1 0 1 0 1 0 1 0 1 0 
1 0 1 0 1 0 1 0 1 0 1 0 0 3 1 0 
1 0 1 0 1 0 1 0 1 0 1 0 1 0 1 0 
1 0 1 0 1 0 1 0 1 0 1 0 1 0 1 0 
1 0 1 3 1 0 3998 6432 300 MP stroke
1 0 1 0 1 0 1 0 1 0 1 0 1 0 1 0 
1 0 1 0 1 0 1 0 1 0 1 0 0 3 1 0 
1 0 1 0 1 0 1 0 1 0 1 0 1 0 1 0 
1 0 1 0 1 0 1 0 1 0 1 0 1 0 1 0 
1 0 1 0 0 3 1 0 1 0 1 0 1 0 1 0 
1 0 1 0 1 0 1 0 1 0 1 0 1 0 1 0 
1 0 1 0 1 0 0 3 1 0 1 0 1 0 1 0 
1 0 1 0 1 0 1 0 1 0 1 0 1 0 1 0 
1 0 1 0 1 0 1 0 1 0 1 0 1 0 1 0 
1 3 1 0 1 0 1 0 1 0 1 0 1 0 1 0 
1 0 1 0 1 0 1 0 1 0 1 0 1 0 0 2 
1 0 1 0 1 0 1 0 1 0 1 0 1 0 1 0 
1 0 1 0 1 0 1 0 1 0 1 0 1 3 1 0 
1 0 1 0 1 0 1 0 1 0 1 0 1 0 1 0 
1 0 1 0 1 0 1 0 1 0 1 0 1 0 1 3 
1 0 1 0 1 0 1 0 1 0 1 0 1 0 1 0 
1 0 1 0 1 0 1 0 1 0 0 3 1 0 1 0 
1 0 1 0 1 0 1 0 1 0 1 0 1 0 1 0 
1 0 1 0 1 0 1 0 0 3 1 0 1 0 1 0 
1 0 1 0 1 0 1 0 1 0 1 0 1 0 1 0 
1 3 1 0 1 0 1 0 1 0 1 0 1 0 1 0 
1 0 1 0 1 0 1 0 0 3 1 0 1 0 1 0 
1 0 1 0 1 0 1 0 1 0 1 0 1 0 1 0 
1 0 1 0 1 0 1 0 1 3 1 0 1 0 1 0 
1 0 1 0 1 0 1 0 1 0 1 0 1 0 1 0 
1 0 1 0 1 0 0 2 1 0 1 0 1 0 1 0 
1 0 1 0 1 0 1 0 1 0 1 0 1 0 1 0 
1 0 0 3 1 0 1 0 1 0 1 0 1 0 1 0 
1 0 1 0 1 0 1 0 1 0 1 0 1 3 1 0 
1 0 1 0 1 0 1 0 1 0 1 0 1 0 1 0 
1 0 1 0 1 3 1 0 1 0 1 0 1 0 1 0 
1 0 1 0 1 0 1 0 1 0 1 0 0 3 1 0 
1 0 1 0 1 0 1 0 1 0 1 0 1 0 1 0 
1 0 1 3 1 0 1 0 1 0 1 0 1 0 1 0 
1 0 1 0 1 0 1 0 1 3 1 0 1 0 1 0 
1 0 1 0 1 0 1 0 1 0 1 0 1 0 1 0 
1 0 0 2 1 0 1 0 1 0 1 0 1 0 1 0 
1 0 1 0 1 0 3710 6375 300 MP stroke
1 0 1 0 0 3 1 0 1 0 1 0 1 0 1 0 
1 0 1 0 1 0 1 0 1 0 1 0 0 3 1 0 
1 0 1 0 1 0 1 0 1 0 1 0 1 0 1 0 
1 0 1 0 1 3 1 0 1 0 1 0 1 0 1 0 
1 0 1 0 1 0 1 0 1 3 1 0 1 0 1 0 
1 0 1 0 1 0 1 0 1 0 1 0 1 0 1 3 
1 0 1 0 1 0 1 0 1 0 1 0 1 0 1 0 
1 0 1 0 1 0 0 3 1 0 1 0 1 0 1 0 
1 0 1 0 1 0 1 0 1 0 1 0 1 2 1 0 
1 0 1 0 1 0 1 0 1 0 1 0 1 0 0 3 
1 0 1 0 1 0 1 0 1 0 1 0 1 0 1 0 
1 0 1 3 1 0 1 0 1 0 1 0 1 0 1 0 
1 0 1 0 1 0 1 0 1 3 1 0 1 0 1 0 
1 0 1 0 1 0 1 0 1 0 1 0 1 0 1 3 
1 0 1 0 1 0 1 0 1 0 1 0 1 0 1 0 
1 0 1 0 0 3 1 0 1 0 1 0 1 0 1 0 
1 0 1 0 1 0 1 0 1 0 1 3 1 0 1 0 
1 0 1 0 1 0 1 0 1 0 1 0 1 0 1 2 
1 0 1 0 1 0 1 0 1 0 1 0 1 0 1 0 
1 0 1 3 1 0 1 0 1 0 1 0 1 0 1 3 
1 0 1 0 1 0 1 0 1 0 1 0 1 0 1 0 
1 0 1 3 1 0 1 0 1 0 1 0 1 0 1 0 
1 0 1 0 1 0 0 3 1 0 1 0 1 0 1 0 
1 0 1 0 1 3 1 0 1 0 1 0 1 0 1 0 
1 0 1 0 1 0 1 0 0 3 1 0 1 0 1 0 
1 0 1 0 1 0 1 0 1 0 1 0 1 0 1 3 
1 0 1 0 1 0 1 0 1 0 1 0 1 0 1 0 
0 2 1 0 1 0 1 0 1 0 1 0 1 0 1 0 
1 0 1 0 1 3 1 0 1 0 1 0 1 0 1 0 
1 0 1 0 1 0 1 0 0 3 1 0 1 0 1 0 
1 0 1 0 1 0 1 0 0 3 1 0 1 0 1 0 
1 0 1 0 1 0 1 0 1 0 1 0 1 3 1 0 
1 0 1 0 1 0 1 0 1 0 1 0 1 0 1 3 
1 0 1 0 1 0 1 0 1 0 1 0 1 3 1 0 
1 0 1 0 1 0 1 0 1 0 1 0 1 0 1 0 
0 2 1 0 1 0 1 0 1 0 1 0 1 0 1 0 
1 3 1 0 1 0 1 0 1 0 1 0 1 0 1 0 
1 0 0 3 1 0 3423 6286 300 MP stroke
1 0 1 0 1 0 1 0 1 0 1 0 0 3 1 0 
1 0 1 0 1 0 1 0 1 0 1 0 1 0 0 3 
1 0 1 0 1 0 1 0 1 0 1 0 1 0 1 0 
1 0 1 3 1 0 1 0 1 0 1 0 1 3 1 0 
1 0 1 0 1 0 1 0 1 0 1 0 1 0 1 0 
0 2 1 0 1 0 1 0 1 0 1 0 1 0 1 0 
1 0 1 0 1 0 0 3 1 0 1 0 1 0 1 0 
1 0 1 3 1 0 1 0 1 0 1 0 1 0 1 0 
1 0 1 0 0 3 1 0 1 0 1 0 1 0 1 0 
1 0 0 3 1 0 1 0 1 0 1 0 1 0 1 0 
1 0 1 0 1 0 0 3 1 0 1 0 1 0 1 0 
1 0 1 0 0 3 1 0 1 0 1 0 1 0 1 0 
1 0 1 0 1 0 1 2 1 0 1 0 1 0 1 0 
0 3 1 0 1 0 1 0 1 0 1 0 1 0 1 0 
1 0 1 0 1 3 1 0 1 0 1 0 1 0 1 0 
1 0 1 0 1 3 1 0 1 0 1 0 1 0 1 0 
0 3 1 0 1 0 1 0 1 0 1 0 1 0 1 0 
1 0 1 0 0 3 1 0 1 0 1 0 1 0 1 0 
0 3 1 0 1 0 1 0 1 0 1 0 1 0 1 0 
1 0 1 3 1 0 1 0 1 0 1 0 1 0 1 2 
1 0 1 0 1 0 1 0 1 0 1 0 1 0 0 3 
1 0 1 0 1 0 1 0 1 0 1 3 1 0 1 0 
1 0 1 0 1 0 1 0 1 0 1 0 0 3 1 0 
1 0 1 0 1 0 1 3 1 0 1 0 1 0 1 0 
1 0 1 0 1 0 1 0 0 3 1 0 1 0 1 0 
1 0 1 3 1 0 1 0 1 0 1 0 1 0 1 0 
1 0 0 2 1 0 1 0 1 0 1 0 1 0 0 3 
1 0 1 0 1 0 1 0 1 0 1 0 1 0 1 0 
1 3 1 0 1 0 1 0 1 0 1 0 0 3 1 0 
1 0 1 0 1 0 1 0 1 0 1 0 0 3 1 0 
1 0 1 0 1 0 1 0 1 3 1 0 1 0 1 0 
1 0 1 0 1 3 1 0 1 0 1 0 1 0 1 0 
1 0 1 0 0 2 1 0 1 0 1 0 1 0 1 3 
1 0 1 0 1 0 1 0 1 0 1 0 1 0 1 3 
1 0 1 0 1 0 1 0 0 3 1 0 1 0 1 0 
1 0 1 0 1 0 1 0 1 0 0 3 1 0 1 0 
1 0 1 0 0 3 1 0 1 0 1 0 1 0 1 0 
1 0 1 0 1 0 3147 6174 300 MP stroke
0 3 1 0 1 0 1 0 1 0 0 2 1 0 1 0 
1 0 1 0 1 0 1 0 1 0 0 3 1 0 1 0 
1 0 1 0 1 3 1 0 1 0 1 0 1 0 1 0 
0 3 1 0 1 0 1 0 1 0 1 0 1 0 0 3 
1 0 1 0 1 0 1 0 1 0 1 3 1 0 1 0 
1 0 1 0 1 0 1 0 0 3 1 0 1 0 1 0 
1 0 1 0 0 3 1 0 1 0 1 0 1 0 1 0 
1 0 0 2 1 0 1 0 1 0 1 0 1 0 1 0 
1 3 1 0 1 0 1 0 1 0 0 3 1 0 1 0 
1 0 1 0 1 0 1 0 1 0 1 3 1 0 1 0 
1 0 0 3 1 0 1 0 1 0 1 0 1 0 1 0 
1 0 0 3 1 0 1 0 1 0 1 0 1 3 1 0 
1 0 1 0 1 0 1 2 1 0 1 0 1 0 1 0 
1 3 1 0 1 0 1 0 1 0 1 0 0 3 1 0 
1 0 1 0 1 0 1 0 1 0 0 3 1 0 1 0 
1 0 1 0 1 3 1 0 1 0 1 0 1 0 1 3 
1 0 1 0 1 0 1 0 1 0 1 3 1 0 1 0 
1 0 1 0 1 2 1 0 1 0 1 0 1 0 0 3 
1 0 1 0 1 0 1 0 1 0 1 3 1 0 1 0 
1 0 1 0 1 3 1 0 1 0 1 0 1 0 1 0 
0 3 1 0 1 0 1 0 1 0 1 0 0 3 1 0 
1 0 1 0 1 0 1 0 0 3 1 0 1 0 1 0 
1 0 1 0 1 2 1 0 1 0 1 0 1 0 0 3 
1 0 1 0 1 0 1 0 1 0 1 0 0 3 1 0 
1 0 1 0 1 0 0 3 1 0 1 0 1 0 1 0 
1 0 1 0 0 3 1 0 1 0 1 0 1 0 0 3 
1 0 1 0 1 0 1 0 1 0 0 3 1 0 1 0 
1 0 1 0 1 0 0 3 1 0 1 0 1 0 1 0 
1 2 1 0 1 0 1 0 1 0 1 3 1 0 1 0 
1 0 1 0 1 3 1 0 1 0 1 0 1 0 1 3 
1 0 1 0 1 0 1 0 0 3 1 0 1 0 1 0 
1 0 1 0 0 3 1 0 1 0 1 0 1 0 1 3 
1 0 1 0 1 0 1 0 1 0 0 2 1 0 1 0 
1 0 1 0 1 0 0 3 1 0 1 0 1 0 1 0 
1 3 1 0 1 0 1 0 1 0 1 0 0 3 1 0 
1 0 1 0 1 0 0 3 1 0 1 0 1 0 1 0 
1 0 1 0 0 3 1 0 1 0 1 0 1 0 1 3 
1 0 1 0 1 0 2879 6025 300 MP stroke
1 0 0 2 1 0 1 0 1 0 1 0 1 0 1 3 
1 0 1 0 1 0 1 0 0 3 1 0 1 0 1 0 
1 0 1 0 0 3 1 0 1 0 1 0 1 0 0 3 
1 0 1 0 1 0 1 0 1 3 1 0 1 0 1 0 
1 0 1 3 1 0 1 0 1 0 1 0 0 2 1 0 
1 0 1 0 1 3 1 0 1 0 1 0 1 0 0 3 
1 0 1 0 1 0 1 0 1 0 0 3 1 0 1 0 
1 0 1 0 0 3 1 0 1 0 1 0 1 0 0 3 
1 0 1 0 1 0 1 0 1 0 0 3 1 0 1 0 
1 0 1 0 0 3 1 0 1 0 1 0 1 0 0 2 
1 0 1 0 1 0 1 0 1 0 0 3 1 0 1 0 
1 0 1 0 1 3 1 0 1 0 1 0 1 0 0 3 
1 0 1 0 1 0 1 0 1 0 0 3 1 0 1 0 
1 0 1 0 0 3 1 0 1 0 1 0 1 0 0 3 
1 0 1 0 1 0 1 0 1 0 0 2 1 0 1 0 
1 0 1 0 0 3 1 0 1 0 1 0 1 0 0 3 
1 0 1 0 1 0 1 0 1 0 0 3 1 0 1 0 
1 0 1 0 0 3 1 0 1 0 1 0 1 0 0 3 
1 0 1 0 1 0 1 0 0 3 1 0 1 0 1 0 
1 0 0 2 1 0 1 0 1 0 1 0 0 3 1 0 
1 0 1 0 1 0 0 3 1 0 1 0 1 0 1 0 
0 3 1 0 1 0 1 0 1 0 0 3 1 0 1 0 
1 0 1 0 1 3 1 0 1 0 1 0 1 3 1 0 
1 0 1 0 0 2 1 0 1 0 1 0 1 0 0 3 
1 0 1 0 1 0 1 0 1 3 1 0 1 0 1 0 
0 3 1 0 1 0 1 0 1 0 0 3 1 0 1 0 
1 0 1 0 1 0 0 3 1 0 1 0 1 0 1 0 
0 3 1 0 1 0 1 0 1 0 0 3 1 0 1 0 
1 0 1 0 0 2 1 0 1 0 1 0 1 0 0 3 
1 0 1 0 1 0 1 0 0 3 1 0 1 0 1 0 
1 3 1 0 1 0 1 0 0 3 1 0 1 0 1 0 
1 0 0 3 1 0 1 0 1 0 1 0 0 3 1 0 
1 0 1 0 1 0 0 2 1 0 1 0 1 0 0 3 
1 0 1 0 1 0 1 0 0 3 1 0 1 0 1 0 
1 0 0 3 1 0 1 0 1 0 1 3 1 0 1 0 
1 0 0 3 1 0 1 0 1 0 1 0 0 3 1 0 
1 0 1 0 1 2 1 0 1 0 1 0 1 3 1 0 
1 0 1 0 0 3 2629 5851 300 MP stroke
1 0 1 0 1 0 1 3 1 0 1 0 1 0 1 0 
1 3 1 0 1 0 1 0 0 3 1 0 1 0 1 0 
0 3 1 0 1 0 1 0 1 0 1 2 1 0 1 0 
1 0 1 0 0 3 1 0 1 0 1 0 1 3 1 0 
1 0 1 0 1 3 1 0 1 0 1 0 0 3 1 0 
1 0 1 0 1 0 1 0 0 3 1 0 1 0 1 0 
0 3 1 0 1 0 1 0 1 0 0 3 1 0 1 0 
1 0 1 0 0 2 1 0 1 0 1 0 1 0 0 3 
1 0 1 0 1 0 1 3 1 0 1 0 1 0 0 3 
1 0 1 0 1 0 1 0 0 3 1 0 1 0 1 0 
1 0 0 3 1 0 1 0 1 0 1 3 1 0 1 0 
1 0 1 0 0 2 1 0 1 0 1 0 0 3 1 0 
1 0 1 0 1 3 1 0 1 0 1 0 0 3 1 0 
1 0 1 0 1 3 1 0 1 0 1 0 0 3 1 0 
1 0 1 0 1 3 1 0 1 0 1 0 0 2 1 0 
1 0 1 0 1 3 1 0 1 0 1 3 1 0 1 0 
1 0 1 0 1 3 1 0 1 0 1 3 1 0 1 0 
1 0 0 3 1 0 1 0 1 0 1 0 1 3 1 0 
1 0 1 2 1 0 1 0 1 0 0 3 1 0 1 0 
1 0 1 0 1 3 1 0 1 0 1 0 0 3 1 0 
1 0 1 0 1 3 1 0 1 0 1 0 1 3 1 0 
1 0 1 0 0 3 1 0 1 0 1 0 1 3 1 0 
1 0 1 0 1 0 0 2 1 0 1 0 1 0 0 3 
1 0 1 0 1 0 0 3 1 0 1 0 1 0 0 3 
1 0 1 0 1 0 1 0 0 3 1 0 1 0 1 3 
1 0 1 0 1 3 1 0 1 0 1 0 0 2 1 0 
1 0 1 0 1 0 0 3 1 0 1 0 1 0 0 3 
1 0 1 0 1 0 0 3 1 0 1 0 1 0 1 0 
0 3 1 0 1 0 1 0 1 3 1 0 1 0 1 0 
0 3 1 0 1 0 1 0 1 0 0 2 1 0 1 0 
1 0 1 3 1 0 1 0 1 0 0 3 1 0 1 0 
1 0 1 0 0 3 1 0 1 0 1 0 1 3 1 0 
1 0 1 0 0 3 1 0 1 0 1 0 1 0 1 3 
1 0 1 0 1 0 0 2 1 0 1 0 1 0 0 3 
1 0 1 0 1 0 1 0 0 3 1 0 1 0 1 0 
1 0 0 3 1 0 1 0 1 0 0 3 1 0 1 0 
1 0 1 0 1 3 1 0 1 0 1 0 0 3 1 0 
1 0 1 0 0 3 2373 5650 300 MP stroke
1 0 1 0 1 0 1 0 0 2 1 0 1 0 1 0 
0 3 1 0 1 0 1 0 1 3 1 0 1 0 1 0 
0 3 1 0 1 0 1 0 1 3 1 0 1 0 1 0 
0 3 1 0 1 0 1 0 1 3 1 0 1 0 1 0 
0 2 1 0 1 0 1 0 1 3 1 0 1 0 1 0 
0 3 1 0 1 0 1 0 1 0 0 3 1 0 1 0 
1 0 1 3 1 0 1 0 0 3 1 0 1 0 1 0 
1 0 0 3 1 0 1 0 1 0 1 0 0 2 1 0 
1 0 1 0 0 3 1 0 1 0 1 0 0 3 1 0 
1 0 1 0 1 3 1 0 1 0 1 0 0 3 1 0 
1 0 1 0 0 3 1 0 1 0 1 0 1 0 0 3 
1 0 1 0 1 0 1 2 1 0 1 0 1 0 0 3 
1 0 1 0 1 0 1 3 1 0 1 0 1 0 0 3 
1 0 1 0 1 0 0 3 1 0 1 0 1 0 1 0 
0 3 1 0 1 0 1 0 0 3 1 0 1 0 1 0 
0 3 1 0 1 0 1 0 1 2 1 0 1 0 1 3 
1 0 1 0 1 0 1 3 1 0 1 0 1 3 1 0 
1 0 1 3 1 0 1 0 1 0 0 3 1 0 1 0 
1 0 1 3 1 0 1 0 1 2 1 0 1 0 0 3 
1 0 1 0 1 0 1 0 0 3 1 0 1 0 1 0 
0 3 1 0 1 0 1 0 0 3 1 0 1 0 1 0 
1 0 0 3 1 0 1 0 1 0 0 3 1 0 1 0 
1 0 1 0 0 2 1 0 1 0 1 0 1 0 0 3 
1 0 1 0 1 0 1 0 0 3 1 0 1 0 1 0 
1 0 0 3 1 0 1 0 1 0 1 0 1 3 1 0 
1 0 1 0 0 3 1 0 1 0 1 0 1 0 1 3 
1 0 1 0 1 0 1 0 0 2 1 0 1 0 1 0 
1 0 0 3 1 0 1 0 1 0 1 0 1 0 0 3 
1 0 1 0 1 0 1 3 1 0 1 0 1 0 1 0 
0 3 1 0 1 0 1 0 1 0 0 3 1 0 1 0 
1 0 1 0 0 3 1 0 1 0 1 0 1 0 0 2 
1 0 1 0 1 0 1 0 0 3 1 0 1 0 1 0 
1 0 1 3 1 0 1 0 1 0 0 3 1 0 1 0 
1 0 1 0 1 3 1 0 1 0 1 0 1 0 0 3 
1 0 1 0 1 0 1 0 0 3 1 0 1 0 1 0 
1 0 1 0 0 3 1 0 1 0 1 0 1 0 0 2 
1 0 1 0 1 0 1 0 1 0 0 3 1 0 1 0 
1 0 1 0 1 0 2121 5459 300 MP stroke
0 3 1 0 1 0 1 0 1 0 1 0 0 3 1 0 
1 0 1 0 1 0 1 3 1 0 1 0 1 0 1 0 
1 0 0 3 1 0 1 0 1 0 1 0 1 0 0 3 
1 0 1 0 1 0 1 0 0 2 1 0 1 0 1 0 
1 0 1 0 1 3 1 0 1 0 1 0 1 3 1 0 
1 0 1 0 1 0 1 3 1 0 1 0 1 0 1 0 
0 3 1 0 1 0 1 0 1 0 0 3 1 0 1 0 
1 0 1 0 1 0 1 3 1 0 1 0 1 0 1 0 
0 2 1 0 1 0 1 0 1 0 0 3 1 0 1 0 
1 0 1 0 0 3 1 0 1 0 1 0 1 0 1 0 
0 3 1 0 1 0 1 0 1 0 0 3 1 0 1 0 
1 0 1 0 1 3 1 0 1 0 1 0 1 0 1 3 
1 0 1 0 1 0 1 2 1 0 1 0 1 0 1 0 
1 0 0 3 1 0 1 0 1 0 1 0 1 0 0 3 
1 0 1 0 1 0 1 0 1 3 1 0 1 0 1 0 
1 0 1 0 0 3 1 0 1 0 1 0 1 0 1 0 
0 3 1 0 1 0 1 0 1 0 1 0 0 3 1 0 
1 0 1 0 1 0 1 0 1 0 1 0 0 3 1 0 
1 0 1 0 1 0 1 0 0 2 1 0 1 0 1 0 
1 0 1 0 1 0 1 0 1 3 1 0 1 0 1 0 
1 0 1 0 1 3 1 0 1 0 1 0 1 0 1 0 
1 0 0 3 1 0 1 0 1 0 1 0 1 0 1 0 
1 3 1 0 1 0 1 0 1 0 1 0 1 0 1 0 
1 0 1 3 1 0 1 0 1 0 1 0 1 0 0 3 
1 0 1 0 1 0 1 0 1 0 1 0 1 0 1 0 
1 0 1 0 1 0 0 2 1 0 1 0 1 0 1 0 
1 0 1 0 1 0 1 0 1 0 1 0 1 0 1 0 
1 0 1 0 1 0 1 0 1 0 1 0 1 0 1 0 
1 0 1 0 1 0 1 0 1 0 1 0 1 0 1 0 
1 0 1 0 1 0 1 0 1 0 1 0 1 0 1 0 
1 0 1 0 1 0 1 0 1 0 1 0 1 0 1 0 
1 0 1 0 1 0 0 -2 1 0 1 0 1 0 1 0 
1 0 1 0 1 0 1 0 1 0 1 0 1 0 1 0 
1 0 1 0 1 0 1 0 1 0 1 0 1 0 1 0 
1 0 1 0 1 0 1 0 1 0 1 0 1 0 1 0 
1 0 1 0 1 0 1 0 1 0 1 0 1 0 1 0 
1 0 1 0 0 -3 1 0 1 0 1 0 1 0 1 0 
1 0 1 0 1 0 1846 5364 300 MP stroke
1 0 1 0 1 0 1 0 1 0 1 0 1 0 1 0 
1 0 1 0 1 0 1 0 1 0 1 0 1 0 1 0 
1 0 1 0 1 0 1 0 1 0 1 0 1 0 1 -3 
1 0 1 0 1 0 1 0 1 0 1 0 1 0 1 0 
1 0 1 0 1 0 1 0 1 0 1 0 1 0 1 0 
1 0 1 0 1 0 1 0 1 0 1 0 1 0 1 0 
1 0 1 0 1 0 1 0 1 0 1 0 1 0 1 0 
1 0 1 0 1 0 1 0 1 0 1 0 0 -3 1 0 
1 0 1 0 1 0 1 0 1 0 1 0 1 0 1 0 
1 0 1 0 1 0 1 0 1 0 1 0 1 0 1 0 
1 0 1 0 1 0 1 0 1 0 0 -3 1 0 1 0 
1 0 1 0 1 0 1 0 1 0 1 0 1 0 1 0 
1 0 1 0 1 0 1 -3 1 0 1 0 1 0 1 0 
1 0 1 0 1 0 1 0 1 0 1 0 1 0 1 0 
0 -3 1 0 1 0 1 0 1 0 1 0 1 0 1 0 
1 0 1 0 1 0 1 0 1 0 1 0 0 -2 1 0 
1 0 1 0 1 0 1 0 1 0 1 0 1 0 1 0 
1 0 1 -3 1 0 1 0 1 0 1 0 1 0 1 0 
1 0 1 0 1 0 0 -3 1 0 1 0 1 0 1 0 
1 0 1 0 1 0 1 0 1 0 1 0 1 0 1 -3 
1 0 1 0 1 0 1 0 1 0 1 0 1 0 1 0 
1 0 1 0 1 0 1 0 1 0 0 -3 1 0 1 0 
1 0 1 0 1 0 1 0 1 0 1 0 1 0 1 0 
1 0 1 0 1 0 1 0 1 0 1 0 1 0 1 0 
1 0 1 0 1 0 1 0 1 0 1 0 0 -3 1 0 
1 0 1 0 1 0 1 0 1 0 1 0 1 0 1 0 
1 0 1 0 1 0 1 0 1 0 1 0 1 0 1 0 
1 0 1 0 1 0 1 0 1 0 1 0 1 0 1 0 
1 0 1 0 1 0 1 0 1 0 1 0 1 0 1 0 
1 0 1 0 1 0 1 0 1 0 1 3 1 0 1 0 
1 0 1 0 1 0 1 0 1 0 1 0 1 0 1 0 
1 0 1 0 1 0 1 0 1 0 1 0 1 0 1 0 
1 0 1 0 1 3 1 0 1 0 1 0 1 0 1 0 
1 0 1 0 1 0 1 0 1 0 1 0 1 0 1 3 
1 0 1 0 1 0 1 0 1 0 1 0 1 0 1 0 
1 0 1 0 1 3 1 0 1 0 1 0 1 0 1 0 
1 0 1 0 1 0 1 0 1 0 1 0 0 3 1 0 
1 0 1 0 1 0 1555 5381 300 MP stroke
1 0 1 0 1 0 1 0 1 0 1 2 1 0 1 0 
1 0 1 0 1 0 1 0 1 0 1 0 1 0 1 0 
1 0 1 0 1 0 1 0 1 3 1 0 1 0 1 0 
1 0 1 0 1 0 1 0 1 0 1 0 1 0 1 3 
1 0 1 0 1 0 1 0 1 0 1 0 1 0 1 0 
1 0 1 0 1 0 1 0 0 3 1 0 1 0 1 0 
1 0 1 0 1 0 1 0 1 0 1 0 1 0 1 0 
1 3 1 0 1 0 1 0 1 0 1 0 1 0 1 0 
1 0 1 0 1 0 1 0 1 0 1 0 1 0 1 0 
1 0 1 0 1 0 1 0 1 0 1 0 1 0 1 0 
1 0 1 0 1 0 1 0 1 0 1 0 0 3 1 0 
1 0 1 0 1 0 1 -3 1 0 1 0 0 3 1 0 
1 0 1 0 1 0 1 0 1 0 1 0 1 0 1 0 
1 0 1 0 1 0 0 -3 1 0 1 0 1 0 1 0 
1 0 1 0 1 0 1 0 1 0 1 0 1 0 1 0 
1 0 1 0 1 0 1 0 1 0 1 0 1 0 1 0 
1 0 1 0 1 0 1 0 1 0 1 0 0 -3 1 0 
1 0 1 0 1 0 1 0 1 0 1 0 1 0 1 0 
1 -3 1 0 1 0 1 0 1 0 1 0 1 0 1 0 
0 -3 1 0 1 0 1 0 1 0 1 0 1 0 1 0 
1 0 0 -3 1 0 1 0 1 0 1 0 1 0 1 0 
0 -2 1 0 1 0 1 0 1 0 1 0 1 0 0 -3 
1 0 1 0 1 0 1 0 0 -3 1 0 1 0 1 0 
1 0 1 0 0 -3 1 0 1 0 1 0 1 -3 1 0 
1 0 1 0 1 0 1 -3 1 0 1 0 0 -3 1 0 
1 0 1 0 1 0 1 0 0 -3 1 0 1 0 1 -2 
1 0 1 0 1 0 1 -3 1 0 1 0 0 -3 1 0 
1 0 0 -3 1 0 1 0 1 0 1 -3 1 0 1 0 
0 -3 1 0 1 0 0 -3 1 0 1 0 1 -2 1 0 
1 0 1 -3 1 0 1 -3 1 0 0 -3 1 0 1 0 
0 -3 1 0 1 0 1 -3 1 0 0 -3 1 0 1 0 
0 -2 1 0 1 -3 1 0 1 0 0 -3 1 0 1 -3 
1 0 0 -3 1 0 1 -3 1 0 1 -3 1 0 0 -2 
1 0 0 -3 1 0 1 -3 1 0 0 -3 1 0 1 0 
0 -3 1 0 1 -3 1 0 0 -3 1 0 0 -3 1 0 
1 -2 1 0 0 -3 1 0 0 -3 1 0 1 -3 1 0 
0 -3 1 0 0 -3 1 0 0 -3 1 0 1 -2 1 0 
0 -3 1 0 0 -3 1292 5513 300 MP stroke
1 0 0 -3 1 0 1 -3 1 -3 1 -3 1 -2 1 0 
0 -3 1 -3 1 0 0 -3 1 0 0 -3 1 0 0 -3 
1 0 0 -3 1 0 0 -2 1 0 0 -3 1 0 0 -3 
1 0 0 -3 1 0 0 -3 1 0 0 -3 1 0 0 -3 
1 0 0 -2 1 -3 1 -3 0 -3 1 0 1 -3 0 -3 
1 0 1 -3 0 -3 1 0 1 -2 0 -3 1 -3 1 -3 
0 -3 1 0 1 -3 0 -3 1 0 0 -2 1 0 0 -3 
1 -3 1 -3 0 -3 1 0 0 -3 1 0 0 -3 1 -2 
1 -3 1 -3 0 -3 1 0 0 -3 1 0 0 -6 1 0 
0 -2 1 0 0 -6 1 0 1 -3 0 -3 1 0 0 -3 
1 0 0 -6 1 0 0 -2 1 0 0 -3 1 -3 1 -3 
0 -3 1 -3 1 -3 0 -2 1 -3 1 -3 0 -3 1 0 
0 -3 1 0 0 -6 1 0 0 -2 1 0 0 -6 1 0 
0 -3 1 -3 1 -3 0 -3 1 -2 1 -3 0 -3 1 -3 
1 -3 0 -3 1 0 0 -3 1 -3 0 -2 1 -3 1 -3 
0 -3 1 -3 1 -3 0 -3 1 -2 1 -3 0 -3 1 -3 
1 -3 0 -3 1 -3 1 -2 0 -3 1 -3 1 -3 0 -3 
1 -3 0 -3 1 -2 1 -3 0 -3 1 -3 0 -3 1 0 
0 -6 1 0 0 -3 1 0 0 -5 1 0 0 -3 1 -3 
0 -3 1 0 0 -3 1 -3 0 -2 1 -3 1 -3 0 -3 
1 -3 1 -3 0 -5 1 0 0 -3 1 -3 0 -3 1 0 
0 -3 1 -3 0 -3 1 -2 1 -3 0 -3 1 -3 0 -3 
1 -3 1 -3 0 -3 1 -2 0 -3 1 0 0 -6 1 0 
0 -3 1 0 0 -6 1 0 0 -2 1 -3 0 -3 1 -3 
1 -3 0 -3 1 -3 0 -2 1 0 0 -3 1 -3 0 -3 
1 -3 0 -3 1 0 0 -3 1 -2 0 -3 1 0 0 -3 
1 -3 0 -3 1 -3 0 -3 1 0 0 -5 1 0 0 -3 
1 0 0 -3 1 -3 0 -6 1 0 0 -3 1 -2 0 -3 
1 -3 1 -3 0 -3 1 0 0 -3 1 -3 0 -2 1 -3 
0 -3 1 0 0 -3 1 -3 1 -3 0 -3 1 -2 1 -3 
0 -6 1 0 0 -3 1 0 0 -3 1 -3 1 -3 0 -2 
1 -3 0 -3 1 0 0 -6 1 0 0 -3 1 0 0 -3 
1 0 0 -5 1 0 0 -3 1 -3 0 -3 1 -3 1 -3 
1 -2 1 -3 0 -3 1 -3 0 -3 1 0 0 -3 1 -3 
1 -2 0 -3 1 0 0 -3 1 0 0 -6 1 0 0 -3 
1 0 0 -3 1 0 0 -3 1 0 0 -2 1 -3 1 -3 
0 -3 1 -3 1 0 0 -3 1 -3 1 -2 1 -3 0 -3 
1 0 0 -3 1 0 1119 6200 300 MP stroke
0 -3 1 0 0 -3 1 0 0 -3 1 0 0 -2 1 0 
0 -3 1 0 0 -3 1 0 0 -3 1 0 0 -3 1 0 
0 -3 1 0 0 -3 1 0 0 -2 1 0 0 -3 1 0 
1 -3 1 0 0 -3 1 0 0 -3 1 0 0 -3 1 0 
0 -3 1 0 1 -3 1 0 0 -2 1 0 0 -3 1 0 
1 -3 1 0 0 -3 1 0 1 -3 1 0 0 -3 1 0 
1 -3 1 0 1 -2 1 0 1 -3 1 -3 1 0 0 -3 
1 0 1 0 1 -3 1 0 1 0 0 -3 1 0 1 -3 
1 0 1 -2 1 0 1 0 1 0 0 -3 1 0 1 -3 
1 0 1 0 0 -3 1 0 1 0 1 0 1 -3 1 0 
1 0 1 -3 1 0 1 0 1 0 1 -3 1 0 1 0 
1 -2 1 0 1 0 1 0 1 0 1 0 0 -3 1 0 
1 0 1 0 1 0 1 -3 1 0 1 0 1 0 1 0 
1 0 1 0 1 0 0 -3 1 0 1 0 1 0 1 0 
1 0 1 0 1 0 1 0 1 0 1 -3 1 0 1 0 
1 0 1 0 1 0 1 0 1 0 1 0 1 0 1 0 
1 0 1 0 1 0 1 0 1 0 1 0 1 0 1 0 
1 0 1 0 1 0 1 0 1 0 1 0 1 0 1 0 
1 0 1 0 1 0 1 0 997 6326 149 MP stroke
SO
1 0 100 0 0 -1 99 0 0 -3 99 0 0 -4 99 0 
0 -5 99 0 0 -6 99 0 0 -8 99 0 0 -8 99 0 
0 -8 99 0 0 -10 99 0 0 -9 99 0 0 -10 99 0 
0 -11 99 0 0 -10 99 0 0 -10 99 0 0 -10 100 0 
0 -9 99 0 0 -9 99 0 0 -8 99 0 0 -7 99 0 
0 -7 99 0 0 -5 99 0 0 -4 99 0 0 -3 99 0 
0 -1 99 0 0 1 99 0 0 3 99 0 0 5 99 0 
0 6 99 0 0 10 99 0 0 12 100 0 0 14 99 0 
0 17 99 0 0 21 99 0 0 24 99 0 0 27 99 0 
0 30 99 0 0 34 99 0 0 39 99 0 0 42 99 0 
0 46 99 0 0 51 99 0 0 56 99 0 0 60 99 0 
0 66 99 0 0 68 100 0 0 79 99 0 0 75 99 0 
0 97 99 0 0 73 99 0 0 100 99 0 0 87 99 0 
99 0 99 0 99 0 99 0 99 0 99 0 99 0 99 0 
0 -977 997 6389 114 MP stroke
gr

24 w
c10
0 sg
3833 4992 mt 
(q=10) s
 980 6758 mt 
( ) s
6925 5129 mt 
( ) s
6 w
1 sg
0 334 1896 0 0 -334 4985 960 4 MP
PP
-1896 0 0 334 1896 0 0 -334 4985 960 5 MP stroke
4 w
DO
SO
6 w
0 sg
4985  960 mt 6881  960 L
4985  626 mt 6881  626 L
4985  960 mt 4985  626 L
6881  960 mt 6881  626 L
4985  960 mt 6881  960 L
4985  960 mt 4985  626 L
4985  960 mt 6881  960 L
4985  626 mt 6881  626 L
4985  960 mt 4985  626 L
6881  960 mt 6881  626 L
5424  762 mt 
(Measured pitch) s
gs 4985 626 1897 335 rc
DA
24 w
c8
338 0 5052 719 2 MP stroke
SO
gr

24 w
c8
0 sg
5424  909 mt 
(Calculated pitch reference) s
gs 4985 626 1897 335 rc
c8
338 0 5052 866 2 MP stroke
6 w
gr

6 w
c8
1 sg
0 334 1896 0 0 -334 4985 3221 4 MP
PP
-1896 0 0 334 1896 0 0 -334 4985 3221 5 MP stroke
4 w
DO
SO
6 w
0 sg
4985 3221 mt 6881 3221 L
4985 2887 mt 6881 2887 L
4985 3221 mt 4985 2887 L
6881 3221 mt 6881 2887 L
4985 3221 mt 6881 3221 L
4985 3221 mt 4985 2887 L
4985 3221 mt 6881 3221 L
4985 2887 mt 6881 2887 L
4985 3221 mt 4985 2887 L
6881 3221 mt 6881 2887 L
5424 3023 mt 
(Measured pitch) s
gs 4985 2887 1897 335 rc
DA
24 w
c9
338 0 5052 2980 2 MP stroke
SO
gr

24 w
c9
0 sg
5424 3170 mt 
(Calculated pitch reference) s
gs 4985 2887 1897 335 rc
c9
338 0 5052 3127 2 MP stroke
6 w
gr

6 w
c9
1 sg
0 334 1896 0 0 -334 4985 5481 4 MP
PP
-1896 0 0 334 1896 0 0 -334 4985 5481 5 MP stroke
4 w
DO
SO
6 w
0 sg
4985 5481 mt 6881 5481 L
4985 5147 mt 6881 5147 L
4985 5481 mt 4985 5147 L
6881 5481 mt 6881 5147 L
4985 5481 mt 6881 5481 L
4985 5481 mt 4985 5147 L
4985 5481 mt 6881 5481 L
4985 5147 mt 6881 5147 L
4985 5481 mt 4985 5147 L
6881 5481 mt 6881 5147 L
5424 5283 mt 
(Measured pitch) s
gs 4985 5147 1897 335 rc
DA
24 w
c10
338 0 5052 5240 2 MP stroke
SO
gr

24 w
c10
0 sg
5424 5430 mt 
(Calculated pitch reference) s
gs 4985 5147 1897 335 rc
c10
338 0 5052 5387 2 MP stroke
6 w
gr

6 w
c10

end %%Color Dict

eplot
%%EndObject

epage
end

showpage

%%Trailer
%%EOF
