%!PS-Adobe-3.0 EPSF-3.0
%%Creator: MATLAB, The MathWorks, Inc. Version 7.14.0.739 (R2012a). Operating System: Linux 3.8.4-102.fc17.x86_64 #1 SMP Sun Mar 24 13:09:09 UTC 2013 x86_64.
%%Title: /home/erik/Dropbox/TTK4135/optreg-helikopter/report/figs/tuning_travel_rate.eps
%%CreationDate: 05/03/2013  14:04:26
%%DocumentNeededFonts: Helvetica
%%DocumentProcessColors: Cyan Magenta Yellow Black
%%LanguageLevel: 2
%%Pages: 1
%%BoundingBox:    81   227   529   564
%%EndComments

%%BeginProlog
% MathWorks dictionary
/MathWorks 160 dict begin
% definition operators
/bdef {bind def} bind def
/ldef {load def} bind def
/xdef {exch def} bdef
/xstore {exch store} bdef
% operator abbreviations
/c  /clip ldef
/cc /concat ldef
/cp /closepath ldef
/gr /grestore ldef
/gs /gsave ldef
/mt /moveto ldef
/np /newpath ldef
/cm /currentmatrix ldef
/sm /setmatrix ldef
/rm /rmoveto ldef
/rl /rlineto ldef
/s {show newpath} bdef
/sc {setcmykcolor} bdef
/sr /setrgbcolor ldef
/sg /setgray ldef
/w /setlinewidth ldef
/j /setlinejoin ldef
/cap /setlinecap ldef
/rc {rectclip} bdef
/rf {rectfill} bdef
% page state control
/pgsv () def
/bpage {/pgsv save def} bdef
/epage {pgsv restore} bdef
/bplot /gsave ldef
/eplot {stroke grestore} bdef
% orientation switch
/portraitMode 0 def /landscapeMode 1 def /rotateMode 2 def
% coordinate system mappings
/dpi2point 0 def
% font control
/FontSize 0 def
/FMS {/FontSize xstore findfont [FontSize 0 0 FontSize neg 0 0]
  makefont setfont} bdef
/reencode {exch dup where {pop load} {pop StandardEncoding} ifelse
  exch dup 3 1 roll findfont dup length dict begin
  { 1 index /FID ne {def}{pop pop} ifelse } forall
  /Encoding exch def currentdict end definefont pop} bdef
/isroman {findfont /CharStrings get /Agrave known} bdef
/FMSR {3 1 roll 1 index dup isroman {reencode} {pop pop} ifelse
  exch FMS} bdef
/csm {1 dpi2point div -1 dpi2point div scale neg translate
 dup landscapeMode eq {pop -90 rotate}
  {rotateMode eq {90 rotate} if} ifelse} bdef
% line types: solid, dotted, dashed, dotdash
/SO { [] 0 setdash } bdef
/DO { [.5 dpi2point mul 4 dpi2point mul] 0 setdash } bdef
/DA { [6 dpi2point mul] 0 setdash } bdef
/DD { [.5 dpi2point mul 4 dpi2point mul 6 dpi2point mul 4
  dpi2point mul] 0 setdash } bdef
% macros for lines and objects
/L {lineto stroke} bdef
/MP {3 1 roll moveto 1 sub {rlineto} repeat} bdef
/AP {{rlineto} repeat} bdef
/PDlw -1 def
/W {/PDlw currentlinewidth def setlinewidth} def
/PP {closepath eofill} bdef
/DP {closepath stroke} bdef
/MR {4 -2 roll moveto dup  0 exch rlineto exch 0 rlineto
  neg 0 exch rlineto closepath} bdef
/FR {MR stroke} bdef
/PR {MR fill} bdef
/L1i {{currentfile picstr readhexstring pop} image} bdef
/tMatrix matrix def
/MakeOval {newpath tMatrix currentmatrix pop translate scale
0 0 1 0 360 arc tMatrix setmatrix} bdef
/FO {MakeOval stroke} bdef
/PO {MakeOval fill} bdef
/PD {currentlinewidth 2 div 0 360 arc fill
   PDlw -1 eq not {PDlw w /PDlw -1 def} if} def
/FA {newpath tMatrix currentmatrix pop translate scale
  0 0 1 5 -2 roll arc tMatrix setmatrix stroke} bdef
/PA {newpath tMatrix currentmatrix pop	translate 0 0 moveto scale
  0 0 1 5 -2 roll arc closepath tMatrix setmatrix fill} bdef
/FAn {newpath tMatrix currentmatrix pop translate scale
  0 0 1 5 -2 roll arcn tMatrix setmatrix stroke} bdef
/PAn {newpath tMatrix currentmatrix pop translate 0 0 moveto scale
  0 0 1 5 -2 roll arcn closepath tMatrix setmatrix fill} bdef
/vradius 0 def /hradius 0 def /lry 0 def
/lrx 0 def /uly 0 def /ulx 0 def /rad 0 def
/MRR {/vradius xdef /hradius xdef /lry xdef /lrx xdef /uly xdef
  /ulx xdef newpath tMatrix currentmatrix pop ulx hradius add uly
  vradius add translate hradius vradius scale 0 0 1 180 270 arc 
  tMatrix setmatrix lrx hradius sub uly vradius add translate
  hradius vradius scale 0 0 1 270 360 arc tMatrix setmatrix
  lrx hradius sub lry vradius sub translate hradius vradius scale
  0 0 1 0 90 arc tMatrix setmatrix ulx hradius add lry vradius sub
  translate hradius vradius scale 0 0 1 90 180 arc tMatrix setmatrix
  closepath} bdef
/FRR {MRR stroke } bdef
/PRR {MRR fill } bdef
/MlrRR {/lry xdef /lrx xdef /uly xdef /ulx xdef /rad lry uly sub 2 div def
  newpath tMatrix currentmatrix pop ulx rad add uly rad add translate
  rad rad scale 0 0 1 90 270 arc tMatrix setmatrix lrx rad sub lry rad
  sub translate rad rad scale 0 0 1 270 90 arc tMatrix setmatrix
  closepath} bdef
/FlrRR {MlrRR stroke } bdef
/PlrRR {MlrRR fill } bdef
/MtbRR {/lry xdef /lrx xdef /uly xdef /ulx xdef /rad lrx ulx sub 2 div def
  newpath tMatrix currentmatrix pop ulx rad add uly rad add translate
  rad rad scale 0 0 1 180 360 arc tMatrix setmatrix lrx rad sub lry rad
  sub translate rad rad scale 0 0 1 0 180 arc tMatrix setmatrix
  closepath} bdef
/FtbRR {MtbRR stroke } bdef
/PtbRR {MtbRR fill } bdef
/stri 6 array def /dtri 6 array def
/smat 6 array def /dmat 6 array def
/tmat1 6 array def /tmat2 6 array def /dif 3 array def
/asub {/ind2 exch def /ind1 exch def dup dup
  ind1 get exch ind2 get sub exch } bdef
/tri_to_matrix {
  2 0 asub 3 1 asub 4 0 asub 5 1 asub
  dup 0 get exch 1 get 7 -1 roll astore } bdef
/compute_transform {
  dmat dtri tri_to_matrix tmat1 invertmatrix 
  smat stri tri_to_matrix tmat2 concatmatrix } bdef
/ds {stri astore pop} bdef
/dt {dtri astore pop} bdef
/db {2 copy /cols xdef /rows xdef mul dup 3 mul string
  currentfile 
  3 index 0 eq {/ASCIIHexDecode filter}
  {/ASCII85Decode filter 3 index 2 eq {/RunLengthDecode filter} if }
  ifelse exch readstring pop
  dup 0 3 index getinterval /rbmap xdef
  dup 2 index dup getinterval /gbmap xdef
  1 index dup 2 mul exch getinterval /bbmap xdef pop pop}bdef
/it {gs np dtri aload pop moveto lineto lineto cp c
  cols rows 8 compute_transform 
  rbmap gbmap bbmap true 3 colorimage gr}bdef
/il {newpath moveto lineto stroke}bdef
currentdict end def
%%EndProlog

%%BeginSetup
MathWorks begin

0 cap

end
%%EndSetup

%%Page: 1 1
%%BeginPageSetup
%%PageBoundingBox:    81   227   529   564
MathWorks begin
bpage
%%EndPageSetup

%%BeginObject: obj1
bplot

/dpi2point 12 def
portraitMode 0972 6768 csm

    0     0  5376  4033 rc
85 dict begin %Colortable dictionary
/c0 { 0.000000 0.000000 0.000000 sr} bdef
/c1 { 1.000000 1.000000 1.000000 sr} bdef
/c2 { 0.900000 0.000000 0.000000 sr} bdef
/c3 { 0.000000 0.820000 0.000000 sr} bdef
/c4 { 0.000000 0.000000 0.800000 sr} bdef
/c5 { 0.910000 0.820000 0.320000 sr} bdef
/c6 { 1.000000 0.260000 0.820000 sr} bdef
/c7 { 0.000000 0.820000 0.820000 sr} bdef
c0
1 j
1 sg
   0    0 5377 4034 rf
6 w
0 3287 4166 0 0 -3287 699 3589 4 MP
PP
-4166 0 0 3287 4166 0 0 -3287 699 3589 5 MP stroke
4 w
DO
SO
6 w
0 sg
 699 3589 mt 4865 3589 L
 699 3589 mt  699  302 L
 699 3589 mt  699 3547 L
%%IncludeResource: font Helvetica
/Helvetica /ISOLatin1Encoding 120 FMSR

 666 3734 mt 
(5) s
2087 3589 mt 2087 3547 L
2021 3734 mt 
(10) s
3476 3589 mt 3476 3547 L
3410 3734 mt 
(15) s
4865 3589 mt 4865 3547 L
4799 3734 mt 
(20) s
 699 3589 mt  740 3589 L
 461 3633 mt 
(-35) s
 699 3260 mt  740 3260 L
 461 3304 mt 
(-30) s
 699 2931 mt  740 2931 L
 461 2975 mt 
(-25) s
 699 2602 mt  740 2602 L
 461 2646 mt 
(-20) s
 699 2274 mt  740 2274 L
 461 2318 mt 
(-15) s
 699 1945 mt  740 1945 L
 461 1989 mt 
(-10) s
 699 1616 mt  740 1616 L
 528 1660 mt 
(-5) s
 699 1288 mt  740 1288 L
 598 1332 mt 
(0) s
 699  959 mt  740  959 L
 598 1003 mt 
(5) s
 699  630 mt  740  630 L
 531  674 mt 
(10) s
 699  302 mt  740  302 L
 531  346 mt 
(15) s
gs 699 302 4167 3288 rc
24 w
/c8 { 0.000000 0.000000 1.000000 sr} bdef
c8
1 1 1 1 1 1 1 1 1 1 1 1 1 0 1 0 
1 0 1 0 1 -1 0 -1 2 -2 0 -1 1 -1 0 -1 
1 1 0 2 2 2 0 1 2 2 1 1 1 1 1 1 
1 1 1 0 1 0 1 0 1 -1 1 -1 1 -1 1 -1 
0 -2 1 -1 0 -1 0 1 1 1 1 1 1 1 1 1 
1 1 1 1 1 1 1 0 1 0 1 0 1 -1 1 -1 
0 -1 2 -2 0 -1 1 -1 0 1 2 2 1 1 1 1 
1 1 1 1 1 0 1 1 1 0 1 0 1 -1 0 -1 
2 -2 1 -1 1 -2 -1 0 2 2 0 1 2 2 1 1 
1 1 1 1 1 1 1 0 1 0 1 0 1 -1 1 -1 
0 -1 2 -2 1 -1 -1 0 2 2 0 1 2 2 0 1 
2 2 1 1 1 0 1 1 1 0 1 0 1 0 1 -1 
1 -1 1 -1 0 -2 1 -1 0 -1 1 1 0 1 2 2 
1 0 -1 0 2 2 1 0 1 1 1 0 1 0 1 -1 
1 -1 1 -1 0 -1 1 -1 0 -1 1 -1 0 1 2 2 
1 1 1 1 1 1 1 1 1 0 1 0 1 0 1 0 
1 -1 0 -1 2 -2 0 -2 1 -1 0 1 1 1 0 1 
1 1 1 1 1 1 1 1 1 1 1 1 1 0 1 0 
1 -1 1 0 -1 0 2 -2 0 -1 1 -1 1 -1 -1 0 
2 2 0 1 2 2 1 1 1 1 1 1 1 1 1 1 
1 0 1 0 1 -1 1 0 0 -2 2 -2 0 -1 1 -1 
0 1 1 1 1 1 0 1 2 2 1 0 1 1 1 0 
1 0 1 0 1 -1 0 -1 2 -2 0 -2 2 0 0 1 
2 2 1 1 1 1 1 0 1 1 1 0 1 -1 1 0 
-1 0 2 -2 1 -1 0 -2 1 -1 0 1 1 1 0 1 
1 1 1 1 1 1 1 1 1 1 1 1 1 0 1 0 
1 0 0 -1 2 -2 0 -1 1 -1 0 -1 1 1 0 1 
1 1 0 1 2 2 1 1 1 1 1 1 1 1 1 0 
1 0 1 0 1 -1 0 -1 2 -2 0 -2 1 -1 0 1 
2 2 1 1 1 1 1 1 1 0 1 0 1 0 1 -1 
0 -1 2 -2 0 -1 1 -1 0 -1 0 1 2 2 1 1 
1 1 1 1 1 0 1 1 1 0 1 -1 1 -1 1 -1 
0 -1 1 -1 0 -2 1 1 0 1 2 2 1 1 1 1 
1 1 1 0 1 1 1 0 1 -1 1 -1 0 -1 2 -2 
1 -1 0 2 2 2 1 1 1 1 1 1 1 1 1 0 
1 0 1 0 1 -1 0 -1 2 -2 0 -1 1 -1 1 1 
1 1 1 1 1 1 1 1 1 1 1 0 1 -1 1 0 
1 -1 0 -2 2 -2 4601 1156 300 MP stroke
1 -1 -1 0 2 2 1 1 1 1 1 1 1 0 1 0 
1 0 1 -1 1 0 -1 0 2 -2 0 -2 1 -1 1 1 
0 1 2 2 1 1 1 1 1 0 1 1 1 0 1 -1 
1 0 0 -1 2 -2 1 -2 -1 0 2 2 0 1 2 2 
1 1 1 1 1 1 1 0 1 0 1 0 1 -1 1 -1 
0 -2 2 -2 0 -1 0 1 2 2 1 1 1 1 1 1 
1 0 1 0 1 0 1 -1 0 -1 2 -2 0 -1 1 -1 
0 -1 1 1 1 1 1 1 1 1 1 1 1 0 1 0 
1 0 1 -1 0 -1 2 -2 0 -1 1 -1 0 1 2 2 
1 1 1 1 1 1 1 0 1 1 1 0 1 -1 1 -1 
1 -1 0 -1 1 -1 1 -1 0 2 2 2 1 1 1 1 
1 1 1 1 1 0 1 0 1 0 1 -1 1 -1 0 -2 
2 -2 0 -1 0 1 2 2 1 1 1 0 1 1 1 0 
1 0 1 0 0 -1 2 -2 0 -1 1 -1 0 -2 1 1 
1 1 1 1 1 1 1 1 1 1 1 0 1 0 1 0 
1 -1 0 -1 2 -2 0 -2 1 -1 0 1 1 1 0 1 
2 2 1 0 1 1 1 1 1 0 1 -1 1 0 0 -1 
2 -2 0 -1 1 -1 0 -1 0 1 1 1 0 1 2 2 
1 1 1 1 1 1 1 0 1 0 1 0 1 -1 1 -1 
1 -1 0 -2 1 -1 1 -1 -1 0 2 2 1 1 1 1 
1 1 1 0 1 0 1 0 1 -1 1 -1 1 -1 0 -2 
1 -1 0 -1 1 1 1 1 1 1 1 1 1 1 1 0 
1 0 1 0 1 0 -1 0 2 -2 0 -1 2 -2 1 -2 
-1 0 2 2 1 1 1 1 1 1 1 0 1 1 1 0 
1 -1 1 -1 1 -1 1 -1 0 -2 1 -1 0 1 1 1 
0 1 2 2 1 0 1 1 1 1 1 0 -1 0 2 0 
1 0 1 -1 1 -1 1 -1 0 -2 1 -1 1 -1 -1 0 
2 2 1 1 1 1 1 0 1 1 1 0 1 -1 1 0 
0 -1 2 -2 0 -1 1 -1 1 -2 -1 0 2 2 1 1 
1 1 1 1 1 0 1 0 -1 0 2 0 1 0 1 -1 
0 -1 2 -2 0 -2 2 0 0 1 2 2 1 1 1 1 
1 0 1 1 1 -1 1 0 1 -1 1 -1 1 -1 0 -2 
1 -1 0 -1 0 1 2 2 0 1 2 2 1 1 1 0 
1 1 1 0 1 0 1 0 1 -1 0 -1 2 -2 0 -1 
1 -1 0 -2 1 1 1 1 1 1 1 1 1 1 1 0 
1 0 1 0 1 -1 1 -1 0 -1 2 -2 0 -2 1 -1 
1 0 -1 0 2 2 1 1 1 0 1 1 1 0 1 0 
1 0 1 0 -1 0 4341 1168 300 MP stroke
2 -2 1 -1 0 -1 1 -1 0 -2 1 -1 0 1 2 2 
1 1 1 1 1 0 1 1 1 0 1 0 1 -1 1 -1 
1 -1 0 -1 1 -1 1 -1 0 -2 0 1 2 2 1 1 
1 1 1 1 1 1 1 1 1 0 1 0 1 0 1 -1 
1 -1 1 -1 0 -2 2 -2 0 -2 1 1 1 1 1 1 
1 1 1 1 1 0 1 1 1 0 1 -1 1 0 -1 0 
2 -2 0 -1 2 -2 0 -2 1 -1 0 -1 1 1 1 1 
1 1 1 1 1 1 1 0 1 0 1 0 1 -1 1 -1 
1 -1 1 -1 0 -2 1 -1 0 -1 1 -1 1 1 0 1 
2 2 1 1 1 0 1 1 1 0 1 0 1 0 1 -1 
1 -1 1 -1 0 -1 1 -1 0 -1 1 -1 0 -2 1 1 
1 1 0 1 2 2 1 1 1 0 1 1 1 0 1 1 
1 0 1 -1 1 0 0 -1 2 -2 0 -1 1 -1 0 -1 
1 -1 0 -2 1 -1 1 1 1 1 1 1 1 0 1 1 
1 0 1 0 1 0 1 -1 1 -1 0 -1 2 -2 0 -2 
1 -1 0 -1 1 -1 0 -1 1 1 1 1 1 1 1 1 
1 1 1 1 1 0 1 0 1 0 1 0 1 -1 1 -1 
1 -1 0 -2 2 -2 0 -2 1 -1 0 -1 1 1 1 1 
1 1 1 1 1 1 1 1 1 0 1 1 1 0 1 0 
1 -1 1 0 -1 0 2 -2 1 -1 0 -1 1 -1 1 -1 
0 -3 2 0 1 1 1 1 1 1 1 1 1 1 1 1 
1 1 1 0 1 0 1 0 1 0 1 0 1 -1 0 -1 
2 -2 1 -1 0 -2 1 -1 0 -1 1 -1 0 -3 1 1 
1 1 1 0 1 1 1 0 1 1 1 0 1 0 1 0 
1 0 1 -1 1 -1 1 -1 1 -1 0 -2 1 -1 0 -1 
1 -1 0 -2 1 -1 0 -2 1 1 1 1 1 1 1 0 
1 1 1 1 1 0 1 1 1 0 1 0 1 0 1 -1 
1 -1 1 0 -1 0 2 -2 1 -1 0 -1 1 -1 0 -1 
1 -1 0 -2 1 -1 0 -2 1 -1 1 -1 1 1 1 1 
1 1 1 0 1 1 1 0 1 1 1 0 1 0 1 0 
1 -1 1 0 1 -1 1 -1 0 -1 2 -2 0 -1 1 -1 
1 -1 0 -2 1 -1 0 -2 1 -1 0 -3 1 1 1 1 
1 0 1 1 1 1 1 1 1 0 1 1 1 0 1 1 
1 0 1 0 1 1 1 0 1 0 1 0 1 -1 1 0 
1 -1 1 -1 1 -1 0 -1 2 -2 0 -1 1 -1 0 -1 
1 -1 0 -2 1 -1 0 -2 1 -1 0 -2 1 -1 0 -1 
1 -1 1 1 1 0 1 1 1 0 1 0 1 0 1 1 
1 0 1 0 1 0 4086 1258 300 MP stroke
1 0 1 0 1 0 1 0 1 -1 1 0 1 -1 1 -1 
1 -1 1 -1 0 -1 2 -2 0 -2 2 -2 0 -2 1 -1 
0 -1 1 -1 0 -2 1 -1 0 -3 1 -1 0 -2 1 -1 
0 -3 1 -1 1 0 1 0 1 0 1 0 1 0 1 0 
1 0 1 0 1 0 1 0 1 0 1 0 1 0 1 0 
1 -1 1 0 1 0 1 0 1 0 1 0 1 0 1 0 
1 0 1 0 1 0 1 -1 1 0 1 0 1 0 1 0 
1 0 1 0 1 0 1 0 1 -1 1 0 1 0 1 0 
1 0 1 0 1 -1 1 0 1 0 1 0 1 0 1 -1 
1 0 1 0 1 0 1 0 1 -1 1 0 1 0 1 0 
1 -1 1 0 1 0 1 -1 1 0 1 0 1 -1 1 0 
1 0 1 -1 1 0 1 -1 1 0 1 -1 1 0 1 0 
1 -1 1 0 1 -1 1 0 1 -1 1 0 1 -1 1 -1 
1 0 1 -1 1 -1 1 0 1 -1 1 -1 1 -1 1 0 
1 -1 1 -1 1 -1 1 -1 1 0 1 -1 1 -1 1 -1 
1 -1 1 -1 1 -1 1 -1 0 -1 2 -2 1 0 -1 0 
2 -2 1 -1 1 -1 1 -1 0 -1 2 -2 1 -1 0 -1 
2 -2 0 -1 2 -2 1 -1 0 -1 2 -2 0 -1 2 -2 
1 -1 0 -1 2 -2 1 -1 0 -1 2 -2 1 -1 1 -1 
0 -1 2 -2 1 -1 1 -1 1 -1 1 0 1 -1 1 -1 
1 0 1 -1 1 0 1 1 1 0 1 0 0 1 2 2 
0 1 2 2 1 2 -1 0 2 -2 0 -1 2 -2 0 -2 
2 -2 0 -1 1 -1 0 -1 1 -1 0 -1 1 -1 0 -1 
1 -1 0 -1 2 -2 1 -1 0 -2 2 -2 0 -1 2 -2 
1 -1 1 -1 1 -1 1 -1 1 -1 1 0 1 -1 1 0 
1 0 1 1 1 1 0 1 2 2 0 1 0 -1 1 -1 
0 -2 2 -2 0 -2 1 -1 0 -1 1 -1 0 -1 1 -1 
0 -2 2 -2 0 -1 1 -1 0 -1 1 -1 0 -1 2 -2 
0 -1 2 -2 1 -1 1 0 1 -1 1 0 1 0 1 0 
1 1 0 1 2 2 0 -2 1 -1 0 -2 1 -1 1 -1 
0 -2 1 -1 0 -1 1 -1 0 -1 1 -1 0 -1 1 -1 
1 -1 1 -1 1 -1 1 -1 1 -1 1 0 1 0 1 0 
0 1 2 2 0 1 0 -1 1 -1 0 -1 1 -1 0 -2 
2 -2 0 -2 2 -2 1 -1 1 -1 1 -1 1 -1 1 0 
1 0 1 1 1 1 0 1 0 -1 1 -1 0 -2 1 -1 
0 -1 1 -1 0 -2 2 -2 0 -2 1 -1 1 -1 1 -1 
1 -1 1 -1 1 0 1 0 1 0 1 1 0 1 0 -2 
1 -1 0 -1 1 -1 3823 1461 300 MP stroke
0 -2 1 -1 0 -1 1 -1 0 -2 2 -2 1 -1 1 -1 
1 -1 1 0 1 0 1 0 -1 0 2 2 0 -3 1 -1 
0 -2 2 -2 0 -2 2 -2 0 -1 2 -2 1 0 1 0 
1 0 1 1 0 1 0 -1 2 -2 0 -2 1 -1 0 -1 
2 -2 1 -1 1 -1 1 0 1 1 1 1 0 -1 1 -1 
0 -1 1 -1 0 -2 1 -1 0 -1 2 -2 1 -1 1 -1 
1 0 1 0 -1 0 2 0 0 -2 1 -1 0 -1 1 -1 
0 -2 1 -1 1 -1 0 -2 2 -2 1 0 1 0 1 0 
-1 0 2 0 0 -2 1 -1 0 -1 1 -1 0 -2 2 -2 
1 -1 1 -1 1 0 1 1 1 1 0 -2 1 -1 0 -2 
2 -2 1 -1 1 -1 1 0 1 0 -1 0 2 0 0 -2 
1 -1 0 -1 1 -1 0 -2 2 -2 1 -1 1 0 1 0 
-1 0 2 0 0 -2 1 -1 0 -1 1 -1 0 -2 1 -1 
1 -1 1 -1 1 0 1 0 -1 0 2 0 0 -2 1 -1 
0 -2 2 -2 1 -1 1 -1 1 0 1 1 0 -2 2 -2 
0 -2 1 -1 1 -1 1 -1 1 0 1 1 0 -3 1 -1 
0 -1 1 -1 0 -2 1 -1 1 -1 1 -1 1 -1 1 1 
0 -2 1 -1 0 -2 1 -1 0 -1 1 -1 0 -1 1 -1 
1 -1 1 0 1 1 0 -1 1 -1 0 -2 1 -1 0 -1 
2 -2 1 -1 1 0 1 1 -1 0 2 -2 0 -2 2 -2 
1 0 -1 0 2 0 1 -1 0 -2 1 -1 0 -2 1 -1 
1 -1 1 -1 1 -1 1 1 0 -2 1 -1 0 -2 2 -2 
1 -1 1 -1 1 1 -1 0 2 -2 0 -2 1 -1 0 -1 
1 -1 1 -1 1 0 1 1 0 -2 1 -1 0 -2 2 -2 
1 0 1 0 0 -2 1 -1 0 -1 1 -1 0 -2 2 -2 
1 0 1 -1 0 -2 1 -1 0 -1 1 -1 0 -2 1 -1 
1 0 1 -1 -1 0 2 0 0 -3 1 -1 0 -1 1 -1 
1 -1 1 -1 1 1 0 -2 1 -1 0 -1 1 -1 1 -1 
1 -1 1 0 -1 0 2 -2 0 -2 1 -1 1 -1 1 -1 
1 0 0 -2 1 -1 0 -2 2 -2 1 -1 1 0 0 1 
0 -1 1 -1 0 -2 1 -1 1 -1 1 -1 1 1 -1 0 
2 -2 0 -2 1 -1 1 -1 1 0 1 -1 0 -2 1 -1 
0 -1 1 -1 1 -1 1 -1 0 1 0 -1 1 -1 0 -3 
2 -2 1 -1 1 0 1 -1 0 -2 1 -1 0 -1 1 -1 
1 0 -1 0 2 0 0 -2 1 -1 0 -1 1 -1 1 0 
1 0 0 -3 1 -1 0 -1 1 -1 1 -1 1 0 -1 0 
2 -2 0 -2 1 -1 0 -1 1 -1 1 0 1 -1 0 -2 
1 -1 0 -1 1 -1 3603 1743 300 MP stroke
1 -1 1 0 -1 0 2 -2 0 -1 1 -1 1 -1 1 -1 
0 1 0 -2 1 -1 0 -2 1 -1 1 -1 0 -1 2 -2 
0 -2 1 -1 1 -1 0 -1 2 -2 0 -2 2 -2 1 -1 
1 0 0 -2 1 -1 0 -1 1 -1 1 0 -1 0 2 -2 
0 -2 2 -2 0 -1 2 -2 0 -2 1 -1 1 -1 1 -1 
1 -1 0 -2 1 -1 1 -1 1 0 -1 0 2 -2 0 -1 
1 -1 1 -1 1 -1 0 -1 1 -1 0 -2 1 -1 1 0 
1 -1 0 -3 2 -2 1 0 -1 0 2 -2 0 -2 1 -1 
1 -1 1 0 -1 0 2 -2 0 -1 1 -1 1 0 -1 0 
2 -2 0 -2 2 -2 1 0 0 -2 1 -1 0 -1 1 -1 
0 -1 2 -2 0 -1 1 -1 0 -1 1 -1 1 0 -1 0 
2 -2 0 -1 1 -1 0 -1 2 -2 0 -1 1 -1 1 -1 
0 -1 0 1 1 -1 0 -2 1 -1 0 -1 1 -1 1 0 
-1 0 2 -2 0 -1 1 -1 1 -1 -1 0 2 0 0 -2 
1 -1 1 -1 0 1 1 -1 0 -2 1 -1 1 -1 1 -1 
0 -2 1 -1 0 -1 1 -1 1 0 -1 0 2 -2 0 -2 
1 -1 1 0 -1 0 2 -2 0 -1 1 -1 1 -1 0 1 
0 -1 1 -1 0 -1 1 -1 1 -1 1 -1 0 -2 1 -1 
1 -1 1 0 0 -2 1 -1 1 -1 1 0 0 -2 1 -1 
1 -1 1 -1 0 -1 1 -1 0 -1 1 -1 1 -1 0 -1 
1 -1 1 -1 1 0 0 -3 2 -2 1 1 0 -2 1 -1 
1 -1 1 -1 0 -2 1 -1 0 -1 2 -2 0 -1 1 -1 
0 -1 2 -2 0 -1 1 -1 1 -1 1 -1 0 -1 1 -1 
0 -1 2 -2 0 -1 1 -1 1 0 0 -2 1 -1 0 -1 
1 -1 1 0 0 -2 1 -1 0 -1 1 -1 1 1 0 -2 
1 -1 0 -1 2 -2 0 -2 1 -1 1 0 0 -2 1 -1 
0 -1 1 -1 1 0 0 -3 1 -1 1 -1 1 0 -1 0 
2 -2 0 -2 2 -2 1 -1 1 -1 0 -2 1 -1 0 -2 
2 0 0 -2 1 -1 1 -1 1 -1 0 -2 1 -1 1 -1 
0 -2 2 -2 1 -1 0 -2 1 -1 0 -1 2 -2 0 -1 
1 -1 1 -1 0 -2 2 -2 1 -1 0 -2 1 -1 1 0 
0 -2 1 -1 0 -1 1 -1 1 0 0 -2 1 -1 1 -1 
0 -1 2 -2 1 -1 0 -2 1 -1 1 -1 0 -2 1 -1 
0 -1 1 -1 1 -1 0 -2 1 -1 0 -1 2 -2 0 -1 
1 -1 1 -1 0 -2 1 -1 1 -1 0 1 0 -2 1 -1 
0 -1 1 -1 1 -1 0 -1 1 -1 0 -1 2 -2 0 -1 
2 -2 0 -1 1 -1 1 -2 0 -2 1 -1 0 -1 1 1 
0 -2 1 -1 0 -1 3396 2074 300 MP stroke
1 -1 1 -1 0 -2 2 -2 0 -1 1 -1 1 -1 0 -2 
1 -1 0 -2 2 -2 0 -1 1 -1 1 0 -1 0 2 -2 
1 -1 0 -3 1 -1 1 -1 0 -2 1 -1 0 -1 2 -2 
0 -1 1 -1 1 -1 0 -2 1 -1 0 -1 2 -2 0 -2 
2 -2 0 -1 1 -1 1 -1 0 -2 1 -1 1 0 -1 0 
2 -2 0 -1 2 -2 1 -1 0 -3 1 -1 0 -1 2 -2 
1 -1 0 -1 0 1 1 -1 0 -1 1 -1 1 -1 0 -2 
1 -1 1 -1 0 -2 1 -1 1 0 -1 0 2 -2 1 -1 
0 -2 1 -1 1 -1 0 -2 1 -1 1 -1 0 -2 2 -2 
0 1 0 -1 1 -1 0 -1 1 -1 1 -1 0 -2 2 -2 
0 -2 2 -2 0 -1 1 -1 0 -1 1 -1 0 -1 1 -1 
1 -1 0 -1 1 -1 1 -1 0 -2 2 -2 0 -1 1 -1 
0 -2 1 -1 0 -1 1 -1 1 -1 0 -2 2 -2 0 -1 
1 -1 1 -1 0 -2 1 -1 1 -1 0 -3 2 -2 0 -1 
2 -2 0 -1 1 -1 1 -1 0 -1 1 -1 1 -1 0 -1 
1 -1 0 -1 0 1 1 -1 0 -2 1 -1 1 -1 0 -1 
1 -1 0 -2 2 -2 0 -2 1 -1 0 -1 2 -2 1 -1 
0 -2 1 -1 1 -1 0 -2 1 -1 0 -1 1 1 0 -3 
1 -1 1 0 0 -2 1 -1 0 -1 1 -1 0 -1 1 -1 
0 -2 1 -1 1 -1 0 -2 1 -1 0 -1 2 -2 0 -1 
1 -1 0 -2 1 -1 1 -1 0 -2 1 -1 1 -1 0 -2 
1 -1 1 0 0 -2 1 -1 0 -1 1 -1 1 -1 0 -2 
1 -1 1 -1 0 -2 1 -1 0 -1 2 -2 0 -1 1 -1 
0 -1 1 -1 0 -1 1 -1 0 -2 2 -2 1 -1 0 -2 
1 -1 1 -1 0 -2 1 -1 1 -1 0 -2 2 -2 0 -2 
2 -2 1 -1 0 -2 1 -1 1 -1 0 -2 1 -1 0 -2 
1 -1 0 -1 2 -2 1 -1 0 -2 1 -1 0 -1 1 -1 
1 -1 0 -2 1 -1 0 -1 2 -2 0 -1 1 -1 0 -1 
1 -1 0 -2 1 -1 1 -1 0 -2 1 -1 1 -1 0 -2 
2 -2 1 -1 0 -2 1 -1 1 -1 0 -2 2 -2 1 -1 
0 -2 1 -1 0 -2 1 -1 0 -2 2 -2 0 -1 2 -2 
0 -2 1 -1 1 -1 0 -2 1 -1 1 -1 0 -2 1 -1 
0 -2 1 -1 1 -1 0 -2 1 -1 1 0 0 -3 2 -2 
0 -1 2 -2 1 -1 0 -2 2 -2 1 -1 0 -2 1 -1 
0 -1 2 -2 0 -2 2 -2 0 -1 1 -1 0 -2 2 -2 
1 -1 0 -2 1 -1 1 -1 0 -2 2 -2 1 -1 0 -1 
1 -1 0 -2 1 -1 1 -1 0 -2 2 -2 1 -1 0 -2 
1 -1 1 -1 1 -1 3183 2468 300 MP stroke
0 -2 1 -1 1 -1 1 -1 0 -2 2 -2 0 -2 2 -2 
0 -1 1 -1 0 -1 2 -2 0 -1 1 -1 1 0 0 -2 
1 -1 1 -1 1 -1 0 -2 1 -1 0 -1 1 -1 0 -1 
1 -1 0 -1 1 -1 0 -1 1 -1 1 -1 0 -1 1 -1 
0 -2 1 -1 1 0 0 -3 2 -2 1 -1 0 -1 1 -1 
0 -2 1 -1 0 -1 1 -1 1 -1 0 -2 2 -2 1 -1 
0 -2 1 -1 0 -2 1 -1 1 -1 0 -2 2 -2 0 -1 
1 -1 0 -2 2 -2 0 -2 1 -1 0 -1 2 -2 0 -2 
1 -1 1 -1 0 -2 1 -1 0 -1 2 -2 0 -2 2 -2 
0 -1 1 -1 0 -1 2 -2 0 -2 1 -1 1 -1 0 -1 
1 -1 0 -2 2 -2 0 -1 1 -1 1 -1 0 -2 2 -2 
1 -1 0 -2 2 -2 0 -1 1 -1 0 -1 1 -1 0 -1 
1 -1 0 -2 1 -1 1 -1 1 -1 0 -3 2 -2 0 -1 
1 -1 0 -1 2 -2 0 -2 1 -1 0 -1 1 -1 0 -2 
2 -2 0 -2 1 -1 0 -1 1 -1 1 -1 0 -3 1 -1 
1 -1 0 -1 2 -2 0 -2 2 -2 1 -1 0 -2 2 -2 
0 -1 2 -2 1 -1 0 -3 2 -2 0 -1 0 1 1 -1 
0 -2 1 -1 0 -1 1 -1 0 -2 2 -2 0 -1 1 -1 
0 -1 1 -1 0 -2 2 -2 1 -1 1 -1 0 -2 1 -1 
0 -2 1 -1 0 -1 1 -1 0 -1 1 -1 1 -1 0 -3 
2 -2 0 -1 1 -1 0 -1 1 -1 0 -1 1 -1 0 -1 
1 -1 0 -1 1 -1 0 -1 1 -1 0 -1 1 -1 0 -1 
1 -1 0 -1 1 -1 0 -1 1 -1 0 -1 1 -1 0 -1 
2 -2 0 -2 2 -2 0 -1 1 -1 0 -1 1 -2 1 -1 
0 -2 2 -2 0 -1 1 -1 0 -1 1 -1 1 -1 0 -3 
2 -2 0 -2 1 -1 0 -1 1 -1 0 -1 2 -2 0 -2 
1 -1 0 -1 1 -1 1 -1 1 -1 0 -2 2 -2 0 -2 
1 -1 0 -1 1 -1 1 -1 0 -1 1 -1 0 -2 2 -2 
0 -1 1 -1 0 -1 1 -1 0 -2 1 -1 1 -1 0 -2 
2 -2 0 -2 1 -1 0 -1 2 -2 0 -1 1 -1 0 -2 
1 -1 1 -1 0 -2 2 -2 0 -1 1 -1 0 -2 1 -1 
0 -1 1 -1 0 -1 1 -1 0 -2 2 -2 0 -2 1 -1 
0 -1 1 -1 0 -1 1 -1 1 -1 0 -2 2 -2 0 -2 
1 -1 0 -1 1 -1 1 -1 0 -2 1 -1 0 -1 1 -1 
0 -1 2 -2 0 -2 1 -1 0 -1 1 -1 0 -1 1 -1 
0 -2 1 -1 1 -1 0 -1 1 -1 0 -2 1 -1 0 -2 
2 -2 0 -1 1 -1 0 -1 2 -2 0 -2 2 -2 0 -1 
1 -1 0 -1 2 -2 2975 2872 300 MP stroke
0 -3 2 -2 0 -2 2 -2 0 -1 1 -1 0 -2 2 -2 
0 -1 1 -1 0 -1 1 -1 0 -1 1 -1 0 -2 2 -2 
0 -2 2 -2 0 -1 1 -1 0 -1 2 -2 1 -1 0 -1 
2 -2 0 -2 1 -1 0 -1 2 -2 0 -2 2 -2 0 -2 
2 -2 1 -1 0 -2 1 0 0 -2 1 -1 0 -2 2 -2 
0 -1 1 -1 0 -1 2 -2 0 -2 1 1 0 -1 1 -1 
0 -2 2 -2 0 -2 2 -2 1 -1 0 -2 1 -1 0 -1 
1 -1 0 -1 1 -1 1 -1 1 -1 0 -2 1 -1 1 -1 
0 -1 1 -1 0 -1 1 -1 0 -1 1 -1 0 -1 1 -1 
0 -1 1 -1 0 -1 2 -2 0 -1 2 -2 0 -2 2 -2 
0 -1 1 -1 0 -2 2 -2 1 -1 0 -2 2 -2 1 -1 
0 -2 2 -2 0 -1 1 -1 0 -2 2 -2 0 -1 1 -1 
1 -1 0 -1 1 -1 1 -1 0 -2 1 0 0 -2 2 -2 
0 -1 1 -1 0 -1 1 -1 1 -1 0 -2 1 -1 1 -1 
0 -1 1 -1 0 -1 1 -1 1 -1 0 -2 1 -1 1 -1 
0 -1 1 -1 0 -2 2 -2 0 -1 0 1 1 -1 0 -1 
1 -1 0 -1 0 1 1 -1 0 -2 1 -1 1 -1 0 -1 
0 1 1 -1 1 -1 0 -2 1 -1 0 -1 1 -1 1 -1 
0 -1 1 -1 0 -1 0 1 1 -1 0 -2 1 -1 1 -1 
0 -2 2 -2 0 -1 0 1 1 -1 0 -1 1 -1 0 -2 
1 -1 1 -1 0 -1 1 -1 0 -1 2 -2 0 -1 1 -1 
1 -1 0 -1 1 -1 0 -1 2 -2 0 -1 2 -2 0 -1 
2 -2 0 1 1 -1 0 -2 1 -1 1 -1 0 -2 1 -1 
0 -1 2 -2 0 -1 1 -1 0 -1 1 -1 1 -1 0 -1 
1 -1 0 -2 2 -2 0 -1 0 1 1 -1 0 -1 1 -1 
0 -1 1 -1 0 -1 2 -2 0 -1 2 -2 0 -2 2 -2 
0 -1 1 -1 1 -1 0 -2 1 1 1 -1 0 -2 1 -1 
0 -1 2 -2 0 -1 1 -1 1 -1 0 -2 1 -1 1 -1 
0 -1 2 -2 1 -1 0 -2 2 -2 1 -1 0 -2 2 0 
0 -2 1 -1 1 -1 1 -1 0 -1 1 -1 0 -1 1 -1 
0 -1 2 -2 0 -1 1 -1 0 1 0 -1 1 -1 1 -1 
0 -1 2 -2 1 -1 1 -1 0 -1 2 -2 0 -1 0 1 
1 -1 1 -1 0 -1 2 -2 0 -1 2 -2 1 -1 0 -1 
1 -1 1 -1 1 -1 0 -2 1 -1 0 1 1 -1 0 -2 
2 -2 0 -1 2 -2 0 -1 1 -1 0 -1 0 1 1 -1 
0 -1 2 -2 0 -1 2 -2 1 -1 0 -2 1 -1 1 -1 
0 -1 1 -1 1 -1 0 -2 2 -2 1 -1 0 -1 2 -2 
1 -1 0 -1 2 -2 2760 3236 300 MP stroke
0 -1 2 -2 1 -1 0 1 1 -1 1 -1 0 -2 2 -2 
1 -1 1 -1 0 -1 2 -2 0 -1 2 -2 1 -1 0 -1 
2 -2 0 -1 2 -2 1 -1 0 -1 2 -2 1 -1 0 -1 
1 -1 1 -1 0 -1 1 -1 0 1 1 -1 1 -1 0 -2 
1 -1 0 -1 1 -1 1 -1 1 -1 1 -1 0 -1 2 -2 
1 -1 0 -1 1 -1 0 -1 1 -1 0 1 1 -1 1 -1 
1 -1 1 -1 0 -1 2 -2 0 -1 2 -2 0 -2 1 -1 
1 0 -1 0 2 -2 1 -1 1 -1 1 -1 0 -1 2 -2 
0 -1 1 -1 1 -1 0 -1 2 -2 1 -1 0 -1 0 1 
1 -1 1 -1 1 -1 1 -1 1 -1 1 -1 0 -1 2 -2 
1 -1 0 -2 2 -2 0 -1 1 -1 0 -1 1 -1 1 0 
0 -2 2 -2 1 -1 0 -1 0 1 1 -1 0 -1 1 -1 
1 -1 0 -1 2 -2 0 -1 1 -1 1 0 -1 0 2 -2 
1 -1 1 -1 1 -1 0 -1 2 -2 0 -1 1 1 0 -2 
1 1 0 -1 1 -1 1 -1 1 -1 1 -1 1 -1 1 -1 
1 -1 0 -1 2 0 1 -1 0 -1 0 1 1 -1 1 0 
-1 0 2 -2 0 -2 1 1 0 -1 1 1 0 -2 2 -2 
1 -1 1 -1 1 -1 0 -1 1 -1 1 -1 0 -1 2 -2 
1 -1 1 -1 1 -1 1 -1 1 -1 1 -1 1 0 0 -1 
2 -2 0 -1 1 -1 0 -1 2 -2 0 -1 2 -2 1 -1 
1 -1 1 -1 1 -1 1 -1 1 -1 0 1 0 -1 2 -2 
0 -1 1 -1 1 -1 1 -1 0 -1 2 -2 1 0 1 -1 
1 0 1 -1 0 -1 1 -1 1 -1 0 1 0 -1 2 -2 
1 0 1 0 0 -2 2 -2 1 -1 1 -1 1 -1 1 0 
0 -2 2 -2 0 -1 2 -2 1 -1 1 -1 1 -1 0 -1 
1 -1 0 -1 1 -1 1 -1 0 -2 1 1 0 -2 0 1 
1 -1 1 -1 1 -1 0 1 0 -1 2 -2 1 -1 1 -1 
1 -1 1 -1 0 -1 1 -1 1 -1 1 -1 1 -1 0 -1 
0 1 1 -1 1 0 -1 0 2 -2 1 -1 1 0 0 -1 
2 -2 1 -1 1 -1 1 0 -1 0 2 0 0 -1 1 -1 
0 1 1 -1 1 -1 0 -1 2 -2 0 -1 1 1 0 -1 
1 -1 0 1 1 -1 1 -1 1 -1 1 -1 1 -1 0 1 
0 -1 1 1 0 -1 1 -1 1 0 0 -1 0 1 1 -1 
1 -1 1 -1 1 -1 0 1 0 -1 2 -2 1 -1 0 1 
0 -1 2 -2 1 -1 1 -1 1 0 1 -1 1 -1 1 -1 
0 1 0 -1 1 1 0 -1 1 -1 1 0 -1 0 2 0 
0 -1 0 1 1 -1 1 -1 1 0 1 -1 0 -1 0 1 
1 -1 1 -1 0 1 2528 3500 300 MP stroke
0 -1 1 -1 1 -1 1 -1 0 1 0 -1 1 1 1 -1 
0 -1 2 0 1 -1 1 -1 1 -1 -1 0 2 0 1 -1 
1 -1 0 1 0 -1 1 -1 1 0 0 -1 0 1 1 -1 
1 -1 1 -1 1 0 1 0 -1 0 2 -2 1 -1 0 1 
1 -1 1 -1 0 -1 0 1 1 -1 1 0 -1 0 2 -2 
1 0 1 0 1 -1 1 -1 1 0 1 -1 1 -1 1 0 
1 -1 0 -1 0 1 1 -1 1 -1 0 -1 1 1 1 -1 
1 -1 1 -1 1 0 1 -1 1 -1 1 0 1 -1 0 1 
1 -1 1 -1 1 -1 0 1 1 -1 1 0 0 -1 0 1 
1 -1 1 0 1 -1 1 -1 1 -1 1 -1 0 -1 0 1 
1 -1 0 -1 2 0 1 -1 0 -1 2 0 0 -1 1 -1 
1 -1 0 1 1 -1 1 -1 1 0 1 -1 -1 0 2 0 
1 0 1 0 0 -1 0 1 1 -1 0 1 1 -1 0 -1 
1 1 1 -1 1 -1 1 0 1 -1 1 -1 1 0 1 -1 
0 1 1 -1 1 0 0 -1 0 1 1 -1 1 0 1 -1 
1 0 0 -1 2 0 0 -1 1 -1 1 0 -1 0 2 0 
0 -1 0 1 1 -1 1 -1 -1 0 2 0 1 0 1 0 
1 -1 0 -1 0 1 1 -1 0 1 0 -1 2 0 0 -1 
1 -1 0 1 1 -1 1 0 1 0 1 0 -1 0 2 0 
1 0 1 -1 1 0 1 -1 1 0 1 0 1 0 1 -1 
1 0 1 0 1 -1 1 0 0 -1 2 0 1 0 1 0 
1 -1 1 0 1 0 0 -1 0 1 1 -1 0 1 1 -1 
1 0 -1 0 2 0 1 -1 1 0 1 0 -1 0 2 0 
1 -1 0 1 1 -1 1 1 0 -1 0 1 1 -1 1 0 
-1 0 2 0 1 -1 0 0 1 -1 -1 0 2 0 0 -1 
0 1 1 -1 0 1 1 -1 1 1 1 0 -1 0 2 0 
0 -1 1 1 1 -1 1 0 0 1 1 -1 0 1 1 -1 
1 1 1 0 1 -1 0 1 0 -1 1 1 0 -1 0 1 
1 -1 1 0 1 0 1 0 1 1 0 -1 0 1 1 -1 
1 0 -1 0 2 0 1 0 0 0 2 0 0 1 1 -1 
0 1 0 -1 2 0 0 -1 1 1 1 0 1 0 1 0 
1 0 0 -1 0 1 1 -1 1 1 1 0 1 0 1 0 
-1 0 2 0 1 0 1 0 1 0 1 0 1 0 1 -1 
1 0 1 0 0 -1 0 1 1 -1 0 1 0 -1 1 1 
1 -1 1 0 1 0 1 0 1 0 1 0 1 0 1 0 
1 0 1 0 -1 0 2 0 0 -1 1 1 1 -1 1 1 
1 0 1 0 1 0 1 0 1 -1 0 1 0 -1 1 1 
1 0 1 0 1 -1 2311 3582 300 MP stroke
1 0 -1 0 2 0 0 -1 1 1 1 -1 1 1 0 -1 
0 1 1 -1 1 0 1 -1 1 0 0 1 0 -1 1 1 
0 -1 1 1 1 -1 1 0 1 0 1 0 0 1 0 -1 
1 1 0 -1 0 1 1 -1 1 1 1 0 1 0 1 0 
1 0 1 0 1 1 1 0 1 0 1 0 1 0 1 0 
-1 0 2 0 1 1 -1 0 2 0 0 -1 1 1 1 -1 
0 1 0 -1 1 1 1 0 1 0 0 1 2 0 0 1 
0 -1 1 1 0 -1 1 1 1 0 1 1 1 0 0 1 
0 -1 1 1 0 -1 1 1 0 -1 1 1 1 1 1 -1 
1 0 0 1 0 -1 1 1 1 -1 1 1 1 0 -1 0 
2 0 0 1 0 -1 1 1 1 0 1 0 1 0 1 0 
1 1 1 0 1 0 1 0 1 1 0 1 1 -1 1 1 
1 0 1 0 1 0 1 1 0 1 1 -1 1 1 1 0 
1 1 1 0 1 1 0 1 0 -1 1 1 1 0 1 0 
0 1 2 0 0 1 1 1 0 -1 1 1 1 1 1 1 
0 1 0 -1 1 1 1 0 -1 0 2 2 0 -1 1 1 
1 0 0 1 0 -1 1 1 1 0 1 1 1 1 1 0 
-1 0 2 2 1 1 1 0 1 1 1 0 1 1 1 1 
1 1 1 1 1 1 1 0 0 1 0 -1 1 1 1 1 
1 1 1 1 1 0 -1 0 2 2 1 1 1 1 1 1 
1 1 0 1 0 -1 1 1 1 1 1 1 1 1 1 1 
0 1 1 1 1 0 1 1 1 1 1 1 1 1 0 1 
2 2 1 1 0 1 0 -1 1 1 1 1 1 1 0 1 
2 2 0 1 2 2 0 -1 1 1 1 1 1 0 0 2 
1 -1 1 1 0 1 2 2 1 0 -1 0 2 2 1 1 
0 0 2 2 1 1 0 1 0 -1 1 1 1 1 1 1 
1 1 1 1 0 1 2 2 1 1 1 1 1 1 0 1 
2 2 1 1 0 1 1 1 1 0 1 1 0 2 1 1 
0 1 2 2 0 1 1 1 1 1 0 1 0 -1 1 1 
1 1 0 1 1 1 1 0 0 2 1 1 1 0 1 1 
0 2 1 1 1 0 -1 0 2 2 1 1 0 1 2 2 
0 1 1 1 0 1 1 1 0 2 1 1 0 -1 1 1 
0 2 2 2 0 2 1 1 0 1 1 1 1 1 0 1 
1 1 0 1 1 1 1 1 0 3 1 1 0 1 2 2 
0 1 2 2 0 2 2 2 0 1 1 1 0 2 2 2 
0 2 1 1 1 1 0 2 1 1 0 1 1 1 0 1 
1 1 0 2 1 1 0 1 1 1 0 1 1 1 0 2 
2 2 0 2 2 2 2092 3389 300 MP stroke
0 2 1 1 0 1 1 1 0 1 1 1 0 2 1 1 
0 1 1 1 0 1 1 1 0 2 1 1 0 1 1 1 
0 1 1 1 0 2 1 1 0 1 1 1 0 1 2 2 
0 2 1 1 1 1 0 1 1 1 0 2 2 2 0 2 
1 1 1 1 0 2 1 1 0 2 1 1 0 1 2 2 
0 1 1 1 0 1 1 2 0 1 0 -1 1 1 0 1 
2 2 0 1 1 1 1 1 0 2 1 1 1 1 1 1 
0 2 2 2 0 1 1 1 0 1 1 1 1 1 1 1 
0 2 2 2 0 1 2 2 0 2 2 2 1 1 0 1 
2 2 0 1 1 1 0 1 2 2 0 1 1 1 0 1 
1 1 0 1 1 1 0 1 2 2 1 1 1 1 0 1 
2 2 0 1 1 1 1 1 0 1 1 1 0 1 2 2 
0 2 1 1 0 1 1 1 0 2 2 2 0 2 1 1 
1 1 1 1 0 2 1 1 1 1 0 2 1 1 1 1 
0 1 2 2 1 1 0 2 1 1 1 1 1 1 0 2 
2 2 0 1 1 1 1 1 0 2 2 2 0 1 2 2 
0 1 1 1 0 1 2 2 1 1 0 1 1 1 1 1 
1 1 1 1 1 1 0 2 1 1 1 0 -1 0 2 2 
0 1 1 1 0 2 2 2 0 2 1 1 0 1 1 1 
1 1 0 2 2 2 0 2 2 2 1 1 1 1 0 1 
2 2 0 1 1 1 0 2 1 1 1 1 0 1 1 1 
0 2 2 2 0 1 1 1 1 1 1 1 0 1 2 2 
0 2 2 2 0 1 1 1 0 1 1 1 1 1 1 1 
0 2 2 2 0 2 1 1 1 1 1 1 0 2 1 -1 
0 1 0 -1 1 3 0 2 2 2 0 2 1 1 1 1 
1 1 0 1 2 2 0 2 2 2 0 1 1 1 0 1 
1 1 0 1 1 1 0 1 1 1 0 1 2 2 0 1 
0 -1 1 1 1 1 0 2 1 1 1 1 0 1 2 2 
0 2 2 2 1 1 1 1 0 2 1 1 1 1 0 2 
2 2 0 1 1 1 0 1 1 1 1 1 0 2 1 1 
1 1 0 2 1 1 1 1 0 1 2 2 0 1 2 2 
0 2 1 1 0 1 2 2 0 2 1 1 0 1 1 1 
0 2 2 2 0 1 1 1 0 2 2 2 0 2 1 1 
1 1 0 2 1 1 0 -1 1 1 0 2 1 1 0 2 
2 2 0 1 1 1 1 1 1 1 0 2 1 1 1 1 
0 1 2 2 0 1 1 1 0 2 1 1 1 1 0 1 
1 1 0 1 1 1 1 1 0 2 2 2 0 2 1 1 
0 1 1 1 0 1 1877 3003 300 MP stroke
1 1 0 1 2 2 0 1 1 1 1 1 0 1 1 1 
0 2 1 1 0 1 1 1 0 1 1 1 0 1 1 1 
0 1 2 2 0 2 2 2 0 2 2 2 0 1 1 1 
1 1 0 2 1 1 1 1 0 2 1 1 0 1 1 1 
1 1 0 2 1 1 1 1 0 1 1 1 0 1 1 1 
0 1 1 1 0 1 1 1 0 1 1 1 1 1 0 2 
2 2 0 1 1 1 0 1 2 2 0 2 1 1 1 1 
0 1 2 2 0 2 2 2 0 2 2 2 0 2 2 2 
0 1 1 1 1 1 0 2 1 1 0 1 0 -1 1 1 
0 1 1 1 0 2 1 1 1 1 0 2 1 1 0 1 
2 2 0 2 1 1 0 2 2 2 1 1 0 2 1 1 
0 1 1 1 0 1 1 1 0 1 2 2 0 2 1 1 
0 1 1 1 1 1 0 2 1 1 0 1 1 1 0 2 
2 2 0 1 1 1 0 1 1 1 1 1 0 2 1 1 
0 2 1 1 0 1 2 2 0 2 1 1 0 1 1 1 
0 1 1 1 0 1 2 2 0 1 1 1 0 2 2 2 
1 1 0 3 2 2 0 2 2 2 0 2 1 1 0 1 
1 2 0 1 1 1 0 1 1 1 0 1 1 2 1 1 
0 1 1 2 1 1 0 1 1 1 0 3 2 2 0 1 
1 1 0 1 1 1 0 2 2 2 1 1 0 2 1 1 
0 1 1 1 0 2 2 2 0 2 2 2 0 1 1 1 
0 1 1 1 0 1 1 1 0 1 1 1 0 2 1 1 
1 1 0 1 1 1 0 1 1 1 0 1 1 1 0 2 
2 2 0 1 0 -1 1 3 0 2 1 1 1 1 0 2 
2 2 0 1 1 1 0 1 1 1 0 1 1 1 0 1 
1 1 1 1 0 2 1 1 0 2 2 2 0 2 1 1 
0 3 2 2 0 2 2 2 0 2 1 1 0 2 1 1 
1 1 1 1 0 1 0 -1 1 3 0 3 2 2 0 1 
2 2 1 1 0 2 1 1 0 2 1 1 0 1 1 1 
0 1 1 1 0 2 1 1 0 1 1 1 0 3 2 2 
0 2 1 1 1 1 0 1 1 1 0 2 2 2 0 2 
1 1 0 1 1 1 0 2 1 1 0 2 1 1 0 1 
1 1 0 1 1 1 0 1 1 1 0 2 2 2 0 2 
1 1 0 2 1 1 0 1 1 1 0 2 1 1 0 1 
1 1 0 1 1 1 0 1 1 1 0 1 1 1 0 2 
1 1 0 2 1 1 1 1 0 2 2 2 0 1 1 1 
0 3 2 2 0 1 1 1 1 1 0 1 1 1 0 2 
1 1 1 1 0 2 1681 2599 300 MP stroke
1 1 1 1 0 1 1 1 0 3 2 2 0 3 2 2 
0 2 1 1 0 1 1 1 0 1 1 1 0 1 1 1 
0 1 1 1 0 1 1 1 0 2 1 1 0 1 1 1 
0 2 1 1 0 1 1 1 0 2 1 1 0 2 1 1 
1 1 0 2 2 2 0 2 1 1 0 2 1 1 1 1 
0 2 1 1 0 1 1 1 0 2 1 1 0 2 1 1 
1 1 0 2 1 1 0 1 1 1 0 2 1 1 0 2 
1 1 1 1 0 3 2 2 0 2 1 1 0 2 1 1 
1 1 0 1 1 1 0 2 1 1 0 2 1 1 0 1 
1 1 0 1 1 1 0 1 1 1 0 2 1 1 0 1 
1 1 0 1 1 1 0 2 1 0 0 2 1 1 0 1 
1 1 0 1 1 1 0 3 2 2 0 2 1 2 1 1 
0 1 1 1 0 1 1 1 0 2 1 1 0 1 1 1 
1 1 0 3 1 1 0 2 1 1 0 1 1 1 0 1 
1 1 0 2 1 1 0 2 1 1 0 1 1 1 0 1 
1 1 0 2 1 1 0 1 1 1 0 1 1 1 0 1 
1 1 0 1 1 1 0 2 1 1 0 1 1 1 0 2 
1 0 0 3 2 2 0 2 1 1 0 2 1 1 0 1 
1 1 0 2 1 1 0 1 1 1 0 3 2 2 0 1 
1 1 0 1 1 1 0 2 1 1 0 2 1 1 0 1 
1 1 0 2 1 1 0 2 2 2 0 2 1 1 0 1 
1 2 0 1 1 1 0 2 1 1 0 2 1 0 0 2 
1 1 1 1 0 3 1 1 0 2 2 2 0 2 1 1 
0 2 1 1 0 1 1 1 0 1 1 1 0 2 1 1 
0 1 1 1 1 1 0 2 1 1 0 2 1 1 0 1 
1 1 0 2 2 2 0 2 1 1 0 1 1 1 0 2 
1 1 0 2 1 1 0 1 1 1 0 2 1 1 0 1 
1 1 0 1 0 -1 1 3 0 2 1 1 0 1 1 1 
0 2 1 0 0 2 1 2 1 1 0 1 1 1 0 2 
1 1 0 1 1 1 0 3 2 2 0 2 1 1 0 1 
1 1 0 2 1 1 0 1 1 1 0 2 2 2 0 2 
1 0 0 2 1 2 0 1 1 1 0 2 1 1 0 2 
1 1 0 1 2 2 0 2 1 1 0 2 1 1 0 2 
1 1 1 1 0 1 0 -1 1 3 0 2 1 1 1 1 
0 3 1 1 0 1 1 1 0 1 1 1 0 3 2 2 
0 2 1 1 0 1 1 1 0 2 1 1 0 3 2 2 
0 2 1 0 0 2 1 1 0 1 1 1 0 2 2 2 
0 2 1 1 0 2 1510 2189 300 MP stroke
1 1 1 1 0 2 2 2 0 3 2 2 0 2 1 1 
0 3 2 2 0 1 2 2 0 1 1 1 0 3 1 1 
1 1 0 3 2 2 0 2 1 1 0 2 1 1 1 1 
0 2 1 2 1 1 0 3 2 2 0 2 1 0 0 2 
1 1 0 1 1 1 0 2 1 1 0 2 1 1 0 2 
2 2 0 3 2 2 0 1 0 -1 1 3 0 2 1 1 
0 1 1 1 0 2 1 1 1 1 0 3 2 2 0 3 
2 2 0 2 1 1 0 2 1 1 0 2 1 0 0 2 
1 1 1 1 0 2 1 1 0 1 1 1 0 2 1 1 
0 2 1 1 0 2 1 1 0 1 1 1 0 2 1 1 
1 1 0 1 1 3 1 1 0 4 2 2 0 1 1 1 
0 1 1 1 0 2 1 1 0 1 1 1 0 2 1 1 
0 1 1 1 0 2 1 1 0 1 1 1 0 1 1 1 
0 2 1 1 0 1 1 1 0 1 1 1 0 2 2 2 
0 3 2 2 0 2 2 2 0 1 1 1 0 2 1 1 
0 2 2 2 0 2 1 2 1 1 0 3 1 1 1 1 
0 2 1 1 1 1 0 2 1 2 1 1 0 2 1 1 
0 1 1 1 0 1 1 1 0 1 1 1 0 2 1 1 
1 1 0 2 1 1 0 2 2 2 0 3 2 2 0 1 
1 1 1 1 0 2 1 1 0 1 2 2 0 2 1 1 
1 1 0 3 2 2 0 2 1 1 0 1 2 2 0 2 
1 0 0 2 1 1 0 2 2 2 0 2 1 1 1 1 
0 3 1 1 1 0 0 2 1 1 1 1 1 1 0 2 
1 1 1 1 0 2 1 1 0 1 1 1 0 1 2 2 
1 1 0 3 1 1 1 0 -1 0 2 2 0 1 1 1 
1 1 0 3 1 1 1 0 -1 0 2 2 0 2 2 2 
0 2 1 1 1 1 0 1 1 1 0 2 1 0 1 1 
0 2 1 1 0 1 1 1 0 1 1 1 1 1 1 1 
0 2 1 1 1 1 1 1 0 2 1 1 1 0 -1 0 
2 2 0 2 1 1 1 1 0 2 1 1 1 0 -1 0 
2 2 0 2 1 -1 1 1 0 2 2 2 1 1 0 2 
1 1 0 1 1 1 1 1 0 2 1 1 1 0 0 2 
1 1 1 1 0 1 2 2 0 1 1 1 1 1 0 1 
1 1 0 1 1 1 1 1 0 2 1 1 1 0 -1 0 
2 2 0 1 1 1 1 0 1 1 0 2 1 1 1 0 
-1 0 2 2 0 1 1 1 1 0 0 2 2 2 1 0 
-1 0 2 2 0 1 1 1 1 0 -1 0 2 2 0 1 
1 1 1 0 -1 0 1312 1784 300 MP stroke
2 2 0 1 1 1 1 0 -1 0 2 2 0 1 1 1 
1 0 -1 0 2 2 0 1 1 1 1 0 1 1 0 2 
1 1 1 0 1 1 0 2 1 1 0 1 1 -1 1 1 
0 2 1 1 1 1 1 0 -1 0 2 2 1 1 1 0 
-1 0 2 2 0 1 1 1 1 0 1 1 0 2 1 1 
1 0 1 1 0 1 1 1 0 1 1 -1 1 0 -1 0 
2 2 1 1 1 0 1 1 0 2 1 1 1 -1 1 1 
1 1 0 2 1 -1 1 0 -1 0 2 2 0 2 1 -1 
1 0 1 0 0 2 1 1 1 0 1 0 1 1 0 2 
1 1 1 -1 0 1 2 2 0 2 1 -1 1 0 -1 0 
2 2 0 1 1 1 1 0 1 0 -1 0 2 2 0 1 
1 -1 1 0 1 1 0 1 1 1 1 0 1 0 0 1 
2 2 1 0 1 0 -1 0 2 2 1 1 1 -1 0 1 
2 2 1 -1 1 0 -1 0 2 2 0 1 1 1 1 -1 
1 0 0 1 2 2 1 0 1 0 -1 0 2 2 0 1 
1 -1 1 0 1 0 -1 0 2 2 0 1 1 -1 1 0 
1 1 0 1 2 0 1 0 1 1 0 1 1 1 1 -1 
1 0 0 1 2 2 1 -1 1 0 1 1 0 2 1 -1 
1 -1 1 0 0 1 2 2 1 -1 1 0 0 1 2 2 
0 1 1 -1 1 0 1 1 0 2 1 -1 1 -1 1 0 
1 1 0 2 1 -1 1 -1 1 -1 0 1 2 2 1 -1 
1 -1 0 1 2 2 1 -1 1 0 1 0 -1 0 2 2 
1 -1 1 -1 1 0 -1 0 2 2 1 -1 1 -1 1 0 
1 0 1 2 -1 0 2 -2 1 0 1 1 0 1 2 0 
1 -1 0 1 2 2 0 -1 1 -1 1 0 -1 0 2 0 
1 1 0 1 0 -1 1 -1 1 -1 1 0 1 1 1 1 
-1 0 2 -2 1 0 1 1 0 1 2 0 1 -1 1 0 
-1 0 2 2 0 -1 2 -2 1 1 1 0 0 2 0 -1 
2 -2 1 0 0 1 2 2 0 -1 1 -1 1 0 1 0 
-1 0 2 2 0 1 1 -1 1 -1 1 0 -1 0 2 2 
0 1 0 -1 1 -1 1 -1 1 0 0 1 2 0 1 -1 
1 0 1 1 1 1 0 -1 1 -1 1 0 1 0 -1 0 
2 2 1 -1 1 0 -1 0 2 0 1 1 0 1 1 -1 
1 -1 1 0 0 1 2 0 1 -1 1 0 1 0 -1 0 
2 2 1 -1 1 -1 1 0 1 1 0 2 1 -1 1 -1 
1 0 1 1 0 2 1 -1 1 -1 1 0 1 1 1 1 
1 -1 1 -1 0 1 2 2 1 0 1 -1 1 0 0 1 
2 2 1 -1 1 1 1075 1670 300 MP stroke
1 1 1 1 1 -1 1 0 1 1 0 2 1 -1 1 -1 
1 0 1 0 0 2 2 0 1 -1 1 1 0 1 2 2 
1 -1 1 0 -1 0 2 2 0 1 1 1 1 -1 1 0 
1 1 0 2 1 1 0 -1 2 0 1 1 1 1 0 2 
1 -1 1 0 1 1 0 1 1 1 0 1 1 1 1 0 
1 1 1 1 0 2 1 1 1 -1 1 1 0 1 1 1 
0 1 1 1 1 -1 1 0 -1 0 2 2 0 2 1 1 
1 0 1 0 0 1 2 2 0 2 1 1 1 0 1 1 
1 1 0 2 1 1 1 -1 1 1 1 1 0 2 1 1 
1 0 1 0 0 1 2 2 0 2 1 1 1 0 1 1 
1 1 0 2 1 1 1 1 1 1 0 1 2 2 0 2 
1 1 1 0 0 1 2 2 0 2 1 1 1 1 1 0 
-1 0 2 2 0 2 1 1 0 2 1 1 1 0 1 1 
0 1 1 1 0 2 1 1 0 1 0 -1 1 3 1 0 
-1 0 2 2 0 1 1 1 0 3 1 1 1 1 1 1 
1 1 0 3 1 1 0 2 1 1 1 0 -1 0 2 2 
0 1 1 1 0 2 1 1 0 1 0 -1 1 3 1 0 
-1 0 2 2 0 1 1 1 0 3 1 1 0 3 1 1 
1 1 0 1 1 1 0 1 1 1 0 3 1 1 0 2 
1 1 1 1 0 1 1 1 0 1 1 1 0 3 1 1 
0 2 1 0 0 1 2 2 0 1 1 1 0 3 1 1 
0 3 1 1 0 1 2 2 0 1 1 1 0 2 1 1 
0 4 1 1 0 2 2 2 0 1 1 1 0 2 1 1 
0 3 1 1 0 3 2 2 1 1 0 2 1 1 0 3 
1 1 0 2 1 1 0 3 2 2 0 1 1 1 0 2 
1 1 0 1 1 1 0 4 1 1 0 3 2 2 0 1 
1 1 0 1 1 1 0 2 1 1 0 3 1 1 0 4 
1 1 0 2 1 1 1 1 0 2 1 1 0 1 1 1 
0 3 1 1 0 4 1 1 0 1 1 1 1 1 1 1 
0 2 1 1 0 2 1 1 0 1 1 1 0 4 1 1 
0 1 1 1 1 1 1 1 1 1 0 2 2 2 0 2 
1 1 0 3 1 1 0 2 1 1 0 3 1 1 1 1 
1 0 -1 0 2 2 1 1 0 2 2 2 0 2 1 1 
0 3 1 1 0 2 1 1 0 3 1 2 1 0 1 1 
1 1 1 1 1 1 1 1 0 2 1 1 0 1 1 1 
0 1 1 1 0 3 1 1 0 2 1 1 0 3 1 1 
0 2 1 1 1 0 1 1 1 1 1 1 1 1 1 1 
0 1 2 2 0 1 873 1307 300 MP stroke
1 1 0 1 1 1 0 1 1 1 0 2 1 1 0 1 
1 1 0 3 1 1 0 3 1 2 0 2 1 1 1 0 
1 0 1 0 1 1 1 0 1 0 1 0 1 0 1 0 
1 0 1 0 1 0 1 1 1 0 1 0 1 0 1 0 
1 0 1 1 1 0 1 0 1 0 1 0 1 1 1 0 
1 0 1 0 1 1 1 0 1 0 1 0 1 1 1 0 
1 0 1 0 1 1 1 0 1 0 1 1 1 0 1 1 
1 0 1 0 1 1 1 0 1 1 1 0 1 0 1 1 
1 0 1 1 1 0 1 1 1 0 1 1 1 1 1 0 
1 1 1 0 1 1 1 1 1 0 1 1 1 0 1 1 
1 1 1 0 1 1 1 1 1 1 1 0 1 1 1 1 
1 1 1 0 1 1 1 1 1 1 1 0 1 1 1 1 
1 0 1 1 1 1 1 1 1 0 1 1 1 0 1 1 
1 0 1 1 1 0 1 0 1 0 1 0 1 0 1 0 
1 0 1 -1 1 0 1 -1 0 -1 2 -2 0 -1 2 -2 
0 -2 2 -2 0 -2 1 -1 0 -3 1 -1 0 -2 1 -1 
1 1 1 0 1 1 1 1 1 0 1 1 1 0 1 1 
1 1 1 0 1 1 1 1 1 1 1 0 1 1 1 1 
1 0 1 1 1 1 1 0 1 1 1 0 1 1 1 1 
1 0 1 0 1 1 1 0 1 0 1 1 1 0 1 0 
1 0 1 0 1 -1 1 0 1 0 1 -1 1 -1 0 -1 
2 -2 1 -1 0 -1 1 -1 0 -1 1 -1 0 -1 1 -1 
0 -2 1 -1 0 -2 1 -1 0 -2 1 -1 0 -3 1 1 
1 0 1 0 1 1 1 0 1 1 1 0 1 1 699 1271 192 MP stroke
DA
1 -1 70 0 69 -1 70 -2 69 -4 70 -5 69 -7 70 -11 
69 -13 69 -16 70 -20 69 -24 70 -29 69 -33 70 -37 69 -43 
69 -47 70 -53 69 -59 70 -63 69 -69 70 -73 69 -79 69 -82 
70 -87 69 -91 70 -93 69 -94 70 -96 69 -95 69 -93 70 -90 
69 -84 70 -77 69 -67 70 -55 69 -40 70 -21 69 0 69 26 
70 54 69 87 70 96 69 96 70 96 69 97 69 96 70 96 
69 96 70 97 69 96 70 96 69 96 69 97 70 96 69 95 
70 96 69 102 70 105 69 83 69 22 699 1288 62 MP stroke
SO
/c9 { 1.000000 0.000000 0.000000 sr} bdef
c9
-1 0 2 0 1 0 -1 0 2 0 1 -1 1 0 1 -1 
1 1 -1 0 2 -2 0 1 1 1 1 -1 0 -1 1 1 
1 0 1 -1 1 1 1 -1 1 1 1 0 1 -1 1 1 
1 -1 0 1 2 0 1 -1 1 1 -1 0 2 -2 0 1 
1 1 1 -1 0 -1 1 1 1 0 -1 0 2 0 1 1 
1 -1 0 -1 1 1 1 0 0 -2 1 1 0 1 1 -1 
1 -1 0 1 1 1 1 0 0 -1 0 1 2 0 1 -1 
1 0 1 0 -1 0 2 0 1 0 1 -1 1 1 1 0 
-1 0 2 0 1 0 -1 0 2 0 1 0 1 -1 1 1 
1 -1 1 1 1 0 1 -1 1 1 1 -1 1 1 1 0 
1 -1 1 1 -1 0 2 -2 0 1 1 1 1 0 1 -1 
1 1 1 -1 1 1 1 -1 0 -1 1 1 1 0 1 -1 
1 1 1 0 -1 0 2 0 1 0 1 -1 1 1 1 -1 
0 1 2 0 1 1 1 0 1 -1 1 1 1 0 0 -2 
1 1 1 0 -1 0 2 -2 1 1 1 0 -1 0 2 0 
1 0 -1 0 2 0 1 0 1 -1 1 1 1 0 -1 0 
2 0 1 0 1 -1 0 1 1 1 1 -1 0 -1 1 1 
1 1 -1 0 2 -2 0 1 1 1 0 -1 2 0 1 0 
1 -1 1 1 1 -1 1 1 1 0 1 -1 1 1 1 -1 
0 -1 1 1 1 0 -1 0 2 0 1 1 1 -1 1 1 
1 0 1 -2 -1 0 2 0 1 -1 1 1 1 -1 0 -1 
0 1 1 1 1 -1 0 -1 1 1 1 0 1 -1 1 1 
1 -1 1 1 1 0 1 -1 0 1 1 1 0 -1 2 0 
1 1 -1 0 2 -2 1 0 1 -1 0 -1 1 1 1 0 
-1 0 2 0 1 0 1 -1 1 1 1 0 1 -1 1 1 
-1 0 2 -2 1 1 1 0 -1 0 2 0 1 1 0 -2 
1 1 1 1 1 -1 1 -1 -1 0 2 0 1 -1 1 1 
1 -1 1 1 0 1 0 -1 2 0 1 1 0 -1 2 0 
1 0 1 -1 1 1 -1 0 2 -2 1 1 0 1 0 -1 
2 0 1 0 -1 0 2 -2 1 1 1 -1 1 1 1 0 
1 -1 1 1 1 -1 1 1 1 0 0 -2 1 1 1 1 
0 -1 2 0 1 0 -1 0 2 0 1 0 1 -1 0 1 
1 1 1 -1 1 -1 1 1 -1 0 2 -2 0 1 1 1 
0 -1 2 0 1 0 1 -1 1 1 1 0 0 -2 1 1 
1 0 1 -1 1 1 1 -1 0 -1 0 1 1 1 1 0 
1 -1 1 1 1 -1 0 -1 1 1 1 0 0 -2 1 1 
1 0 1 -1 1 1 1 0 0 -2 1 1 1 0 0 -1 
2 0 1 0 -1 0 4627 615 300 MP stroke
2 0 1 0 1 -1 1 1 1 0 0 -1 0 1 2 0 
1 -1 1 0 1 0 -1 0 2 0 1 0 1 -1 1 1 
1 -1 0 -1 1 1 1 0 0 -1 2 0 1 -1 1 -1 
0 1 0 -1 2 0 1 1 1 -1 0 -1 0 1 1 1 
1 0 -1 0 2 -2 1 1 1 -1 0 -1 1 1 0 -1 
2 0 1 0 1 0 -1 0 2 0 1 0 -1 0 2 -2 
1 1 1 -1 1 1 1 -1 0 -1 1 1 1 0 1 0 
-1 0 2 0 1 0 -1 0 2 -2 1 1 1 -1 0 -1 
0 1 2 0 1 -1 1 1 1 -1 1 1 1 0 -1 0 
2 -2 1 1 0 -1 2 0 1 0 1 -1 1 1 1 -1 
1 1 1 0 -1 0 2 -2 1 1 1 -1 0 -1 1 1 
1 -1 0 -1 1 1 1 1 1 -1 0 -1 0 1 1 1 
1 0 -1 0 2 -2 1 1 1 0 1 -1 -1 0 2 0 
1 -1 1 1 1 -1 0 -1 1 1 1 0 0 -1 2 0 
0 -1 2 0 1 0 1 -1 1 1 1 -1 0 -1 1 1 
1 1 -1 0 2 -2 1 1 1 -1 1 -1 -1 0 2 0 
1 -1 0 1 1 1 1 0 0 -2 1 1 1 0 1 0 
0 -2 1 1 1 -1 0 -1 1 1 1 1 1 -1 0 -1 
0 1 2 0 1 -1 1 1 1 -1 0 -2 1 1 1 0 
-1 0 2 -2 1 1 1 0 1 -1 1 1 -1 0 2 -2 
0 1 1 1 1 -1 1 -1 1 1 0 -1 2 0 1 0 
1 -1 1 1 1 -1 1 1 1 0 -1 0 2 -2 1 0 
1 0 0 -2 1 1 1 1 -1 0 2 -2 1 1 1 0 
-1 0 2 0 1 1 1 -1 1 -1 1 0 1 -1 1 1 
1 -1 0 -1 1 1 1 0 1 -1 1 1 1 -1 1 -1 
1 0 1 -1 0 -1 1 1 1 0 1 -1 1 1 0 -1 
2 0 1 0 1 -1 1 0 -1 0 2 0 1 -1 1 1 
1 -1 1 1 1 0 1 -1 1 1 1 -1 1 -1 1 1 
-1 0 2 -2 1 1 1 -1 0 -1 1 1 1 1 0 -1 
2 0 1 0 -1 0 2 -2 1 0 1 0 0 -2 1 1 
1 0 0 -1 2 0 1 0 1 -1 1 1 1 -1 1 -1 
1 0 1 -1 1 1 1 -1 1 -1 1 1 1 -1 0 -1 
0 1 1 1 1 0 -1 0 2 -2 0 -1 1 1 1 -1 
1 -1 1 0 1 -1 0 -1 1 1 1 0 1 -1 1 1 
1 -1 0 -1 1 -1 1 1 -1 0 2 -2 1 0 1 0 
-1 0 2 -2 1 1 1 -1 1 1 1 0 1 -1 1 -1 
1 0 -1 0 2 -2 1 1 1 -1 0 -1 1 1 1 1 
0 -1 2 0 1 0 4383 679 300 MP stroke
-1 0 2 -2 1 0 1 0 -1 0 2 -2 1 1 -1 0 
2 -2 1 1 1 0 -1 0 2 -2 1 1 1 -1 1 -1 
1 1 1 -1 0 -2 1 1 1 0 -1 0 2 -2 1 1 
1 0 -1 0 2 -2 0 1 1 1 0 -1 2 -2 1 0 
1 -1 1 -1 -1 0 2 0 1 -1 1 1 1 0 0 -2 
1 1 1 1 0 -1 2 -2 1 1 -1 0 2 -2 1 1 
1 0 -1 0 2 -2 1 1 1 0 -1 0 2 -2 1 1 
1 -1 0 -1 1 -1 1 1 0 -1 2 0 1 0 0 -1 
2 0 1 0 -1 0 2 -2 1 1 1 0 0 -2 1 -1 
1 1 0 -1 2 0 1 0 0 -1 2 0 1 0 -1 0 
2 -2 1 1 0 1 0 -1 2 -2 1 1 1 -1 1 -1 
1 0 1 -1 0 -1 1 1 1 0 1 -1 0 -1 1 1 
1 0 1 -1 0 -2 1 1 1 0 -1 0 2 -2 1 1 
1 0 0 -2 1 1 1 1 1 -1 1 -1 1 1 0 -1 
2 -2 1 1 -1 0 2 -2 1 -1 1 1 1 -1 1 -1 
1 0 0 -1 2 0 1 0 1 -1 1 -1 0 1 0 -1 
2 -2 1 1 1 0 -1 0 2 -2 1 1 1 -1 1 -1 
1 1 0 -1 2 -2 1 0 1 0 -1 0 2 -2 1 0 
1 -1 0 -1 1 1 1 0 0 -1 2 0 1 0 1 -1 
0 -2 1 1 1 0 -1 0 2 -2 0 -1 1 1 1 0 
-1 0 2 -2 1 1 1 -1 1 -1 0 -1 1 1 1 0 
-1 0 2 -2 1 0 1 0 -1 0 2 -2 1 1 1 0 
-1 0 2 -2 1 1 1 0 -1 0 2 -2 1 0 -1 0 
2 0 0 -1 2 0 1 0 0 -2 2 0 1 -1 0 -1 
1 -1 1 1 0 1 0 -1 2 -2 1 1 1 0 1 -1 
0 -2 1 1 1 0 -1 0 2 -2 0 -1 1 1 1 0 
0 -1 2 0 1 0 -1 0 2 -2 0 -1 1 1 1 0 
1 -1 0 -2 1 1 1 0 1 -1 0 -2 1 1 1 0 
1 -1 1 -1 1 1 1 -1 0 -2 1 1 1 0 1 0 
-1 0 2 -2 1 0 1 -1 1 -1 1 0 1 0 -1 0 
2 -2 1 0 1 0 -1 0 2 -2 1 1 1 0 -1 0 
2 -2 1 -1 -1 0 2 0 1 -1 1 -1 -1 0 2 0 
1 -1 0 -1 1 1 1 0 1 -1 1 -1 1 1 0 -1 
2 -2 0 -1 1 1 1 -1 1 -1 1 -1 1 0 -1 0 
2 -2 0 -1 1 1 1 0 0 -1 2 0 1 0 1 -1 
0 -2 1 -1 1 1 0 -1 2 -2 1 1 0 -1 2 -2 
1 1 1 0 0 -2 2 0 1 0 -1 0 2 -2 0 -1 
1 -1 1 1 1 -1 4145 805 300 MP stroke
0 -2 1 -1 1 1 1 -1 0 -1 1 -1 1 1 1 0 
-1 0 2 -2 0 -1 1 1 1 0 1 -1 0 -1 1 -1 
1 0 1 0 0 -2 1 -1 0 1 2 0 0 -1 2 0 
1 0 1 -1 0 -1 1 -1 1 1 1 0 0 -2 2 -2 
1 0 1 -1 0 -2 1 1 1 0 1 0 -1 0 2 -2 
1 1 1 0 -1 0 2 -2 1 -1 1 1 0 -1 2 -2 
0 -1 1 1 1 -1 1 -1 0 -2 1 1 1 0 0 -1 
2 -2 1 1 1 0 1 -1 0 -2 1 1 1 0 1 -1 
0 -1 1 -1 1 -1 1 0 1 -1 0 -3 1 1 1 0 
1 -1 0 -2 1 -1 1 1 1 0 0 -2 2 0 1 0 
1 0 0 -2 2 -2 1 0 -1 0 2 -2 0 -1 1 -1 
1 1 0 -1 2 -2 0 -1 1 1 1 0 1 -1 0 -2 
1 1 1 0 1 0 1 -1 0 -2 1 -1 1 0 1 0 
-1 0 2 -2 1 -1 1 1 -1 0 2 -2 1 -1 1 1 
1 0 -1 0 2 -2 0 -2 1 1 1 0 1 0 1 -1 
0 -2 1 -1 1 0 1 0 0 -2 1 -1 1 0 1 1 
0 -1 2 -2 0 -1 1 1 1 0 1 -1 0 -2 1 -1 
1 1 1 0 1 -1 0 -1 1 -1 1 -1 1 0 1 -1 
0 -2 1 -1 1 1 1 0 -1 0 2 -2 0 -2 1 1 
1 0 1 0 -1 0 2 -2 0 -2 1 1 1 0 1 0 
-1 0 2 -2 0 -2 1 -1 1 0 1 0 -1 0 2 -2 
0 -1 1 -1 1 1 0 -1 2 -2 1 -1 1 0 1 0 
-1 0 2 -2 0 -1 1 1 1 0 1 0 -1 0 2 -2 
0 -1 1 -1 1 -1 1 0 -1 0 2 -2 0 -2 1 -1 
1 1 1 0 -1 0 2 -2 0 -1 1 -1 1 1 1 -1 
1 -1 0 -1 1 -1 1 0 1 1 0 -1 2 -2 0 -2 
1 -1 1 1 0 -1 2 -2 0 -1 1 -1 1 1 1 0 
-1 0 2 -2 0 -1 1 -1 0 -1 1 1 1 0 1 -1 
0 -2 1 -1 0 -1 1 1 1 0 1 0 -1 0 2 -2 
0 -2 1 -1 1 -1 1 0 1 -1 0 -2 1 -1 0 -1 
1 1 1 0 0 -1 2 -2 0 -1 1 -1 1 1 1 -1 
0 -1 2 -2 0 -1 1 1 1 0 1 -1 1 -1 0 -2 
1 -1 1 0 1 0 1 -1 0 -2 2 -2 1 1 1 -1 
1 -1 0 -2 1 -1 1 0 1 0 1 0 -1 0 2 -2 
0 -2 1 -1 0 1 2 0 1 0 -1 0 2 -2 0 -2 
1 -1 0 -1 1 1 1 0 0 -1 2 -2 0 -2 1 -1 
1 0 -1 0 2 0 1 -1 1 -1 0 -3 1 1 1 0 
1 0 0 -1 2 -2 3917 998 300 MP stroke
0 -1 1 -1 1 1 1 0 1 -1 1 -1 0 -2 1 -1 
0 -1 1 1 1 0 1 -1 1 -1 0 -2 1 -1 0 -2 
1 1 1 0 1 -1 1 -1 0 -2 1 -1 1 -1 1 0 
1 0 0 -1 2 -2 0 -2 1 -1 1 1 1 0 1 0 
0 -2 2 -2 1 -3 -1 0 2 0 1 0 0 -1 2 -2 
0 -2 1 -1 1 0 1 0 1 -1 1 -1 0 -2 1 -1 
0 -2 1 1 1 0 1 -1 1 0 -1 0 2 -2 0 -2 
1 -1 1 0 1 0 1 0 0 -1 2 -2 0 -2 2 -2 
1 0 1 0 -1 0 2 -2 1 -1 0 -3 1 -1 0 -1 
1 1 1 0 1 -1 1 -1 0 -1 1 -1 0 -1 1 -1 
1 -1 1 1 1 -1 1 -1 1 -1 0 -2 1 -1 1 -1 
1 1 1 0 1 -1 0 -1 2 -2 0 -2 1 -1 0 -1 
1 -1 1 0 1 -1 1 -1 1 -1 0 -2 1 -1 0 -2 
1 -1 1 1 1 0 1 -1 0 -1 2 -2 0 -2 1 -1 
1 -1 1 0 1 0 1 0 1 -1 0 -2 1 -1 0 -1 
1 -1 0 -1 1 -1 1 0 1 1 1 -1 1 -1 0 -1 
1 -1 0 -1 1 -1 0 -2 1 -1 0 -2 1 1 1 0 
1 -1 1 -1 1 -1 0 -1 1 -1 0 -2 1 -1 0 -1 
1 -1 1 0 1 0 1 -1 1 0 -1 0 2 -2 0 -2 
1 -1 0 -1 1 -1 0 -1 1 -1 1 1 1 0 1 -1 
1 -1 0 -1 2 -2 0 -2 1 -1 0 -2 1 -1 1 1 
1 0 1 0 1 -1 1 -1 1 -1 0 -2 1 -1 0 -1 
1 -1 0 -3 1 -1 1 -1 1 0 1 -1 1 0 -1 0 
2 -2 0 -1 1 -1 0 -1 1 -1 0 -3 1 -1 0 -2 
1 -1 1 1 1 -1 1 0 1 -1 0 -1 2 -2 0 -2 
1 -1 0 -1 1 -1 0 -3 1 -1 1 0 1 1 1 -1 
1 0 1 -1 1 -1 0 -1 2 -2 0 -2 1 -1 0 -2 
1 -1 0 -2 1 -1 1 1 1 0 1 0 1 0 1 -1 
1 -1 0 -1 2 -2 0 -1 1 -1 0 -1 1 -1 0 -2 
1 -1 0 -3 1 -1 0 -1 1 -1 1 -1 1 0 1 0 
1 -1 0 -1 2 -2 1 -1 0 -1 1 -1 0 -2 1 -1 
0 -2 1 -1 0 -2 1 -1 0 -3 1 -1 1 -1 1 0 
1 -1 1 0 1 -1 1 -1 0 -1 2 -2 0 -1 1 -1 
0 -1 1 -1 0 -1 1 -1 0 -3 1 -1 0 -2 1 -1 
0 -3 1 -1 0 -2 1 -1 1 -1 1 0 1 -1 1 0 
1 -1 1 -1 1 -1 1 -1 0 -1 2 -2 0 -1 1 -1 
0 -2 2 -2 0 -2 1 -1 0 -2 1 -1 0 -2 1 -1 
0 -3 1 -1 0 -3 3695 1293 300 MP stroke
1 -1 0 -1 1 -3 1 0 1 0 1 -1 1 0 1 -1 
1 0 1 -1 1 0 1 0 1 -1 1 0 1 -1 1 -1 
1 0 1 -1 1 0 1 -1 1 -1 1 0 1 -1 1 -1 
1 0 1 -1 1 -1 1 -1 1 -1 1 0 1 -1 1 -1 
1 -1 1 -1 1 -1 1 -1 0 -1 2 -2 1 -1 1 -1 
1 -1 0 -1 2 -2 1 -1 0 -1 2 -2 0 -1 2 -2 
0 -1 2 -2 0 -1 2 -2 0 -1 1 -1 0 -1 2 -2 
0 -2 2 -2 0 -1 1 -1 1 -1 0 -2 1 -1 0 -1 
1 -1 1 -1 0 -2 1 -1 0 -1 1 -1 0 -1 1 -1 
0 -2 2 -2 0 -2 1 -1 1 -1 0 -2 1 -1 0 -2 
2 -2 0 -2 1 -1 0 -1 1 -1 0 -1 1 -1 0 -2 
1 -1 0 -1 1 -1 0 -1 1 -1 0 -1 1 -1 0 -1 
1 -1 0 -2 2 -2 0 -1 1 -1 0 -1 2 -2 1 -1 
0 -1 2 -2 1 0 1 -1 1 0 1 0 1 0 0 1 
2 0 0 -2 1 -1 0 -2 1 -1 0 -2 1 -1 0 -2 
1 -1 0 -2 1 -1 0 -2 1 -1 0 -2 1 -1 0 -2 
1 -1 0 -1 1 -1 0 -2 1 -1 0 -2 1 -1 1 -1 
0 -2 1 -1 0 -1 1 -1 0 -1 1 -1 1 -1 1 -1 
1 -1 1 -1 1 0 1 0 1 1 -1 0 2 -2 0 -2 
1 -1 0 -2 1 -1 0 -2 1 -1 0 -1 1 -1 0 -2 
1 -1 0 -1 1 -1 0 -2 2 -2 1 -1 1 -1 1 -1 
1 0 1 1 -1 0 2 -2 0 -2 1 -1 0 -2 1 -1 
0 -2 1 -1 0 -3 2 -2 0 -2 1 -1 0 -1 2 -2 
1 -1 1 0 1 0 1 -1 0 -3 1 -1 0 -2 1 -1 
0 -2 1 -1 0 -2 1 -1 0 -1 1 -1 0 -2 1 -1 
0 -1 1 -1 1 -1 1 -1 1 0 1 0 0 -3 1 -1 
0 -1 1 -1 0 -3 1 -1 0 -1 1 -1 0 -2 1 -1 
0 -1 1 -1 1 -1 1 -1 1 0 1 0 -1 0 2 -2 
0 -2 1 -1 0 -2 1 -1 0 -1 1 -1 0 -1 1 -1 
1 -1 1 -1 1 0 0 1 0 -1 1 -1 0 -3 1 -1 
0 -3 2 -2 0 -2 1 -1 1 -1 1 -1 1 0 -1 0 
2 -2 0 -3 1 -1 0 -2 1 -1 0 -2 1 -1 0 -1 
1 -1 0 -1 2 -2 1 0 -1 0 2 -2 0 -2 1 -1 
0 -2 1 -1 0 -2 1 -1 1 -1 1 -1 1 -1 1 0 
0 -2 1 -1 0 -2 1 -1 0 -2 2 -2 1 -1 1 0 
-1 0 2 -2 0 -3 1 -1 0 -2 1 -1 0 -1 1 -1 
1 -1 1 -1 1 -1 0 -3 1 -1 0 -2 1 -1 0 -2 
1 -1 0 -1 2 -2 3481 1642 300 MP stroke
1 0 -1 0 2 -2 0 -2 1 -1 0 -1 1 -1 0 -2 
1 -1 1 -1 1 0 -1 0 2 -2 0 -2 1 -1 0 -1 
1 -1 1 -1 1 -1 1 -1 0 -3 1 -1 0 -1 1 -1 
0 -1 1 -1 0 -1 2 0 0 -4 1 -1 0 -1 1 -1 
0 -3 2 -2 1 -1 1 -1 0 -1 1 -1 0 -3 2 -2 
1 -1 1 0 0 -2 1 -1 0 -2 1 -1 0 -1 1 -1 
1 -1 1 -1 0 -2 1 -1 0 -2 1 -1 1 -1 1 -1 
0 -2 1 -1 0 -2 1 -1 0 -2 1 -1 1 -1 0 -1 
2 -2 0 -2 1 -1 0 -2 1 -1 1 -1 0 -1 2 -2 
0 -1 1 -1 0 -2 1 -1 1 -1 1 -1 0 -3 1 -1 
0 -1 1 -1 0 -1 1 -1 1 0 0 -2 1 -1 0 -3 
1 -1 1 -1 1 -1 1 -2 0 -2 1 -1 0 -2 1 -1 
1 -1 1 0 0 -2 1 -1 0 -3 2 -2 1 0 0 -3 
1 -1 0 -2 2 -2 1 -1 0 -2 1 -1 0 -3 2 -2 
1 -1 0 1 0 -2 1 -1 0 -2 1 -1 0 -1 1 -1 
1 0 0 -2 1 -1 0 -2 1 -1 0 -1 2 -2 0 -2 
1 -1 0 -2 1 -1 0 -1 2 -2 0 -3 1 -1 0 -1 
1 -1 0 -1 2 -2 0 -2 1 -1 0 -1 1 -1 0 -1 
2 -2 0 -2 1 -1 0 -1 2 -2 0 -2 1 -1 0 -2 
1 -1 0 -1 2 -2 0 -2 1 -1 0 -1 1 -1 1 0 
0 -3 1 -1 0 -1 1 -1 1 -1 1 -1 0 -2 1 -1 
0 -1 2 -2 0 -2 1 -1 0 -1 1 -1 1 -1 0 -2 
1 -1 0 -2 2 -2 0 -1 1 -1 0 -2 1 -1 1 -1 
1 0 0 -3 2 -2 1 -1 0 -3 1 -1 0 -1 2 -2 
0 -2 1 -1 0 -1 1 -1 1 -1 0 -2 1 -1 0 -2 
1 -1 0 -1 2 -2 0 -1 1 -1 1 -1 0 -2 1 -1 
0 -2 2 -2 0 -2 1 -1 0 -1 1 -1 0 -1 2 -2 
0 -2 1 -1 1 -1 1 -1 0 -2 1 -1 1 0 0 -2 
1 -1 0 -2 1 -1 1 -1 0 -3 1 -1 1 -1 1 -1 
0 -3 1 -1 0 -1 1 -1 1 0 0 -2 1 -1 0 -2 
2 -3 0 -1 1 -1 0 -1 1 -1 0 -1 1 -1 0 -3 
2 -2 0 -1 1 -1 0 -1 1 -1 1 -1 0 -2 1 -1 
0 -1 1 -1 1 -1 0 -3 1 -1 1 -1 0 -2 1 -1 
0 -2 1 -1 1 0 0 -2 1 -1 0 -1 1 -1 1 -1 
0 -2 1 -1 1 -1 0 -2 1 -1 0 -1 1 -1 1 -1 
0 -3 2 -2 1 -1 0 -2 2 -2 0 -2 2 -2 1 -1 
0 -2 1 -1 1 -1 0 -3 1 -1 0 -1 1 -1 1 -1 
0 -2 1 -1 1 -1 3278 2049 300 MP stroke
0 -2 1 -1 1 -1 0 -2 1 -1 0 -2 1 -1 1 -1 
0 -3 1 -1 0 -1 2 -2 0 -1 1 -1 1 -1 0 -3 
1 -1 1 -1 0 -2 1 -1 0 -2 1 -1 1 -1 0 -3 
1 -1 1 -1 0 -2 1 -1 0 -1 1 -1 1 -1 0 -2 
1 -1 1 0 0 -3 1 -1 1 -1 0 -2 1 -1 0 -2 
2 -2 0 -2 1 -1 1 -1 0 -2 1 -1 1 -1 0 -2 
1 -1 0 -2 2 -2 0 -2 1 -1 0 -1 1 -1 0 -1 
1 -1 0 -1 2 -2 1 -1 0 -3 1 -1 1 -1 0 -2 
1 -1 1 -1 0 -2 1 -1 0 -1 1 -1 1 -1 0 -2 
1 -1 1 -1 0 -3 2 -2 0 -1 1 -1 1 -1 0 -2 
1 -1 0 -2 2 -2 1 -1 0 -2 1 -1 1 -1 0 -3 
1 -1 0 -1 1 -1 0 -1 1 -1 0 -1 1 -1 1 -1 
0 -2 1 -1 0 -1 1 -1 0 -1 1 -1 0 -1 1 -1 
0 -2 1 -1 1 -1 0 -2 1 -1 1 0 0 -2 1 -1 
1 -1 0 -2 1 -1 0 -2 1 -1 0 -2 2 -2 0 -2 
2 -2 0 -2 1 -1 1 -1 0 -3 2 -2 0 -3 2 -2 
0 -1 1 -1 1 -1 0 -1 1 -1 0 -2 1 -1 0 -2 
1 -1 0 -1 1 -1 0 -2 1 -1 1 -1 0 -2 2 -2 
0 -1 1 -1 0 -2 1 -1 1 -1 0 -2 1 -1 1 -1 
0 -3 2 -2 0 -2 2 -3 0 -2 1 -1 1 -1 0 -3 
2 -2 0 -2 1 -1 0 -1 1 -1 0 -1 1 -1 0 -2 
1 -1 0 -1 1 -1 0 -2 1 -1 1 -1 0 -2 1 -1 
0 -1 2 -2 0 -2 1 -1 0 -1 1 -1 0 -2 1 -1 
0 -2 2 -2 0 -2 2 -2 1 -1 0 -2 1 -1 1 -1 
0 -2 1 -1 0 -2 1 -1 1 -1 0 -2 1 -1 1 0 
0 -3 1 -1 0 -1 1 -1 0 -2 2 -2 1 -1 0 -2 
1 -1 0 -1 1 -1 0 -1 1 -1 0 -1 1 -1 0 -1 
1 -1 0 -2 1 -1 0 -1 2 -2 0 -2 1 -1 0 -1 
1 -1 0 -3 2 -2 0 -2 2 -2 0 -2 1 -1 0 -1 
1 -1 1 -1 0 -2 1 -1 0 -1 1 -1 0 -2 2 -2 
1 -1 0 -2 1 -1 0 -2 1 -1 0 -2 2 -2 0 -1 
2 -2 0 -2 1 -1 1 -1 0 -2 1 -1 0 -1 1 -1 
0 -2 2 -2 0 -2 2 -2 0 -2 2 -2 0 -2 1 -1 
0 -1 1 -1 1 -1 0 -3 1 -1 1 -1 0 -2 1 -1 
0 -2 2 -2 0 -2 2 -2 0 -1 1 -1 0 -2 1 -1 
1 -2 0 -2 2 -2 0 -1 1 -1 0 -2 1 -1 0 -1 
1 -1 1 -1 0 -2 1 -1 1 -1 0 -2 2 -2 0 -2 
1 -1 0 -1 2 -2 3075 2482 300 MP stroke
0 -2 1 -1 1 -1 0 -3 1 -1 1 -1 0 -1 1 -1 
0 -2 2 -2 0 -1 1 -1 0 -1 1 -1 0 -2 1 -1 
0 -1 1 -1 0 -2 2 -2 1 -1 0 -3 1 -1 0 -1 
1 -1 1 -1 0 -2 1 -1 1 -1 0 -2 1 -1 0 -1 
1 -1 0 -2 1 -1 0 -1 1 -1 0 -1 1 -1 0 -1 
1 -1 1 -1 0 -1 1 -1 0 -2 2 -2 0 -1 1 -1 
0 -2 1 -1 0 -1 1 -1 0 -1 1 -1 0 -2 1 -1 
0 -1 1 -1 1 -1 0 -1 1 -1 0 -2 2 -2 1 -1 
0 -3 2 -2 0 -1 1 -1 0 -1 1 -1 0 -2 1 -1 
0 -1 1 -1 1 -1 0 -3 2 -2 0 -1 1 -1 0 -1 
1 -1 0 -2 1 -1 0 -2 2 -2 0 -1 1 -1 0 -3 
2 -2 1 -1 0 -2 1 -1 0 -1 1 -1 0 -1 1 -1 
0 -1 2 -2 1 -1 0 -1 1 -1 0 -1 1 -1 0 -2 
1 -1 0 -1 1 -1 1 0 0 -2 1 -1 0 -2 1 -1 
0 -1 1 -1 0 -1 1 -1 0 -2 2 -2 0 -2 2 -2 
0 -1 1 -1 0 -2 1 -1 0 -1 1 -1 0 -1 1 -1 
1 -1 0 -2 1 -1 0 -2 1 -1 0 -1 1 -1 0 -1 
2 -2 0 -2 1 -1 1 -1 0 -2 2 -2 0 -2 1 -1 
0 -1 1 -1 0 -1 2 -2 0 -2 2 -2 0 -2 1 -1 
1 -1 0 -2 2 -2 0 -2 2 -2 1 -1 0 -3 2 -2 
0 -2 1 -1 0 -1 1 -1 1 -1 0 -2 1 -1 0 -2 
2 -2 0 -1 1 -1 0 -1 2 -2 0 -2 2 -2 0 -1 
1 -1 1 -1 0 -3 2 -2 0 -2 1 -1 1 -1 1 -1 
0 -3 2 -2 1 -1 0 -2 1 -1 1 -1 0 -2 2 -2 
0 -2 1 -1 0 -1 1 -1 1 -1 0 -1 1 -1 0 -1 
2 -2 0 -2 1 -1 1 -1 0 -1 1 -1 0 -1 1 -1 
1 -1 0 -3 2 -2 0 -1 1 -1 0 -1 1 -1 0 -1 
1 -1 0 -2 2 -2 1 -1 0 -2 1 -1 1 -1 0 -1 
1 -1 1 -1 0 -2 1 -1 0 -2 1 -1 1 -1 0 -1 
1 -1 1 -1 0 -2 1 -1 0 -1 1 -1 0 -2 2 -2 
1 -1 0 -2 1 -1 0 -1 1 -1 0 -1 1 -1 0 -1 
2 -2 0 -2 2 -2 1 -1 0 -2 1 -1 1 -1 0 -2 
1 -1 0 -1 2 -2 0 -1 2 -2 0 -1 2 -2 1 -1 
0 -1 1 -1 0 -1 2 -2 0 -2 2 -2 0 -1 1 -1 
0 -1 1 -1 0 -1 1 -1 1 -1 1 -1 0 -2 1 -1 
0 -1 2 -2 1 -1 0 -2 1 -1 0 -2 2 -2 0 -1 
0 1 1 -1 0 -2 2 -2 0 -1 1 -1 0 -1 1 -1 
1 -1 0 -2 2 -2 2868 2890 300 MP stroke
0 -2 2 -2 0 -1 1 -1 0 -2 2 -2 1 -1 1 -1 
0 -2 2 -2 1 -1 0 -1 2 -2 0 -2 1 -1 0 -1 
1 -1 0 -1 1 -1 0 -1 2 -2 1 -1 0 -1 1 -1 
1 -1 0 -2 1 -1 0 -1 2 -2 0 -2 2 -2 1 -1 
1 -1 1 -1 0 -2 2 -2 1 -1 1 -1 0 -1 1 -1 
0 -1 1 -1 1 -1 0 -1 1 -1 0 -1 1 1 0 -2 
1 -1 0 -1 1 -1 1 0 -1 0 2 -2 0 -1 2 -2 
0 -2 2 -2 0 -1 2 -2 0 -2 2 -2 1 -1 0 -2 
2 -2 1 -1 1 -1 0 -2 2 -2 1 -1 0 -2 2 -2 
0 -1 2 -2 1 -1 0 -1 1 -1 0 -1 2 -2 0 -1 
1 -1 0 -1 1 1 0 -2 1 -1 0 -1 1 -1 1 0 
-1 0 2 -2 1 -1 0 -2 2 -2 1 -1 1 -1 1 -1 
0 -2 2 -2 0 -1 1 -1 1 -1 1 -1 0 -2 2 -2 
1 -1 1 -1 0 -2 1 -1 1 0 -1 0 2 -2 1 -1 
0 -1 2 -2 1 -1 0 -2 1 -1 1 -1 0 -1 2 -2 
0 -1 2 -2 1 -1 1 -1 0 -1 2 -2 0 -1 1 -1 
1 0 -1 0 2 -2 0 -1 2 -2 1 -1 1 -1 0 -1 
2 -2 1 -1 0 -1 1 -1 1 -1 0 -1 1 -1 1 -1 
1 -1 0 -1 1 -1 1 -1 0 -1 2 -2 0 -1 2 -2 
0 1 0 -1 1 -1 1 -1 1 -1 1 -1 0 -1 2 -2 
0 -1 1 -1 0 -1 2 0 0 -2 1 -1 1 0 -1 0 
2 -2 0 -1 1 -1 1 -1 1 -1 1 -1 0 -1 1 -1 
0 -1 2 -2 0 -1 2 -2 1 -1 1 -1 1 0 0 -1 
2 -2 1 -1 1 -1 1 -1 1 -1 1 -1 0 -1 2 -2 
0 -1 2 -2 1 0 -1 0 2 -2 1 -1 0 -1 2 -2 
1 -1 0 -1 2 -2 1 0 -1 0 2 -2 0 -1 2 -2 
0 -1 1 -1 1 0 -1 0 2 -2 0 -1 1 -1 1 -1 
1 -1 1 -1 1 -1 1 -1 0 -1 2 -2 1 -1 0 -1 
1 -1 1 -1 0 -1 1 -1 0 -1 2 -2 0 1 1 -1 
1 -1 1 -1 0 -1 2 0 0 -1 1 -1 1 -1 0 -1 
2 -2 0 -1 1 -1 1 -1 1 -1 1 -1 1 -1 1 -1 
0 -2 1 -1 1 0 -1 0 2 -2 0 -1 0 1 1 -1 
1 0 0 -1 1 -1 0 1 0 -1 1 -1 0 1 1 -1 
1 -1 0 -1 2 0 1 -1 0 -1 0 1 1 -1 1 -1 
1 0 0 -1 0 1 1 -1 1 -1 0 1 0 -1 2 -2 
1 -1 0 -1 2 0 0 -1 1 -1 1 0 1 -1 1 -1 
1 -1 0 -2 1 1 0 -1 1 -1 1 -1 0 -1 1 -1 
0 1 1 -1 1 -1 2632 3211 300 MP stroke
1 -1 1 -1 1 0 1 -1 0 -1 0 1 1 -1 0 -1 
1 -1 0 1 1 -1 1 0 1 -1 0 -1 2 -2 1 0 
1 -1 1 -1 1 -1 1 -1 1 0 -1 0 2 0 0 -1 
2 -2 1 0 -1 0 2 -2 0 1 1 -1 0 -1 2 0 
0 -1 1 -1 1 -1 1 -1 1 0 1 -1 1 -1 1 -1 
0 -2 1 -1 1 -1 0 -1 0 1 1 -1 0 -1 1 -1 
0 -1 2 -2 1 -1 0 1 0 -1 2 -2 0 -1 1 -1 
1 0 0 -1 0 1 1 -1 1 -1 1 -1 0 -1 2 -2 
1 0 0 -1 0 1 1 -1 1 -1 0 1 1 -1 1 -1 
0 -1 2 -2 0 -1 0 1 1 -1 1 0 0 -1 0 1 
1 -1 1 -1 0 1 0 -1 2 -2 1 -1 0 -1 0 1 
1 -1 0 1 1 -1 1 0 1 0 1 -1 1 -1 1 0 
-1 0 2 -2 0 1 0 -2 1 1 0 -1 1 -1 1 -1 
1 0 1 -1 0 1 1 -1 1 -1 0 1 1 -1 1 -1 
1 -1 1 -1 1 -1 1 -1 1 -1 0 1 0 -1 1 1 
0 -1 0 1 1 -1 1 0 1 -1 0 1 1 -1 1 0 
1 -1 1 -1 1 -1 0 1 1 -1 1 -1 1 -1 1 0 
1 -1 1 -1 1 0 1 0 1 0 0 -1 0 1 1 -1 
0 1 1 -1 1 0 1 0 -1 0 2 0 1 -1 1 -1 
0 1 0 -1 2 0 1 -1 1 -1 1 -1 1 -1 1 -1 
1 -1 -1 0 2 0 1 -1 0 -1 1 -1 0 1 1 -1 
1 -1 0 -1 2 0 0 -1 0 1 1 -1 1 0 1 0 
-1 0 2 0 1 -1 1 0 1 -1 -1 0 2 0 1 0 
-1 0 2 0 1 -1 1 -1 0 1 1 -1 1 0 1 0 
1 -1 1 -1 0 1 1 -1 1 0 -1 0 2 0 1 -1 
1 -1 1 0 -1 0 2 0 1 -1 0 -1 0 1 1 -1 
1 0 1 -1 1 0 1 -1 1 -1 1 0 1 -1 1 0 
1 -1 1 -1 1 0 1 -1 1 0 1 -1 1 -1 1 0 
0 -1 2 0 1 -1 0 -1 0 1 1 -1 1 -1 0 1 
1 -1 1 0 1 -1 1 -1 0 1 1 -1 1 0 -1 0 
2 0 1 -1 1 0 0 0 1 -1 -1 0 2 0 0 1 
0 -1 1 1 0 -1 1 1 0 -1 0 1 1 -1 1 -1 
0 1 0 -1 1 1 1 -1 1 -1 1 0 1 1 0 -1 
2 0 1 0 1 0 1 -1 1 0 0 -1 0 1 1 -1 
1 0 1 -1 1 0 1 0 1 -1 0 1 1 -1 -1 0 
2 0 0 1 0 -1 1 1 1 0 -1 0 2 0 1 1 
1 1 1 0 1 -1 0 1 1 -1 1 0 -1 0 2 0 
1 -1 1 0 1 0 2414 3342 300 MP stroke
1 0 1 1 0 -1 1 1 1 0 0 1 0 -1 1 1 
1 0 1 -1 1 0 1 -1 1 0 0 -1 0 1 1 -1 
0 1 1 -1 1 0 1 0 1 0 1 0 1 0 1 0 
0 0 2 0 1 1 1 0 0 1 0 -1 2 0 1 -1 
1 0 1 -1 0 1 0 -1 1 1 1 -1 1 0 -1 0 
2 0 0 1 0 -1 1 1 1 -1 1 1 0 -1 1 1 
1 -1 1 0 1 -1 1 -1 1 0 1 -1 1 0 0 -1 
0 1 1 -1 1 0 1 0 1 0 1 0 1 0 -1 0 
2 0 1 1 1 1 1 -1 0 1 1 -1 1 -1 0 1 
1 -1 1 0 0 -1 0 1 1 -1 0 1 1 -1 -1 0 
2 0 0 1 0 -1 1 1 0 -1 0 1 1 -1 1 1 
1 0 1 1 0 1 1 -1 1 0 1 -1 -1 0 2 0 
1 0 1 0 1 0 1 0 1 0 1 1 1 0 -1 0 
2 0 1 0 1 1 1 -1 0 1 1 -1 -1 0 2 0 
1 0 -1 0 2 0 0 1 1 -1 1 1 1 1 1 0 
1 1 1 0 1 0 0 -1 0 1 1 -1 0 1 1 -1 
0 0 2 0 1 1 1 0 1 1 1 1 1 0 -1 0 
2 2 1 0 1 0 1 1 0 -1 1 1 1 0 -1 0 
2 0 1 1 1 1 1 1 1 1 0 1 0 -1 1 1 
0 -1 1 1 1 0 1 0 -1 0 2 0 1 1 1 1 
1 1 1 1 1 1 1 -1 0 1 1 -1 0 1 0 -1 
1 1 1 0 1 0 -1 0 2 0 1 1 1 0 1 1 
1 1 1 1 1 1 1 1 1 0 1 0 0 0 2 0 
1 1 1 0 1 1 1 0 1 1 0 1 0 -1 1 1 
1 1 1 1 1 1 1 0 1 0 1 1 0 1 1 -1 
1 1 1 0 1 1 1 0 0 1 0 -1 1 1 1 1 
1 0 1 1 1 1 0 1 2 2 1 1 0 0 2 0 
1 1 0 2 1 -1 1 1 1 0 0 1 0 -1 1 1 
1 1 0 -1 0 1 2 0 1 1 1 1 1 1 1 1 
1 1 1 1 0 1 2 2 0 1 1 1 0 1 2 2 
1 0 -1 0 2 2 0 1 0 -1 1 1 1 0 0 1 
0 -1 1 1 1 1 1 0 1 1 0 1 0 -1 1 1 
1 1 1 0 1 1 1 1 0 1 0 -1 1 1 1 1 
1 1 0 1 1 -1 0 1 1 1 1 0 -1 0 2 2 
1 1 1 1 1 1 0 1 0 -1 1 1 0 1 1 1 
0 -1 0 1 1 1 0 -1 0 1 1 1 1 1 0 1 
2 2 1 1 0 1 2 2 0 1 2 2 0 1 2 2 
0 1 2 2 0 1 2192 3243 300 MP stroke
1 1 1 1 0 2 2 2 0 1 2 2 0 1 1 1 
1 1 0 2 2 2 0 1 1 1 1 1 0 2 2 2 
0 1 2 2 0 1 1 1 1 1 1 1 0 1 2 2 
1 1 0 2 1 1 0 1 1 1 1 0 0 2 1 1 
0 1 1 1 0 2 1 1 0 2 2 2 0 2 2 2 
0 2 1 1 0 2 2 2 0 1 1 1 0 1 2 2 
0 1 1 1 0 2 1 1 1 1 1 1 0 2 1 1 
0 2 1 1 1 1 0 1 1 1 0 2 2 2 0 1 
1 1 0 1 1 1 0 2 1 1 1 1 0 2 1 1 
0 1 1 1 1 1 0 2 1 1 1 1 1 1 0 1 
2 2 0 1 1 1 0 1 2 2 0 1 1 1 1 1 
0 2 2 2 0 1 2 2 0 -1 1 1 0 2 1 1 
1 1 1 1 0 2 2 2 0 1 2 2 1 1 0 2 
1 1 0 1 2 2 1 1 0 1 0 -1 1 1 0 1 
2 2 1 1 1 1 0 1 1 1 1 1 1 1 1 1 
0 1 2 2 1 1 0 1 2 2 0 1 1 1 0 -1 
0 1 1 1 0 1 2 2 0 1 1 1 1 1 1 1 
0 2 1 1 1 1 0 2 2 2 0 1 1 1 1 1 
0 1 2 2 1 1 1 1 0 2 2 2 0 1 2 2 
1 1 0 1 1 1 1 1 0 1 1 1 0 2 2 2 
1 1 0 1 2 2 0 1 1 1 1 0 0 2 1 1 
0 -1 0 1 2 2 0 1 2 2 1 1 1 1 0 2 
2 2 1 0 -1 0 2 2 1 1 0 2 1 1 0 1 
1 1 1 1 0 1 1 1 1 1 1 1 0 1 2 2 
0 2 2 0 0 1 1 1 0 1 2 2 1 1 0 2 
2 2 1 1 0 1 2 2 0 1 2 2 0 -1 0 1 
1 1 1 1 0 1 1 1 0 1 2 2 0 1 2 2 
1 1 1 1 0 2 2 2 0 1 2 2 1 1 0 1 
2 2 0 2 2 2 1 1 0 1 2 2 1 1 1 1 
1 1 0 2 1 1 0 1 1 1 1 0 -1 0 2 2 
0 1 1 1 0 1 1 1 0 -1 0 1 1 1 1 1 
0 1 1 1 1 1 0 1 1 1 0 1 1 1 1 1 
1 1 0 1 2 2 0 1 1 1 1 1 0 1 1 1 
0 1 2 2 0 1 2 2 1 2 1 1 0 1 1 1 
0 1 2 2 0 1 1 1 0 1 2 2 0 1 1 1 
1 1 0 2 1 -1 0 1 1 1 0 1 1 1 0 1 
1 1 0 1 1 1 1 1 0 1 2 2 0 1 2 2 
0 1 1 1 1 1 1962 2878 300 MP stroke
0 2 1 1 0 1 1 1 1 1 0 1 1 1 1 1 
0 1 1 1 0 1 1 1 1 1 0 1 1 1 0 1 
2 2 0 1 1 1 0 1 2 2 1 1 0 3 2 2 
0 1 2 2 0 1 0 -1 1 1 0 1 1 1 0 1 
1 1 0 1 0 -1 1 1 1 1 0 2 2 2 0 1 
2 2 0 2 2 2 1 1 0 1 2 2 0 1 1 1 
0 1 2 2 1 1 0 1 2 2 0 1 1 1 0 2 
2 2 1 1 0 2 2 2 0 2 1 1 0 1 2 2 
0 2 2 2 1 1 0 2 1 -1 0 1 1 1 0 1 
1 1 1 0 -1 0 2 2 0 2 1 1 1 1 0 2 
1 1 1 1 0 1 2 2 1 1 0 2 2 2 0 1 
1 1 0 2 1 1 1 1 0 1 1 1 0 -1 0 1 
2 2 1 1 1 1 0 2 0 -1 1 1 0 1 2 2 
0 1 2 2 0 1 1 1 1 1 0 1 1 1 0 1 
1 1 1 1 0 2 1 1 1 1 0 2 1 1 0 1 
0 -1 1 1 0 1 1 1 0 1 1 1 1 1 1 1 
1 1 1 1 0 2 1 1 0 1 2 2 0 2 1 1 
0 1 1 1 0 1 1 1 1 1 0 1 1 1 0 1 
1 1 1 1 0 2 2 2 0 1 2 2 0 1 2 2 
1 0 0 2 1 1 0 2 2 2 0 2 2 2 0 1 
1 1 0 1 1 1 1 1 0 1 0 -1 1 1 1 1 
0 2 1 1 0 2 2 2 0 1 1 1 1 1 0 1 
1 1 1 1 1 1 0 2 2 2 0 2 2 2 1 1 
1 1 0 2 2 2 0 2 2 2 1 1 0 1 1 1 
0 2 2 2 1 1 0 2 1 1 1 1 0 2 2 2 
1 1 0 3 2 2 0 1 1 1 0 1 1 1 1 1 
0 2 2 2 1 1 0 2 1 1 0 1 2 2 1 1 
0 2 2 2 1 1 0 2 1 1 0 1 1 1 0 1 
1 1 1 1 0 2 1 1 0 1 1 1 1 1 1 1 
0 1 1 1 0 1 1 1 0 2 1 1 1 1 0 1 
1 1 0 1 1 1 0 2 2 2 1 1 0 2 2 2 
0 2 1 0 0 1 2 2 0 1 1 1 0 1 1 1 
0 1 1 1 0 1 2 2 0 1 1 1 0 1 1 1 
1 1 0 2 2 2 0 1 2 2 1 1 0 2 1 1 
0 1 2 2 0 1 1 1 0 2 1 1 0 1 1 1 
0 1 2 2 0 2 2 2 0 1 1 1 1 1 0 1 
1 1 0 2 2 2 0 2 1 1 0 1 1 1 1 1 
0 2 2 2 0 1 1744 2499 300 MP stroke
1 1 0 2 2 2 0 2 1 1 1 1 0 1 1 1 
0 2 2 2 0 1 1 1 1 1 0 3 2 2 1 1 
0 1 1 1 0 1 1 1 0 2 1 1 0 1 1 1 
1 0 0 2 2 2 1 1 0 2 2 2 0 2 1 1 
1 1 0 2 1 1 0 2 1 1 0 1 1 1 1 1 
1 1 0 3 2 2 1 1 0 2 1 1 0 1 1 1 
0 1 1 1 0 2 1 1 0 2 2 2 1 1 1 1 
0 3 2 2 0 2 1 1 1 1 0 2 2 2 0 1 
1 1 0 2 1 1 0 1 1 1 1 1 0 1 2 3 
1 1 0 2 2 2 0 2 1 1 1 1 0 2 2 2 
0 2 1 1 1 1 0 2 2 2 1 1 0 2 1 1 
0 2 1 1 1 0 0 2 2 2 0 2 1 1 0 2 
2 2 0 1 1 1 1 1 0 2 1 2 0 1 1 1 
1 1 0 2 1 1 0 1 2 2 0 3 2 2 0 1 
1 1 0 1 2 2 0 2 1 1 0 2 2 2 0 1 
1 1 0 3 2 2 1 1 0 3 2 2 0 1 1 1 
0 2 2 2 1 1 0 2 1 1 0 2 2 2 0 2 
2 2 1 1 0 2 1 2 0 1 1 1 1 1 0 2 
1 1 1 1 0 1 1 1 0 2 1 1 1 1 0 2 
2 2 0 1 1 1 0 2 2 2 0 1 1 1 0 2 
1 1 0 1 1 1 0 2 1 1 0 1 1 1 0 1 
1 1 0 1 1 1 1 1 0 1 0 -1 1 3 0 2 
1 1 0 1 1 1 0 2 2 2 0 2 1 1 0 1 
1 2 0 1 1 1 1 1 0 2 1 1 0 1 1 1 
0 1 1 1 0 1 1 1 1 1 0 2 1 2 1 1 
0 1 1 1 0 2 1 1 1 1 0 2 1 2 0 1 
2 2 0 2 1 1 1 1 0 3 1 1 0 1 2 2 
0 2 1 1 1 1 0 2 1 1 1 1 0 2 1 1 
0 1 1 1 0 1 1 1 0 2 1 1 0 1 1 1 
0 2 1 1 1 1 0 2 2 2 0 2 1 1 0 1 
1 1 0 1 1 1 0 2 1 1 1 1 0 3 2 2 
0 1 1 1 0 2 1 1 1 1 0 3 1 1 1 1 
0 2 2 2 0 3 2 2 0 1 1 1 0 2 1 1 
1 1 0 2 1 1 0 1 1 1 0 1 1 2 1 1 
0 2 2 2 0 2 2 2 0 2 2 2 0 2 1 1 
0 2 1 1 1 0 0 2 1 2 1 0 0 2 1 2 
1 1 0 2 1 1 1 1 0 2 1 1 0 1 1 1 
0 1 1 1 1 1 1536 2070 300 MP stroke
0 3 2 2 0 2 1 1 0 2 1 1 0 1 2 2 
1 1 0 2 1 1 0 2 2 2 0 2 1 1 1 1 
0 1 0 -1 1 3 0 2 1 1 1 1 0 2 1 1 
0 1 2 2 0 3 2 2 0 2 1 1 1 1 0 3 
2 2 0 3 2 2 0 1 1 1 0 2 1 1 0 1 
1 1 1 1 0 2 2 2 0 2 2 2 0 2 1 1 
1 1 0 2 1 1 1 0 0 3 1 1 1 0 0 2 
1 1 0 1 2 2 0 2 1 1 1 1 0 2 1 1 
1 1 0 2 1 1 1 1 0 2 1 1 0 1 1 1 
0 1 1 1 0 2 1 1 0 1 1 1 0 1 2 2 
0 2 2 2 0 2 1 1 1 1 0 2 1 1 1 1 
0 2 1 1 0 2 2 2 0 1 1 1 1 1 0 2 
1 1 0 2 2 2 0 1 0 -1 1 3 1 1 0 2 
1 1 1 1 0 2 1 1 1 0 -1 0 2 2 0 3 
1 1 1 1 0 2 1 1 0 1 2 2 0 3 2 2 
0 2 2 2 0 1 1 1 0 1 1 1 0 1 1 1 
0 2 2 2 0 1 1 1 0 1 1 1 0 1 1 1 
0 2 2 2 0 1 1 1 0 2 2 2 0 1 0 -1 
1 3 1 1 0 1 1 1 0 1 1 1 0 1 1 1 
0 1 1 1 1 1 0 1 1 1 0 1 1 1 1 1 
0 2 1 1 0 1 1 1 1 1 0 3 2 2 0 1 
1 1 1 1 1 1 0 2 1 1 1 1 1 1 0 3 
1 1 1 1 0 1 1 1 0 1 1 1 1 1 0 2 
1 1 0 1 1 1 1 1 0 2 1 2 1 0 -1 0 
2 2 0 1 1 1 0 2 1 0 0 2 1 1 0 1 
1 1 1 0 -1 0 2 2 0 2 1 1 1 1 0 2 
2 2 1 1 0 2 1 1 0 1 1 1 1 1 0 2 
1 1 1 1 1 1 0 2 1 1 0 1 2 2 0 2 
1 1 1 1 0 1 2 2 0 1 1 1 1 1 0 2 
2 2 1 1 0 2 2 2 1 1 0 1 1 1 0 1 
1 1 0 1 2 2 0 1 1 1 0 1 1 1 1 1 
0 2 1 1 1 1 1 1 0 2 1 1 1 0 1 1 
0 1 1 1 0 2 1 1 1 0 1 1 0 2 1 1 
1 1 1 1 0 1 1 1 0 1 1 1 1 0 -1 0 
2 2 0 1 1 1 1 0 0 1 2 2 0 1 1 1 
1 0 1 1 0 2 1 1 0 1 1 1 1 1 1 1 
0 2 1 1 1 0 1 1 0 2 1 1 1 1 1 0 
-1 0 2 2 0 2 1331 1682 300 MP stroke
1 1 1 -1 0 1 2 2 0 2 1 1 1 0 1 1 
0 1 1 1 0 2 1 -1 1 0 -1 0 2 2 0 1 
1 1 1 1 1 0 1 1 0 2 1 1 0 1 1 -1 
1 1 1 1 0 2 2 2 1 1 1 1 0 2 1 1 
1 -1 1 0 -1 0 2 2 0 1 1 1 0 1 1 -1 
1 1 1 1 0 1 1 1 1 1 1 0 1 1 0 1 
1 1 0 1 1 1 1 0 0 1 2 2 0 1 1 1 
1 -1 0 1 2 2 0 1 1 1 1 -1 1 0 1 1 
0 2 2 2 1 0 1 1 1 1 0 2 1 1 1 0 
1 0 -1 0 2 2 0 1 1 1 0 1 1 -1 1 0 
1 1 0 1 1 1 1 1 1 -1 1 0 1 1 0 2 
2 2 1 -1 1 1 1 1 0 2 1 1 1 1 1 -1 
0 1 2 2 0 1 1 1 1 -1 1 0 0 1 2 2 
0 2 1 -1 1 0 1 0 1 1 0 1 1 1 1 1 
1 -1 1 0 0 1 2 2 0 1 1 1 1 0 1 0 
1 1 0 1 1 1 0 2 1 -1 1 -1 1 1 1 0 
-1 0 2 2 0 2 1 -1 1 -1 1 0 0 1 2 2 
0 2 1 -1 1 0 1 -1 1 1 1 1 0 2 1 1 
1 0 1 -1 1 1 1 1 0 1 1 1 0 1 1 -1 
1 -1 1 0 0 1 2 2 1 1 -1 0 2 -2 1 0 
1 0 0 1 2 2 0 1 1 -1 1 0 1 -1 1 1 
1 1 0 2 2 0 1 0 1 0 1 1 0 1 1 1 
0 1 1 -1 1 -1 1 0 1 0 0 1 2 2 1 -1 
1 -1 1 -1 1 1 1 1 0 1 1 1 1 -1 1 -1 
1 0 1 0 1 1 0 1 1 1 0 1 1 -1 1 -1 
1 0 1 0 0 1 2 2 0 -1 1 -1 1 -1 1 -1 
1 1 1 1 0 1 1 1 0 -1 1 -1 1 -1 1 -1 
1 0 1 1 1 1 0 1 1 -1 1 -1 1 -1 1 0 
1 0 -1 0 2 2 0 2 1 -1 1 -1 1 -1 1 0 
1 0 -1 0 2 2 1 1 -1 0 2 -2 1 -1 1 0 
1 0 1 1 0 2 1 -1 1 -1 1 -1 1 -1 1 0 
0 1 2 2 1 -1 1 -1 1 -1 1 0 1 1 0 1 
1 1 0 1 1 -1 1 -1 1 -1 1 0 0 1 2 2 
1 -1 1 -1 1 -1 1 0 1 0 -1 0 2 2 0 1 
0 -1 2 -2 1 -1 1 0 1 0 0 1 2 2 0 -2 
2 -2 1 0 1 0 1 1 1 1 0 2 1 -1 1 -1 
1 -1 1 0 0 1 2 2 0 1 0 -1 2 -2 1 0 
1 0 1 1 1 1 1088 1557 300 MP stroke
0 1 1 -1 1 -1 1 -1 1 0 1 1 0 1 2 2 
1 -1 1 -1 1 0 1 1 1 1 0 1 1 1 1 -1 
1 0 1 0 1 0 0 2 2 2 1 -1 1 -1 1 0 
0 1 2 2 1 1 -1 0 2 -2 1 0 1 -1 1 1 
1 1 0 2 1 1 1 -1 1 -1 1 0 1 1 0 1 
2 2 0 2 1 -1 1 0 1 0 1 1 1 1 0 2 
1 1 0 1 1 -1 1 -1 1 1 1 1 1 1 0 2 
1 1 1 -1 1 0 1 0 1 1 1 1 0 2 2 2 
1 -1 1 1 1 1 1 1 0 2 1 1 1 1 1 0 
1 0 1 1 0 1 1 1 0 2 2 2 1 0 1 0 
1 1 0 1 1 1 0 1 1 1 0 1 1 1 1 0 
1 0 1 1 1 1 0 1 1 1 0 2 1 1 0 1 
1 -1 1 0 1 1 1 1 1 1 0 2 1 1 0 3 
1 1 1 0 1 1 1 1 0 1 1 1 0 1 1 1 
0 2 1 1 1 1 1 0 0 1 2 2 0 1 1 1 
0 2 1 1 0 2 1 1 1 0 1 1 1 1 0 1 
2 2 0 3 1 1 0 3 1 1 1 1 1 1 1 1 
0 1 1 1 0 2 1 1 0 2 1 1 0 3 1 2 
1 0 1 1 0 2 2 2 0 2 1 1 0 2 1 1 
0 3 1 1 1 1 1 0 0 2 2 2 0 2 1 1 
0 2 1 1 0 3 1 1 0 2 1 1 1 0 -1 0 
2 2 0 1 1 1 0 1 1 1 0 2 1 1 0 2 
1 1 0 3 1 1 0 3 1 1 1 0 -1 0 2 2 
1 1 0 2 1 1 0 2 1 1 0 2 1 1 0 3 
1 1 0 3 1 1 0 4 1 1 0 1 2 2 0 1 
1 1 0 1 1 1 0 3 1 1 0 3 1 1 0 2 
1 2 0 4 1 1 0 2 2 2 0 1 1 1 1 1 
0 2 1 1 0 2 1 1 0 2 1 1 0 3 1 1 
0 3 1 1 0 4 1 1 0 2 1 0 0 1 2 2 
0 1 2 2 1 1 0 2 1 1 0 2 1 1 0 1 
1 1 0 2 1 1 0 2 1 1 0 3 1 1 0 4 
1 1 0 1 0 -1 1 3 1 0 1 1 1 0 1 1 
1 0 1 1 1 0 1 1 1 1 1 0 1 1 1 0 
1 1 1 1 1 0 1 1 1 1 1 1 1 0 1 1 
1 1 1 1 1 1 1 1 1 0 -1 0 2 2 1 0 
0 1 2 2 1 1 1 1 1 1 1 1 1 1 0 1 
2 2 1 1 0 1 2 2 1 1 1 1 1 1 0 2 
2 2 1 1 0 1 865 1233 300 MP stroke
2 2 0 1 2 2 0 1 2 2 1 1 0 2 2 2 
0 1 2 2 0 1 2 2 1 1 0 1 2 2 1 1 
0 1 2 2 1 1 1 1 1 0 1 1 1 1 1 0 
1 0 1 0 1 0 1 -1 1 0 -1 0 2 -2 1 -1 
0 -1 1 -1 0 -1 1 1 0 1 1 1 0 1 1 1 
0 1 1 1 0 1 1 1 0 2 2 2 0 2 2 2 
0 1 1 1 0 1 1 1 1 1 0 2 2 2 0 1 
2 2 1 1 1 1 1 1 1 1 1 1 1 0 1 0 
1 0 1 -1 1 -1 1 -1 0 -1 1 -1 0 -1 1 -1 
0 -1 1 1 1 1 1 1 1 1 1 1 1 1 1 1 
1 0 1 0 1 0 1 -1 1 -1 1 -1 0 -2 2 -2 
0 -2 1 -1 1 1 1 1 1 1 1 0 1 1 1 0 
1 0 1 -1 1 -1 0 -1 2 -2 1 -1 0 -2 1 -1 
1 1 0 1 2 2 1 1 1 1 1 0 1 1 1 0 
1 1 1 -1 1 0 1 -1 0 -1 2 -2 0 -1 1 -1 
0 -1 1 -1 0 -1 0 1 2 2 1 1 1 1 1 1 
1 1 1 0 1 1 1 0 1 0 1 -1 1 -1 0 -1 
2 -2 1 -1 0 -2 1 -1 0 -2 1 1 1 1 1 1 
1 1 1 1 1 0 1 1 1 0 1 0 1 -1 1 -1 
1 0 0 -2 2 -2 0 -1 1 -1 0 -1 1 -1 1 1 
1 1 1 1 1 1 1 1 1 1 1 0 1 1 1 0 
1 -1 1 0 1 -1 1 -1 1 -1 0 -2 1 -1 0 -1 
1 -1 0 -1 1 1 1 1 0 1 2 2 1 1 1 1 
1 0 1 1 1 1 1 0 1 0 699 1194 190 MP stroke
DA
1 -3 70 0 69 -1 70 -2 69 -4 70 -6 69 -8 70 -12 
69 -14 69 -18 70 -22 69 -25 70 -30 69 -35 70 -39 69 -43 
69 -49 70 -53 69 -58 70 -62 69 -67 70 -70 69 -75 69 -77 
70 -80 69 -82 70 -84 69 -83 70 -82 69 -81 69 -76 70 -72 
69 -64 70 -56 69 -44 70 -31 69 -15 70 4 69 27 69 50 
70 78 69 86 70 86 69 86 70 87 69 86 69 86 70 86 
69 86 70 87 69 86 70 86 69 86 69 86 70 86 69 86 
70 86 69 91 70 94 69 75 69 19 699 1288 62 MP stroke
gr

24 w
c9
DA
0 sg
2761  207 mt 
(r) s
 682 3632 mt 
( ) s
4849  344 mt 
( ) s
SO
6 w
1 sg
0 738 2326 0 0 -738 758 1100 4 MP
PP
-2326 0 0 738 2326 0 0 -738 758 1100 5 MP stroke
4 w
DO
SO
6 w
0 sg
 758 1100 mt 3084 1100 L
 758  362 mt 3084  362 L
 758 1100 mt  758  362 L
3084 1100 mt 3084  362 L
 758 1100 mt 3084 1100 L
 758 1100 mt  758  362 L
 758 1100 mt 3084 1100 L
 758  362 mt 3084  362 L
 758 1100 mt  758  362 L
3084 1100 mt 3084  362 L
%%IncludeResource: font Helvetica
/Helvetica /ISOLatin1Encoding 144 FMSR

1268  524 mt 
(after tuning, measured) s
gs 758 362 2327 739 rc
24 w
c8
392 0 836 472 2 MP stroke
gr

24 w
c8
0 sg
1268  696 mt 
(after adjustment, predicted) s
gs 758 362 2327 739 rc
DA
c8
392 0 836 644 2 MP stroke
SO
gr

c8
0 sg
1268  869 mt 
(before tuning, measured) s
gs 758 362 2327 739 rc
c9
392 0 836 817 2 MP stroke
gr

c9
0 sg
1268 1041 mt 
(before adjustment, predicted) s
gs 758 362 2327 739 rc
DA
c9
392 0 836 989 2 MP stroke
SO
6 w
gr

6 w
c9

end %%Color Dict

eplot
%%EndObject

epage
end

showpage

%%Trailer
%%EOF
