%!PS-Adobe-3.0 EPSF-3.0
%%Creator: MATLAB, The Mathworks, Inc. Version 7.10.0.499 (R2010a). Operating System: Microsoft Windows 7.
%%Title: Z:\optregheli\optreg-helikopter\matlab\fig\quadprogq10.eps
%%CreationDate: 03/08/2013  18:36:48
%%DocumentNeededFonts: Helvetica
%%DocumentProcessColors: Cyan Magenta Yellow Black
%%LanguageLevel: 2
%%Pages: 1
%%BoundingBox:   -56    64   652   776
%%EndComments

%%BeginProlog
% MathWorks dictionary
/MathWorks 160 dict begin
% definition operators
/bdef {bind def} bind def
/ldef {load def} bind def
/xdef {exch def} bdef
/xstore {exch store} bdef
% operator abbreviations
/c  /clip ldef
/cc /concat ldef
/cp /closepath ldef
/gr /grestore ldef
/gs /gsave ldef
/mt /moveto ldef
/np /newpath ldef
/cm /currentmatrix ldef
/sm /setmatrix ldef
/rm /rmoveto ldef
/rl /rlineto ldef
/s {show newpath} bdef
/sc {setcmykcolor} bdef
/sr /setrgbcolor ldef
/sg /setgray ldef
/w /setlinewidth ldef
/j /setlinejoin ldef
/cap /setlinecap ldef
/rc {rectclip} bdef
/rf {rectfill} bdef
% page state control
/pgsv () def
/bpage {/pgsv save def} bdef
/epage {pgsv restore} bdef
/bplot /gsave ldef
/eplot {stroke grestore} bdef
% orientation switch
/portraitMode 0 def /landscapeMode 1 def /rotateMode 2 def
% coordinate system mappings
/dpi2point 0 def
% font control
/FontSize 0 def
/FMS {/FontSize xstore findfont [FontSize 0 0 FontSize neg 0 0]
  makefont setfont} bdef
/ISOLatin1Encoding where {pop /WindowsLatin1Encoding 256 array bdef
ISOLatin1Encoding WindowsLatin1Encoding copy pop
/.notdef/.notdef/quotesinglbase/florin/quotedblbase/ellipsis/dagger
/daggerdbl/circumflex/perthousand/Scaron/guilsinglleft/OE/.notdef/.notdef
/.notdef/.notdef/quoteleft/quoteright/quotedblleft/quotedblright/bullet
/endash/emdash/tilde/trademark/scaron/guilsinglright/oe/.notdef/.notdef
/Ydieresis WindowsLatin1Encoding 128 32 getinterval astore pop}
{/WindowsLatin1Encoding StandardEncoding bdef} ifelse
/reencode {exch dup where {pop load} {pop StandardEncoding} ifelse
  exch dup 3 1 roll findfont dup length dict begin
  { 1 index /FID ne {def}{pop pop} ifelse } forall
  /Encoding exch def currentdict end definefont pop} bdef
/isroman {findfont /CharStrings get /Agrave known} bdef
/FMSR {3 1 roll 1 index dup isroman {reencode} {pop pop} ifelse
  exch FMS} bdef
/csm {1 dpi2point div -1 dpi2point div scale neg translate
 dup landscapeMode eq {pop -90 rotate}
  {rotateMode eq {90 rotate} if} ifelse} bdef
% line types: solid, dotted, dashed, dotdash
/SO { [] 0 setdash } bdef
/DO { [.5 dpi2point mul 4 dpi2point mul] 0 setdash } bdef
/DA { [6 dpi2point mul] 0 setdash } bdef
/DD { [.5 dpi2point mul 4 dpi2point mul 6 dpi2point mul 4
  dpi2point mul] 0 setdash } bdef
% macros for lines and objects
/L {lineto stroke} bdef
/MP {3 1 roll moveto 1 sub {rlineto} repeat} bdef
/AP {{rlineto} repeat} bdef
/PDlw -1 def
/W {/PDlw currentlinewidth def setlinewidth} def
/PP {closepath eofill} bdef
/DP {closepath stroke} bdef
/MR {4 -2 roll moveto dup  0 exch rlineto exch 0 rlineto
  neg 0 exch rlineto closepath} bdef
/FR {MR stroke} bdef
/PR {MR fill} bdef
/L1i {{currentfile picstr readhexstring pop} image} bdef
/tMatrix matrix def
/MakeOval {newpath tMatrix currentmatrix pop translate scale
0 0 1 0 360 arc tMatrix setmatrix} bdef
/FO {MakeOval stroke} bdef
/PO {MakeOval fill} bdef
/PD {currentlinewidth 2 div 0 360 arc fill
   PDlw -1 eq not {PDlw w /PDlw -1 def} if} def
/FA {newpath tMatrix currentmatrix pop translate scale
  0 0 1 5 -2 roll arc tMatrix setmatrix stroke} bdef
/PA {newpath tMatrix currentmatrix pop	translate 0 0 moveto scale
  0 0 1 5 -2 roll arc closepath tMatrix setmatrix fill} bdef
/FAn {newpath tMatrix currentmatrix pop translate scale
  0 0 1 5 -2 roll arcn tMatrix setmatrix stroke} bdef
/PAn {newpath tMatrix currentmatrix pop translate 0 0 moveto scale
  0 0 1 5 -2 roll arcn closepath tMatrix setmatrix fill} bdef
/vradius 0 def /hradius 0 def /lry 0 def
/lrx 0 def /uly 0 def /ulx 0 def /rad 0 def
/MRR {/vradius xdef /hradius xdef /lry xdef /lrx xdef /uly xdef
  /ulx xdef newpath tMatrix currentmatrix pop ulx hradius add uly
  vradius add translate hradius vradius scale 0 0 1 180 270 arc 
  tMatrix setmatrix lrx hradius sub uly vradius add translate
  hradius vradius scale 0 0 1 270 360 arc tMatrix setmatrix
  lrx hradius sub lry vradius sub translate hradius vradius scale
  0 0 1 0 90 arc tMatrix setmatrix ulx hradius add lry vradius sub
  translate hradius vradius scale 0 0 1 90 180 arc tMatrix setmatrix
  closepath} bdef
/FRR {MRR stroke } bdef
/PRR {MRR fill } bdef
/MlrRR {/lry xdef /lrx xdef /uly xdef /ulx xdef /rad lry uly sub 2 div def
  newpath tMatrix currentmatrix pop ulx rad add uly rad add translate
  rad rad scale 0 0 1 90 270 arc tMatrix setmatrix lrx rad sub lry rad
  sub translate rad rad scale 0 0 1 270 90 arc tMatrix setmatrix
  closepath} bdef
/FlrRR {MlrRR stroke } bdef
/PlrRR {MlrRR fill } bdef
/MtbRR {/lry xdef /lrx xdef /uly xdef /ulx xdef /rad lrx ulx sub 2 div def
  newpath tMatrix currentmatrix pop ulx rad add uly rad add translate
  rad rad scale 0 0 1 180 360 arc tMatrix setmatrix lrx rad sub lry rad
  sub translate rad rad scale 0 0 1 0 180 arc tMatrix setmatrix
  closepath} bdef
/FtbRR {MtbRR stroke } bdef
/PtbRR {MtbRR fill } bdef
/stri 6 array def /dtri 6 array def
/smat 6 array def /dmat 6 array def
/tmat1 6 array def /tmat2 6 array def /dif 3 array def
/asub {/ind2 exch def /ind1 exch def dup dup
  ind1 get exch ind2 get sub exch } bdef
/tri_to_matrix {
  2 0 asub 3 1 asub 4 0 asub 5 1 asub
  dup 0 get exch 1 get 7 -1 roll astore } bdef
/compute_transform {
  dmat dtri tri_to_matrix tmat1 invertmatrix 
  smat stri tri_to_matrix tmat2 concatmatrix } bdef
/ds {stri astore pop} bdef
/dt {dtri astore pop} bdef
/db {2 copy /cols xdef /rows xdef mul dup 3 mul string
  currentfile 
  3 index 0 eq {/ASCIIHexDecode filter}
  {/ASCII85Decode filter 3 index 2 eq {/RunLengthDecode filter} if }
  ifelse exch readstring pop
  dup 0 3 index getinterval /rbmap xdef
  dup 2 index dup getinterval /gbmap xdef
  1 index dup 2 mul exch getinterval /bbmap xdef pop pop}bdef
/it {gs np dtri aload pop moveto lineto lineto cp c
  cols rows 8 compute_transform 
  rbmap gbmap bbmap true 3 colorimage gr}bdef
/il {newpath moveto lineto stroke}bdef
currentdict end def
%%EndProlog

%%BeginSetup
MathWorks begin

0 cap

end
%%EndSetup

%%Page: 1 1
%%BeginPageSetup
%%PageBoundingBox:   -56    64   652   776
MathWorks begin
bpage
%%EndPageSetup

%%BeginObject: obj1
bplot

/dpi2point 12 def
portraitMode -0672 9312 csm

    0     0  8502  8536 rc
86 dict begin %Colortable dictionary
/c0 { 0.000000 0.000000 0.000000 sr} bdef
/c1 { 1.000000 1.000000 1.000000 sr} bdef
/c2 { 0.900000 0.000000 0.000000 sr} bdef
/c3 { 0.000000 0.820000 0.000000 sr} bdef
/c4 { 0.000000 0.000000 0.800000 sr} bdef
/c5 { 0.910000 0.820000 0.320000 sr} bdef
/c6 { 1.000000 0.260000 0.820000 sr} bdef
/c7 { 0.000000 0.820000 0.820000 sr} bdef
c0
1 j
1 sg
   0    0 8503 8537 rf
6 w
0 1010 6589 0 0 -1010 1105 1650 4 MP
PP
-6589 0 0 1010 6589 0 0 -1010 1105 1650 5 MP stroke
4 w
DO
0 sg
1105 1650 mt 1105  640 L
1105  640 mt 1105  640 L
3301 1650 mt 3301  640 L
3301  640 mt 3301  640 L
5497 1650 mt 5497  640 L
5497  640 mt 5497  640 L
7694 1650 mt 7694  640 L
7694  640 mt 7694  640 L
1105 1650 mt 7694 1650 L
7694 1650 mt 7694 1650 L
1105 1313 mt 7694 1313 L
7694 1313 mt 7694 1313 L
1105  976 mt 7694  976 L
7694  976 mt 7694  976 L
1105  640 mt 7694  640 L
7694  640 mt 7694  640 L
SO
6 w
1105  640 mt 7694  640 L
1105 1650 mt 7694 1650 L
7694 1650 mt 7694  640 L
1105 1650 mt 1105  640 L
1105 1650 mt 7694 1650 L
1105 1650 mt 1105  640 L
1105 1650 mt 1105 1584 L
1105  640 mt 1105  705 L
%%IncludeResource: font Helvetica
/Helvetica /WindowsLatin1Encoding 120 FMSR

1072 1795 mt 
(0) s
3301 1650 mt 3301 1584 L
3301  640 mt 3301  705 L
3268 1795 mt 
(5) s
5497 1650 mt 5497 1584 L
5497  640 mt 5497  705 L
5431 1795 mt 
(10) s
7694 1650 mt 7694 1584 L
7694  640 mt 7694  705 L
7628 1795 mt 
(15) s
1105 1650 mt 1170 1650 L
7694 1650 mt 7628 1650 L
 834 1694 mt 
(-0.5) s
1105 1313 mt 1170 1313 L
7694 1313 mt 7628 1313 L
1004 1357 mt 
(0) s
1105  976 mt 1170  976 L
7694  976 mt 7628  976 L
 904 1020 mt 
(0.5) s
1105  640 mt 1170  640 L
7694  640 mt 7628  640 L
1004  684 mt 
(1) s
1105  640 mt 7694  640 L
1105 1650 mt 7694 1650 L
7694 1650 mt 7694  640 L
1105 1650 mt 1105  640 L
gs 1105 640 6590 1011 rc
/c8 { 0.000000 0.000000 1.000000 sr} bdef
c8
110 0 110 0 0 -1 110 0 0 -1 110 0 0 -1 110 0 
0 -2 109 0 0 -1 110 0 0 -2 110 0 0 -3 110 0 
0 -2 110 0 0 -2 109 0 0 -3 110 0 0 -3 110 0 
0 -2 110 0 0 -3 110 0 0 -3 110 0 0 -2 109 0 
0 -3 110 0 0 -2 110 0 0 -2 110 0 0 -2 110 0 
0 -2 109 0 0 -2 110 0 0 -1 110 0 0 -1 110 0 
110 0 0 -1 110 0 0 1 109 0 110 0 0 2 110 0 
0 1 110 0 0 3 110 0 0 3 109 0 0 3 110 0 
0 5 110 0 0 5 110 0 0 6 110 0 0 6 110 0 
0 8 109 0 0 9 110 0 0 9 110 0 0 10 110 0 
0 12 110 0 0 12 109 0 0 14 110 0 0 15 110 0 
0 16 110 0 0 17 110 0 0 19 110 0 0 19 109 0 
0 22 110 0 0 21 110 0 0 26 110 0 0 22 110 0 
0 33 109 0 0 17 110 0 0 50 110 0 0 -22 110 0 
0 36 110 0 109 0 1105 960 116 MP stroke
gr

c8
0 sg
 752 1179 mt  -90 rotate
(u) s
90 rotate
1 sg
0 1010 6589 0 0 -1010 1105 3124 4 MP
PP
-6589 0 0 1010 6589 0 0 -1010 1105 3124 5 MP stroke
4 w
DO
0 sg
1105 3124 mt 1105 2114 L
1105 2114 mt 1105 2114 L
3301 3124 mt 3301 2114 L
3301 2114 mt 3301 2114 L
5497 3124 mt 5497 2114 L
5497 2114 mt 5497 2114 L
7694 3124 mt 7694 2114 L
7694 2114 mt 7694 2114 L
1105 3124 mt 7694 3124 L
7694 3124 mt 7694 3124 L
1105 2871 mt 7694 2871 L
7694 2871 mt 7694 2871 L
1105 2619 mt 7694 2619 L
7694 2619 mt 7694 2619 L
1105 2366 mt 7694 2366 L
7694 2366 mt 7694 2366 L
1105 2114 mt 7694 2114 L
7694 2114 mt 7694 2114 L
SO
6 w
1105 2114 mt 7694 2114 L
1105 3124 mt 7694 3124 L
7694 3124 mt 7694 2114 L
1105 3124 mt 1105 2114 L
1105 3124 mt 7694 3124 L
1105 3124 mt 1105 2114 L
1105 3124 mt 1105 3058 L
1105 2114 mt 1105 2179 L
1072 3269 mt 
(0) s
3301 3124 mt 3301 3058 L
3301 2114 mt 3301 2179 L
3268 3269 mt 
(5) s
5497 3124 mt 5497 3058 L
5497 2114 mt 5497 2179 L
5431 3269 mt 
(10) s
7694 3124 mt 7694 3058 L
7694 2114 mt 7694 2179 L
7628 3269 mt 
(15) s
1105 3124 mt 1170 3124 L
7694 3124 mt 7628 3124 L
1004 3168 mt 
(0) s
1105 2871 mt 1170 2871 L
7694 2871 mt 7628 2871 L
1004 2915 mt 
(1) s
1105 2619 mt 1170 2619 L
7694 2619 mt 7628 2619 L
1004 2663 mt 
(2) s
1105 2366 mt 1170 2366 L
7694 2366 mt 7628 2366 L
1004 2410 mt 
(3) s
1105 2114 mt 1170 2114 L
7694 2114 mt 7628 2114 L
1004 2158 mt 
(4) s
1105 2114 mt 7694 2114 L
1105 3124 mt 7694 3124 L
7694 3124 mt 7694 2114 L
1105 3124 mt 1105 2114 L
gs 1105 2114 6590 1011 rc
/c9 { 1.000000 0.000000 1.000000 sr} bdef
c9
110 10 110 11 110 10 110 10 110 10 109 10 110 10 110 11 
110 10 110 10 109 11 110 10 110 11 110 10 110 11 110 11 
109 11 110 11 110 12 110 11 110 12 109 11 110 12 110 13 
110 12 110 13 110 12 109 13 110 13 110 14 110 13 110 14 
109 14 110 14 110 14 110 14 110 14 110 14 109 15 110 14 
110 14 110 14 110 14 109 14 110 13 110 13 110 13 110 12 
110 12 109 11 110 10 110 10 110 8 110 8 109 6 110 6 
110 3 110 3 110 1 109 0 1105 2330 61 MP stroke
gr

c9
gs 1032 2257 6736 808 rc
  36   36 1105 2330 FO
  36   36 1214 2330 FO
  36   36 1324 2331 FO
  36   36 1434 2334 FO
  36   36 1544 2337 FO
  36   36 1654 2343 FO
  36   36 1763 2349 FO
  36   36 1873 2357 FO
  36   36 1983 2365 FO
  36   36 2093 2375 FO
  36   36 2203 2385 FO
  36   36 2312 2396 FO
  36   36 2422 2408 FO
  36   36 2532 2420 FO
  36   36 2642 2433 FO
  36   36 2752 2446 FO
  36   36 2862 2459 FO
  36   36 2971 2473 FO
  36   36 3081 2487 FO
  36   36 3191 2501 FO
  36   36 3301 2515 FO
  36   36 3411 2529 FO
  36   36 3520 2544 FO
  36   36 3630 2558 FO
  36   36 3740 2572 FO
  36   36 3850 2586 FO
  36   36 3960 2600 FO
  36   36 4070 2614 FO
  36   36 4179 2628 FO
  36   36 4289 2642 FO
  36   36 4399 2655 FO
  36   36 4509 2669 FO
  36   36 4619 2682 FO
  36   36 4728 2695 FO
  36   36 4838 2707 FO
  36   36 4948 2720 FO
  36   36 5058 2732 FO
  36   36 5168 2745 FO
  36   36 5278 2757 FO
  36   36 5387 2768 FO
  36   36 5497 2780 FO
  36   36 5607 2791 FO
  36   36 5717 2803 FO
  36   36 5827 2814 FO
  36   36 5936 2825 FO
  36   36 6046 2836 FO
  36   36 6156 2847 FO
  36   36 6266 2857 FO
  36   36 6376 2868 FO
  36   36 6486 2878 FO
  36   36 6595 2889 FO
  36   36 6705 2899 FO
  36   36 6815 2909 FO
  36   36 6925 2920 FO
  36   36 7035 2930 FO
  36   36 7144 2940 FO
  36   36 7254 2950 FO
  36   36 7364 2960 FO
  36   36 7474 2970 FO
  36   36 7584 2981 FO
  36   36 7694 2991 FO
gr

gs 1105 2114 6590 1011 rc
gr

0 sg
 922 2817 mt  -90 rotate
(lambda) s
90 rotate
1 sg
0 1010 6589 0 0 -1010 1105 4598 4 MP
PP
-6589 0 0 1010 6589 0 0 -1010 1105 4598 5 MP stroke
4 w
DO
0 sg
1105 4598 mt 1105 3588 L
1105 3588 mt 1105 3588 L
3301 4598 mt 3301 3588 L
3301 3588 mt 3301 3588 L
5497 4598 mt 5497 3588 L
5497 3588 mt 5497 3588 L
7694 4598 mt 7694 3588 L
7694 3588 mt 7694 3588 L
1105 4598 mt 7694 4598 L
7694 4598 mt 7694 4598 L
1105 4345 mt 7694 4345 L
7694 4345 mt 7694 4345 L
1105 4093 mt 7694 4093 L
7694 4093 mt 7694 4093 L
1105 3840 mt 7694 3840 L
7694 3840 mt 7694 3840 L
1105 3588 mt 7694 3588 L
7694 3588 mt 7694 3588 L
SO
6 w
1105 3588 mt 7694 3588 L
1105 4598 mt 7694 4598 L
7694 4598 mt 7694 3588 L
1105 4598 mt 1105 3588 L
1105 4598 mt 7694 4598 L
1105 4598 mt 1105 3588 L
1105 4598 mt 1105 4532 L
1105 3588 mt 1105 3653 L
1072 4743 mt 
(0) s
3301 4598 mt 3301 4532 L
3301 3588 mt 3301 3653 L
3268 4743 mt 
(5) s
5497 4598 mt 5497 4532 L
5497 3588 mt 5497 3653 L
5431 4743 mt 
(10) s
7694 4598 mt 7694 4532 L
7694 3588 mt 7694 3653 L
7628 4743 mt 
(15) s
1105 4598 mt 1170 4598 L
7694 4598 mt 7628 4598 L
 834 4642 mt 
(-0.4) s
1105 4345 mt 1170 4345 L
7694 4345 mt 7628 4345 L
 834 4389 mt 
(-0.3) s
1105 4093 mt 1170 4093 L
7694 4093 mt 7628 4093 L
 834 4137 mt 
(-0.2) s
1105 3840 mt 1170 3840 L
7694 3840 mt 7628 3840 L
 834 3884 mt 
(-0.1) s
1105 3588 mt 1170 3588 L
7694 3588 mt 7628 3588 L
1004 3632 mt 
(0) s
1105 3588 mt 7694 3588 L
1105 4598 mt 7694 4598 L
7694 4598 mt 7694 3588 L
1105 4598 mt 1105 3588 L
gs 1105 3588 6590 1011 rc
c9
110 0 110 0 110 -1 110 0 110 -1 109 -1 110 -1 110 -2 
110 -2 110 -2 109 -3 110 -4 110 -3 110 -4 110 -5 110 -5 
109 -6 110 -5 110 -7 110 -6 110 -7 109 -7 110 -8 110 -7 
110 -8 110 -7 110 -8 109 -7 110 -8 110 -7 110 -7 110 -6 
109 -6 110 -5 110 -4 110 -3 110 -2 110 -1 109 0 110 2 
110 4 110 5 110 7 109 10 110 12 110 14 110 18 110 20 
110 24 109 26 110 31 110 34 110 39 110 43 109 47 110 53 
110 56 110 63 110 49 109 13 1105 3588 61 MP stroke
gr

c9
gs 1032 3515 6736 717 rc
  36   36 1105 3588 FO
  36   36 1214 3601 FO
  36   36 1324 3650 FO
  36   36 1434 3713 FO
  36   36 1544 3769 FO
  36   36 1654 3822 FO
  36   36 1763 3869 FO
  36   36 1873 3912 FO
  36   36 1983 3951 FO
  36   36 2093 3985 FO
  36   36 2203 4016 FO
  36   36 2312 4042 FO
  36   36 2422 4066 FO
  36   36 2532 4086 FO
  36   36 2642 4104 FO
  36   36 2752 4118 FO
  36   36 2862 4130 FO
  36   36 2971 4140 FO
  36   36 3081 4147 FO
  36   36 3191 4152 FO
  36   36 3301 4156 FO
  36   36 3411 4158 FO
  36   36 3520 4158 FO
  36   36 3630 4157 FO
  36   36 3740 4155 FO
  36   36 3850 4152 FO
  36   36 3960 4148 FO
  36   36 4070 4143 FO
  36   36 4179 4137 FO
  36   36 4289 4131 FO
  36   36 4399 4124 FO
  36   36 4509 4117 FO
  36   36 4619 4109 FO
  36   36 4728 4102 FO
  36   36 4838 4094 FO
  36   36 4948 4087 FO
  36   36 5058 4079 FO
  36   36 5168 4072 FO
  36   36 5278 4064 FO
  36   36 5387 4057 FO
  36   36 5497 4050 FO
  36   36 5607 4044 FO
  36   36 5717 4037 FO
  36   36 5827 4032 FO
  36   36 5936 4026 FO
  36   36 6046 4021 FO
  36   36 6156 4016 FO
  36   36 6266 4012 FO
  36   36 6376 4009 FO
  36   36 6486 4005 FO
  36   36 6595 4002 FO
  36   36 6705 4000 FO
  36   36 6815 3998 FO
  36   36 6925 3996 FO
  36   36 7035 3995 FO
  36   36 7144 3994 FO
  36   36 7254 3993 FO
  36   36 7364 3993 FO
  36   36 7474 3992 FO
  36   36 7584 3992 FO
  36   36 7694 3992 FO
gr

gs 1105 3588 6590 1011 rc
gr

0 sg
 752 4114 mt  -90 rotate
(r) s
90 rotate
1 sg
0 1009 6589 0 0 -1009 1105 6071 4 MP
PP
-6589 0 0 1009 6589 0 0 -1009 1105 6071 5 MP stroke
4 w
DO
0 sg
1105 6071 mt 1105 5062 L
1105 5062 mt 1105 5062 L
3301 6071 mt 3301 5062 L
3301 5062 mt 3301 5062 L
5497 6071 mt 5497 5062 L
5497 5062 mt 5497 5062 L
7694 6071 mt 7694 5062 L
7694 5062 mt 7694 5062 L
1105 6071 mt 7694 6071 L
7694 6071 mt 7694 6071 L
1105 5734 mt 7694 5734 L
7694 5734 mt 7694 5734 L
1105 5398 mt 7694 5398 L
7694 5398 mt 7694 5398 L
1105 5062 mt 7694 5062 L
7694 5062 mt 7694 5062 L
SO
6 w
1105 5062 mt 7694 5062 L
1105 6071 mt 7694 6071 L
7694 6071 mt 7694 5062 L
1105 6071 mt 1105 5062 L
1105 6071 mt 7694 6071 L
1105 6071 mt 1105 5062 L
1105 6071 mt 1105 6005 L
1105 5062 mt 1105 5127 L
1072 6216 mt 
(0) s
3301 6071 mt 3301 6005 L
3301 5062 mt 3301 5127 L
3268 6216 mt 
(5) s
5497 6071 mt 5497 6005 L
5497 5062 mt 5497 5127 L
5431 6216 mt 
(10) s
7694 6071 mt 7694 6005 L
7694 5062 mt 7694 5127 L
7628 6216 mt 
(15) s
1105 6071 mt 1170 6071 L
7694 6071 mt 7628 6071 L
 834 6115 mt 
(-0.5) s
1105 5734 mt 1170 5734 L
7694 5734 mt 7628 5734 L
1004 5778 mt 
(0) s
1105 5398 mt 1170 5398 L
7694 5398 mt 7628 5398 L
 904 5442 mt 
(0.5) s
1105 5062 mt 1170 5062 L
7694 5062 mt 7628 5062 L
1004 5106 mt 
(1) s
1105 5062 mt 7694 5062 L
1105 6071 mt 7694 6071 L
7694 6071 mt 7694 5062 L
1105 6071 mt 1105 5062 L
gs 1105 5062 6590 1010 rc
c9
110 -1 110 0 110 -1 110 -2 110 -1 109 -2 110 -2 110 -3 
110 -2 110 -2 109 -3 110 -3 110 -2 110 -3 110 -3 110 -2 
109 -3 110 -2 110 -2 110 -2 110 -2 109 -1 110 -1 110 -1 
110 -1 110 0 110 1 109 0 110 2 110 2 110 2 110 3 
109 4 110 5 110 5 110 6 110 7 110 8 109 9 110 9 
110 11 110 12 110 12 109 14 110 15 110 17 110 17 110 19 
110 20 109 22 110 23 110 24 110 26 110 27 109 28 110 31 
110 31 110 7 110 -170 109 -202 1105 5734 61 MP stroke
gr

c9
gs 1032 5289 6736 566 rc
  36   36 1105 5734 FO
  36   36 1214 5532 FO
  36   36 1324 5362 FO
  36   36 1434 5369 FO
  36   36 1544 5400 FO
  36   36 1654 5431 FO
  36   36 1763 5459 FO
  36   36 1873 5486 FO
  36   36 1983 5512 FO
  36   36 2093 5536 FO
  36   36 2203 5559 FO
  36   36 2312 5581 FO
  36   36 2422 5601 FO
  36   36 2532 5620 FO
  36   36 2642 5637 FO
  36   36 2752 5654 FO
  36   36 2862 5669 FO
  36   36 2971 5683 FO
  36   36 3081 5695 FO
  36   36 3191 5707 FO
  36   36 3301 5718 FO
  36   36 3411 5727 FO
  36   36 3520 5736 FO
  36   36 3630 5744 FO
  36   36 3740 5751 FO
  36   36 3850 5757 FO
  36   36 3960 5762 FO
  36   36 4070 5767 FO
  36   36 4179 5771 FO
  36   36 4289 5774 FO
  36   36 4399 5776 FO
  36   36 4509 5778 FO
  36   36 4619 5780 FO
  36   36 4728 5780 FO
  36   36 4838 5781 FO
  36   36 4948 5781 FO
  36   36 5058 5780 FO
  36   36 5168 5779 FO
  36   36 5278 5778 FO
  36   36 5387 5777 FO
  36   36 5497 5775 FO
  36   36 5607 5773 FO
  36   36 5717 5771 FO
  36   36 5827 5769 FO
  36   36 5936 5766 FO
  36   36 6046 5764 FO
  36   36 6156 5761 FO
  36   36 6266 5758 FO
  36   36 6376 5756 FO
  36   36 6486 5753 FO
  36   36 6595 5750 FO
  36   36 6705 5748 FO
  36   36 6815 5746 FO
  36   36 6925 5743 FO
  36   36 7035 5741 FO
  36   36 7144 5739 FO
  36   36 7254 5738 FO
  36   36 7364 5736 FO
  36   36 7474 5735 FO
  36   36 7584 5735 FO
  36   36 7694 5734 FO
gr

gs 1105 5062 6590 1010 rc
gr

0 sg
 752 5600 mt  -90 rotate
(p) s
90 rotate
1 sg
0 1009 6589 0 0 -1009 1105 7545 4 MP
PP
-6589 0 0 1009 6589 0 0 -1009 1105 7545 5 MP stroke
4 w
DO
0 sg
1105 7545 mt 1105 6536 L
1105 6536 mt 1105 6536 L
3301 7545 mt 3301 6536 L
3301 6536 mt 3301 6536 L
5497 7545 mt 5497 6536 L
5497 6536 mt 5497 6536 L
7694 7545 mt 7694 6536 L
7694 6536 mt 7694 6536 L
1105 7545 mt 7694 7545 L
7694 7545 mt 7694 7545 L
1105 7208 mt 7694 7208 L
7694 7208 mt 7694 7208 L
1105 6872 mt 7694 6872 L
7694 6872 mt 7694 6872 L
1105 6536 mt 7694 6536 L
7694 6536 mt 7694 6536 L
SO
6 w
1105 6536 mt 7694 6536 L
1105 7545 mt 7694 7545 L
7694 7545 mt 7694 6536 L
1105 7545 mt 1105 6536 L
1105 7545 mt 7694 7545 L
1105 7545 mt 1105 6536 L
1105 7545 mt 1105 7479 L
1105 6536 mt 1105 6601 L
1072 7690 mt 
(0) s
3301 7545 mt 3301 7479 L
3301 6536 mt 3301 6601 L
3268 7690 mt 
(5) s
5497 7545 mt 5497 7479 L
5497 6536 mt 5497 6601 L
5431 7690 mt 
(10) s
7694 7545 mt 7694 7479 L
7694 6536 mt 7694 6601 L
7628 7690 mt 
(15) s
1105 7545 mt 1170 7545 L
7694 7545 mt 7628 7545 L
 934 7589 mt 
(-1) s
1105 7208 mt 1170 7208 L
7694 7208 mt 7628 7208 L
1004 7252 mt 
(0) s
1105 6872 mt 1170 6872 L
7694 6872 mt 7628 6872 L
1004 6916 mt 
(1) s
1105 6536 mt 1170 6536 L
7694 6536 mt 7628 6536 L
1004 6580 mt 
(2) s
1105 6536 mt 7694 6536 L
1105 7545 mt 7694 7545 L
7694 7545 mt 7694 6536 L
1105 7545 mt 1105 6536 L
gs 1105 6536 6590 1010 rc
c9
110 1 110 0 110 1 110 0 110 1 109 0 110 0 110 1 
110 0 110 0 109 0 110 0 110 0 110 0 110 0 110 0 
109 0 110 -1 110 0 110 0 110 -1 109 0 110 -1 110 0 
110 -1 110 -1 110 0 109 -1 110 -1 110 -1 110 -1 110 -1 
109 -1 110 -1 110 -2 110 -1 110 -1 110 -2 109 -1 110 -2 
110 -2 110 -1 110 -2 109 -2 110 -2 110 -2 110 -2 110 -2 
110 -3 109 -1 110 -4 110 1 110 -9 110 10 109 -25 110 38 
110 -76 110 252 110 361 109 -512 1105 7208 61 MP stroke
gr

c9
gs 1032 6623 6736 760 rc
  36   36 1105 7208 FO
  36   36 1214 6696 FO
  36   36 1324 7057 FO
  36   36 1434 7309 FO
  36   36 1544 7233 FO
  36   36 1654 7271 FO
  36   36 1763 7246 FO
  36   36 1873 7256 FO
  36   36 1983 7247 FO
  36   36 2093 7248 FO
  36   36 2203 7244 FO
  36   36 2312 7243 FO
  36   36 2422 7240 FO
  36   36 2532 7238 FO
  36   36 2642 7236 FO
  36   36 2752 7234 FO
  36   36 2862 7232 FO
  36   36 2971 7230 FO
  36   36 3081 7228 FO
  36   36 3191 7227 FO
  36   36 3301 7225 FO
  36   36 3411 7223 FO
  36   36 3520 7222 FO
  36   36 3630 7220 FO
  36   36 3740 7219 FO
  36   36 3850 7218 FO
  36   36 3960 7216 FO
  36   36 4070 7215 FO
  36   36 4179 7214 FO
  36   36 4289 7213 FO
  36   36 4399 7212 FO
  36   36 4509 7211 FO
  36   36 4619 7210 FO
  36   36 4728 7209 FO
  36   36 4838 7209 FO
  36   36 4948 7208 FO
  36   36 5058 7207 FO
  36   36 5168 7207 FO
  36   36 5278 7206 FO
  36   36 5387 7206 FO
  36   36 5497 7205 FO
  36   36 5607 7205 FO
  36   36 5717 7205 FO
  36   36 5827 7204 FO
  36   36 5936 7204 FO
  36   36 6046 7204 FO
  36   36 6156 7204 FO
  36   36 6266 7204 FO
  36   36 6376 7204 FO
  36   36 6486 7204 FO
  36   36 6595 7204 FO
  36   36 6705 7204 FO
  36   36 6815 7204 FO
  36   36 6925 7205 FO
  36   36 7035 7205 FO
  36   36 7144 7205 FO
  36   36 7254 7206 FO
  36   36 7364 7206 FO
  36   36 7474 7207 FO
  36   36 7584 7207 FO
  36   36 7694 7208 FO
gr

gs 1105 6536 6590 1010 rc
gr

0 sg
4248 7833 mt 
(tid \(s\)) s
 852 7158 mt  -90 rotate
(pdot) s
90 rotate

end %%Color Dict

eplot
%%EndObject

epage
end

showpage

%%Trailer
%%EOF
