%!PS-Adobe-3.0 EPSF-3.0
%%Creator: MATLAB, The Mathworks, Inc. Version 7.10.0.499 (R2010a). Operating System: Microsoft Windows 7.
%%Title: Z:\optregheli\optreg-helikopter\matlab\fig\quadprogq01.eps
%%CreationDate: 03/08/2013  18:35:07
%%DocumentNeededFonts: Helvetica
%%DocumentProcessColors: Cyan Magenta Yellow Black
%%LanguageLevel: 2
%%Pages: 1
%%BoundingBox:   -56    64   652   776
%%EndComments

%%BeginProlog
% MathWorks dictionary
/MathWorks 160 dict begin
% definition operators
/bdef {bind def} bind def
/ldef {load def} bind def
/xdef {exch def} bdef
/xstore {exch store} bdef
% operator abbreviations
/c  /clip ldef
/cc /concat ldef
/cp /closepath ldef
/gr /grestore ldef
/gs /gsave ldef
/mt /moveto ldef
/np /newpath ldef
/cm /currentmatrix ldef
/sm /setmatrix ldef
/rm /rmoveto ldef
/rl /rlineto ldef
/s {show newpath} bdef
/sc {setcmykcolor} bdef
/sr /setrgbcolor ldef
/sg /setgray ldef
/w /setlinewidth ldef
/j /setlinejoin ldef
/cap /setlinecap ldef
/rc {rectclip} bdef
/rf {rectfill} bdef
% page state control
/pgsv () def
/bpage {/pgsv save def} bdef
/epage {pgsv restore} bdef
/bplot /gsave ldef
/eplot {stroke grestore} bdef
% orientation switch
/portraitMode 0 def /landscapeMode 1 def /rotateMode 2 def
% coordinate system mappings
/dpi2point 0 def
% font control
/FontSize 0 def
/FMS {/FontSize xstore findfont [FontSize 0 0 FontSize neg 0 0]
  makefont setfont} bdef
/ISOLatin1Encoding where {pop /WindowsLatin1Encoding 256 array bdef
ISOLatin1Encoding WindowsLatin1Encoding copy pop
/.notdef/.notdef/quotesinglbase/florin/quotedblbase/ellipsis/dagger
/daggerdbl/circumflex/perthousand/Scaron/guilsinglleft/OE/.notdef/.notdef
/.notdef/.notdef/quoteleft/quoteright/quotedblleft/quotedblright/bullet
/endash/emdash/tilde/trademark/scaron/guilsinglright/oe/.notdef/.notdef
/Ydieresis WindowsLatin1Encoding 128 32 getinterval astore pop}
{/WindowsLatin1Encoding StandardEncoding bdef} ifelse
/reencode {exch dup where {pop load} {pop StandardEncoding} ifelse
  exch dup 3 1 roll findfont dup length dict begin
  { 1 index /FID ne {def}{pop pop} ifelse } forall
  /Encoding exch def currentdict end definefont pop} bdef
/isroman {findfont /CharStrings get /Agrave known} bdef
/FMSR {3 1 roll 1 index dup isroman {reencode} {pop pop} ifelse
  exch FMS} bdef
/csm {1 dpi2point div -1 dpi2point div scale neg translate
 dup landscapeMode eq {pop -90 rotate}
  {rotateMode eq {90 rotate} if} ifelse} bdef
% line types: solid, dotted, dashed, dotdash
/SO { [] 0 setdash } bdef
/DO { [.5 dpi2point mul 4 dpi2point mul] 0 setdash } bdef
/DA { [6 dpi2point mul] 0 setdash } bdef
/DD { [.5 dpi2point mul 4 dpi2point mul 6 dpi2point mul 4
  dpi2point mul] 0 setdash } bdef
% macros for lines and objects
/L {lineto stroke} bdef
/MP {3 1 roll moveto 1 sub {rlineto} repeat} bdef
/AP {{rlineto} repeat} bdef
/PDlw -1 def
/W {/PDlw currentlinewidth def setlinewidth} def
/PP {closepath eofill} bdef
/DP {closepath stroke} bdef
/MR {4 -2 roll moveto dup  0 exch rlineto exch 0 rlineto
  neg 0 exch rlineto closepath} bdef
/FR {MR stroke} bdef
/PR {MR fill} bdef
/L1i {{currentfile picstr readhexstring pop} image} bdef
/tMatrix matrix def
/MakeOval {newpath tMatrix currentmatrix pop translate scale
0 0 1 0 360 arc tMatrix setmatrix} bdef
/FO {MakeOval stroke} bdef
/PO {MakeOval fill} bdef
/PD {currentlinewidth 2 div 0 360 arc fill
   PDlw -1 eq not {PDlw w /PDlw -1 def} if} def
/FA {newpath tMatrix currentmatrix pop translate scale
  0 0 1 5 -2 roll arc tMatrix setmatrix stroke} bdef
/PA {newpath tMatrix currentmatrix pop	translate 0 0 moveto scale
  0 0 1 5 -2 roll arc closepath tMatrix setmatrix fill} bdef
/FAn {newpath tMatrix currentmatrix pop translate scale
  0 0 1 5 -2 roll arcn tMatrix setmatrix stroke} bdef
/PAn {newpath tMatrix currentmatrix pop translate 0 0 moveto scale
  0 0 1 5 -2 roll arcn closepath tMatrix setmatrix fill} bdef
/vradius 0 def /hradius 0 def /lry 0 def
/lrx 0 def /uly 0 def /ulx 0 def /rad 0 def
/MRR {/vradius xdef /hradius xdef /lry xdef /lrx xdef /uly xdef
  /ulx xdef newpath tMatrix currentmatrix pop ulx hradius add uly
  vradius add translate hradius vradius scale 0 0 1 180 270 arc 
  tMatrix setmatrix lrx hradius sub uly vradius add translate
  hradius vradius scale 0 0 1 270 360 arc tMatrix setmatrix
  lrx hradius sub lry vradius sub translate hradius vradius scale
  0 0 1 0 90 arc tMatrix setmatrix ulx hradius add lry vradius sub
  translate hradius vradius scale 0 0 1 90 180 arc tMatrix setmatrix
  closepath} bdef
/FRR {MRR stroke } bdef
/PRR {MRR fill } bdef
/MlrRR {/lry xdef /lrx xdef /uly xdef /ulx xdef /rad lry uly sub 2 div def
  newpath tMatrix currentmatrix pop ulx rad add uly rad add translate
  rad rad scale 0 0 1 90 270 arc tMatrix setmatrix lrx rad sub lry rad
  sub translate rad rad scale 0 0 1 270 90 arc tMatrix setmatrix
  closepath} bdef
/FlrRR {MlrRR stroke } bdef
/PlrRR {MlrRR fill } bdef
/MtbRR {/lry xdef /lrx xdef /uly xdef /ulx xdef /rad lrx ulx sub 2 div def
  newpath tMatrix currentmatrix pop ulx rad add uly rad add translate
  rad rad scale 0 0 1 180 360 arc tMatrix setmatrix lrx rad sub lry rad
  sub translate rad rad scale 0 0 1 0 180 arc tMatrix setmatrix
  closepath} bdef
/FtbRR {MtbRR stroke } bdef
/PtbRR {MtbRR fill } bdef
/stri 6 array def /dtri 6 array def
/smat 6 array def /dmat 6 array def
/tmat1 6 array def /tmat2 6 array def /dif 3 array def
/asub {/ind2 exch def /ind1 exch def dup dup
  ind1 get exch ind2 get sub exch } bdef
/tri_to_matrix {
  2 0 asub 3 1 asub 4 0 asub 5 1 asub
  dup 0 get exch 1 get 7 -1 roll astore } bdef
/compute_transform {
  dmat dtri tri_to_matrix tmat1 invertmatrix 
  smat stri tri_to_matrix tmat2 concatmatrix } bdef
/ds {stri astore pop} bdef
/dt {dtri astore pop} bdef
/db {2 copy /cols xdef /rows xdef mul dup 3 mul string
  currentfile 
  3 index 0 eq {/ASCIIHexDecode filter}
  {/ASCII85Decode filter 3 index 2 eq {/RunLengthDecode filter} if }
  ifelse exch readstring pop
  dup 0 3 index getinterval /rbmap xdef
  dup 2 index dup getinterval /gbmap xdef
  1 index dup 2 mul exch getinterval /bbmap xdef pop pop}bdef
/it {gs np dtri aload pop moveto lineto lineto cp c
  cols rows 8 compute_transform 
  rbmap gbmap bbmap true 3 colorimage gr}bdef
/il {newpath moveto lineto stroke}bdef
currentdict end def
%%EndProlog

%%BeginSetup
MathWorks begin

0 cap

end
%%EndSetup

%%Page: 1 1
%%BeginPageSetup
%%PageBoundingBox:   -56    64   652   776
MathWorks begin
bpage
%%EndPageSetup

%%BeginObject: obj1
bplot

/dpi2point 12 def
portraitMode -0672 9312 csm

    0     0  8502  8536 rc
86 dict begin %Colortable dictionary
/c0 { 0.000000 0.000000 0.000000 sr} bdef
/c1 { 1.000000 1.000000 1.000000 sr} bdef
/c2 { 0.900000 0.000000 0.000000 sr} bdef
/c3 { 0.000000 0.820000 0.000000 sr} bdef
/c4 { 0.000000 0.000000 0.800000 sr} bdef
/c5 { 0.910000 0.820000 0.320000 sr} bdef
/c6 { 1.000000 0.260000 0.820000 sr} bdef
/c7 { 0.000000 0.820000 0.820000 sr} bdef
c0
1 j
1 sg
   0    0 8503 8537 rf
6 w
0 1010 6589 0 0 -1010 1105 1650 4 MP
PP
-6589 0 0 1010 6589 0 0 -1010 1105 1650 5 MP stroke
4 w
DO
0 sg
1105 1650 mt 1105  640 L
1105  640 mt 1105  640 L
3301 1650 mt 3301  640 L
3301  640 mt 3301  640 L
5497 1650 mt 5497  640 L
5497  640 mt 5497  640 L
7694 1650 mt 7694  640 L
7694  640 mt 7694  640 L
1105 1650 mt 7694 1650 L
7694 1650 mt 7694 1650 L
1105 1397 mt 7694 1397 L
7694 1397 mt 7694 1397 L
1105 1145 mt 7694 1145 L
7694 1145 mt 7694 1145 L
1105  892 mt 7694  892 L
7694  892 mt 7694  892 L
1105  640 mt 7694  640 L
7694  640 mt 7694  640 L
SO
6 w
1105  640 mt 7694  640 L
1105 1650 mt 7694 1650 L
7694 1650 mt 7694  640 L
1105 1650 mt 1105  640 L
1105 1650 mt 7694 1650 L
1105 1650 mt 1105  640 L
1105 1650 mt 1105 1584 L
1105  640 mt 1105  705 L
%%IncludeResource: font Helvetica
/Helvetica /WindowsLatin1Encoding 120 FMSR

1072 1795 mt 
(0) s
3301 1650 mt 3301 1584 L
3301  640 mt 3301  705 L
3268 1795 mt 
(5) s
5497 1650 mt 5497 1584 L
5497  640 mt 5497  705 L
5431 1795 mt 
(10) s
7694 1650 mt 7694 1584 L
7694  640 mt 7694  705 L
7628 1795 mt 
(15) s
1105 1650 mt 1170 1650 L
7694 1650 mt 7628 1650 L
 934 1694 mt 
(-1) s
1105 1397 mt 1170 1397 L
7694 1397 mt 7628 1397 L
 834 1441 mt 
(-0.5) s
1105 1145 mt 1170 1145 L
7694 1145 mt 7628 1145 L
1004 1189 mt 
(0) s
1105  892 mt 1170  892 L
7694  892 mt 7628  892 L
 904  936 mt 
(0.5) s
1105  640 mt 1170  640 L
7694  640 mt 7628  640 L
1004  684 mt 
(1) s
1105  640 mt 7694  640 L
1105 1650 mt 7694 1650 L
7694 1650 mt 7694  640 L
1105 1650 mt 1105  640 L
gs 1105 640 6590 1011 rc
/c8 { 0.000000 0.000000 1.000000 sr} bdef
c8
110 0 0 1 110 0 0 2 110 0 0 3 110 0 0 2 
110 0 0 3 109 0 0 3 110 0 0 3 110 0 0 1 
110 0 0 1 110 0 0 -1 109 0 0 -2 110 0 0 -5 
110 0 0 -7 110 0 0 -10 110 0 0 -13 110 0 0 -19 
109 0 0 -20 110 0 0 -30 110 0 0 -24 110 0 0 -49 
110 0 0 -17 109 0 0 -66 110 0 0 -20 110 0 110 0 
110 0 110 0 109 0 110 0 110 0 110 0 110 0 109 0 
110 0 110 0 110 0 110 0 110 0 109 0 0 10 110 0 
0 268 110 0 0 251 110 0 110 0 109 0 110 0 110 0 
110 0 110 0 110 0 109 0 110 0 110 0 110 0 110 0 
109 0 110 0 110 0 110 0 110 0 109 0 1105 880 87 MP stroke
gr

c8
0 sg
 752 1179 mt  -90 rotate
(u) s
90 rotate
1 sg
0 1010 6589 0 0 -1010 1105 3124 4 MP
PP
-6589 0 0 1010 6589 0 0 -1010 1105 3124 5 MP stroke
4 w
DO
0 sg
1105 3124 mt 1105 2114 L
1105 2114 mt 1105 2114 L
3301 3124 mt 3301 2114 L
3301 2114 mt 3301 2114 L
5497 3124 mt 5497 2114 L
5497 2114 mt 5497 2114 L
7694 3124 mt 7694 2114 L
7694 2114 mt 7694 2114 L
1105 3124 mt 7694 3124 L
7694 3124 mt 7694 3124 L
1105 2871 mt 7694 2871 L
7694 2871 mt 7694 2871 L
1105 2619 mt 7694 2619 L
7694 2619 mt 7694 2619 L
1105 2366 mt 7694 2366 L
7694 2366 mt 7694 2366 L
1105 2114 mt 7694 2114 L
7694 2114 mt 7694 2114 L
SO
6 w
1105 2114 mt 7694 2114 L
1105 3124 mt 7694 3124 L
7694 3124 mt 7694 2114 L
1105 3124 mt 1105 2114 L
1105 3124 mt 7694 3124 L
1105 3124 mt 1105 2114 L
1105 3124 mt 1105 3058 L
1105 2114 mt 1105 2179 L
1072 3269 mt 
(0) s
3301 3124 mt 3301 3058 L
3301 2114 mt 3301 2179 L
3268 3269 mt 
(5) s
5497 3124 mt 5497 3058 L
5497 2114 mt 5497 2179 L
5431 3269 mt 
(10) s
7694 3124 mt 7694 3058 L
7694 2114 mt 7694 2179 L
7628 3269 mt 
(15) s
1105 3124 mt 1170 3124 L
7694 3124 mt 7628 3124 L
1004 3168 mt 
(0) s
1105 2871 mt 1170 2871 L
7694 2871 mt 7628 2871 L
1004 2915 mt 
(1) s
1105 2619 mt 1170 2619 L
7694 2619 mt 7628 2619 L
1004 2663 mt 
(2) s
1105 2366 mt 1170 2366 L
7694 2366 mt 7628 2366 L
1004 2410 mt 
(3) s
1105 2114 mt 1170 2114 L
7694 2114 mt 7628 2114 L
1004 2158 mt 
(4) s
1105 2114 mt 7694 2114 L
1105 3124 mt 7694 3124 L
7694 3124 mt 7694 2114 L
1105 3124 mt 1105 2114 L
gs 1105 2114 6590 1011 rc
/c9 { 1.000000 0.000000 1.000000 sr} bdef
c9
110 -1 110 -1 110 -1 110 -2 110 -1 109 -1 110 -2 110 -1 
110 -2 110 -2 109 -1 110 -2 110 -2 110 -2 110 -2 110 -2 
109 -1 110 -2 110 0 110 0 110 1 109 2 110 3 110 5 
110 6 110 8 110 9 109 11 110 12 110 13 110 15 110 17 
109 18 110 19 110 21 110 22 110 23 110 26 109 26 110 28 
110 27 110 26 110 24 109 22 110 22 110 20 110 18 110 17 
110 15 109 14 110 13 110 11 110 10 110 8 109 7 110 5 
110 4 110 3 110 1 109 0 1105 2330 61 MP stroke
gr

c9
gs 1032 2257 6736 699 rc
  36   36 1105 2330 FO
  36   36 1214 2330 FO
  36   36 1324 2331 FO
  36   36 1434 2334 FO
  36   36 1544 2338 FO
  36   36 1654 2343 FO
  36   36 1763 2350 FO
  36   36 1873 2358 FO
  36   36 1983 2368 FO
  36   36 2093 2379 FO
  36   36 2203 2392 FO
  36   36 2312 2406 FO
  36   36 2422 2421 FO
  36   36 2532 2438 FO
  36   36 2642 2456 FO
  36   36 2752 2476 FO
  36   36 2862 2498 FO
  36   36 2971 2520 FO
  36   36 3081 2544 FO
  36   36 3191 2570 FO
  36   36 3301 2597 FO
  36   36 3411 2625 FO
  36   36 3520 2651 FO
  36   36 3630 2677 FO
  36   36 3740 2700 FO
  36   36 3850 2722 FO
  36   36 3960 2743 FO
  36   36 4070 2762 FO
  36   36 4179 2780 FO
  36   36 4289 2797 FO
  36   36 4399 2812 FO
  36   36 4509 2825 FO
  36   36 4619 2837 FO
  36   36 4728 2848 FO
  36   36 4838 2857 FO
  36   36 4948 2865 FO
  36   36 5058 2871 FO
  36   36 5168 2876 FO
  36   36 5278 2879 FO
  36   36 5387 2881 FO
  36   36 5497 2882 FO
  36   36 5607 2882 FO
  36   36 5717 2882 FO
  36   36 5827 2880 FO
  36   36 5936 2879 FO
  36   36 6046 2877 FO
  36   36 6156 2875 FO
  36   36 6266 2873 FO
  36   36 6376 2871 FO
  36   36 6486 2869 FO
  36   36 6595 2868 FO
  36   36 6705 2866 FO
  36   36 6815 2864 FO
  36   36 6925 2863 FO
  36   36 7035 2861 FO
  36   36 7144 2860 FO
  36   36 7254 2859 FO
  36   36 7364 2857 FO
  36   36 7474 2856 FO
  36   36 7584 2855 FO
  36   36 7694 2854 FO
gr

gs 1105 2114 6590 1011 rc
gr

0 sg
 922 2817 mt  -90 rotate
(lambda) s
90 rotate
1 sg
0 1010 6589 0 0 -1010 1105 4598 4 MP
PP
-6589 0 0 1010 6589 0 0 -1010 1105 4598 5 MP stroke
4 w
DO
0 sg
1105 4598 mt 1105 3588 L
1105 3588 mt 1105 3588 L
3301 4598 mt 3301 3588 L
3301 3588 mt 3301 3588 L
5497 4598 mt 5497 3588 L
5497 3588 mt 5497 3588 L
7694 4598 mt 7694 3588 L
7694 3588 mt 7694 3588 L
1105 4598 mt 7694 4598 L
7694 4598 mt 7694 4598 L
1105 4093 mt 7694 4093 L
7694 4093 mt 7694 4093 L
1105 3588 mt 7694 3588 L
7694 3588 mt 7694 3588 L
SO
6 w
1105 3588 mt 7694 3588 L
1105 4598 mt 7694 4598 L
7694 4598 mt 7694 3588 L
1105 4598 mt 1105 3588 L
1105 4598 mt 7694 4598 L
1105 4598 mt 1105 3588 L
1105 4598 mt 1105 4532 L
1105 3588 mt 1105 3653 L
1072 4743 mt 
(0) s
3301 4598 mt 3301 4532 L
3301 3588 mt 3301 3653 L
3268 4743 mt 
(5) s
5497 4598 mt 5497 4532 L
5497 3588 mt 5497 3653 L
5431 4743 mt 
(10) s
7694 4598 mt 7694 4532 L
7694 3588 mt 7694 3653 L
7628 4743 mt 
(15) s
1105 4598 mt 1170 4598 L
7694 4598 mt 7628 4598 L
 834 4642 mt 
(-0.5) s
1105 4093 mt 1170 4093 L
7694 4093 mt 7628 4093 L
1004 4137 mt 
(0) s
1105 3588 mt 1170 3588 L
7694 3588 mt 7628 3588 L
 904 3632 mt 
(0.5) s
1105 3588 mt 7694 3588 L
1105 4598 mt 7694 4598 L
7694 4598 mt 7694 3588 L
1105 4598 mt 1105 3588 L
gs 1105 3588 6590 1011 rc
c9
110 0 110 1 110 0 110 1 110 1 109 1 110 1 110 2 
110 1 110 2 109 1 110 1 110 1 110 0 110 -2 110 -3 
109 -4 110 -7 110 -10 110 -13 110 -15 109 -21 110 -22 110 -24 
110 -23 110 -23 110 -23 109 -23 110 -23 110 -23 110 -23 110 -24 
109 -23 110 -23 110 -23 110 -22 110 -25 110 -26 109 -22 110 -1 
110 18 110 23 110 23 109 23 110 24 110 23 110 23 110 23 
110 23 109 23 110 23 110 23 110 24 110 23 109 22 110 24 
110 24 110 25 110 20 109 5 1105 4093 61 MP stroke
gr

c9
gs 1032 3988 6736 618 rc
  36   36 1105 4093 FO
  36   36 1214 4098 FO
  36   36 1324 4118 FO
  36   36 1434 4143 FO
  36   36 1544 4167 FO
  36   36 1654 4191 FO
  36   36 1763 4213 FO
  36   36 1873 4236 FO
  36   36 1983 4260 FO
  36   36 2093 4283 FO
  36   36 2203 4306 FO
  36   36 2312 4329 FO
  36   36 2422 4352 FO
  36   36 2532 4375 FO
  36   36 2642 4398 FO
  36   36 2752 4421 FO
  36   36 2862 4445 FO
  36   36 2971 4468 FO
  36   36 3081 4491 FO
  36   36 3191 4514 FO
  36   36 3301 4532 FO
  36   36 3411 4531 FO
  36   36 3520 4509 FO
  36   36 3630 4483 FO
  36   36 3740 4458 FO
  36   36 3850 4436 FO
  36   36 3960 4413 FO
  36   36 4070 4390 FO
  36   36 4179 4367 FO
  36   36 4289 4343 FO
  36   36 4399 4320 FO
  36   36 4509 4297 FO
  36   36 4619 4274 FO
  36   36 4728 4251 FO
  36   36 4838 4228 FO
  36   36 4948 4205 FO
  36   36 5058 4182 FO
  36   36 5168 4158 FO
  36   36 5278 4136 FO
  36   36 5387 4115 FO
  36   36 5497 4100 FO
  36   36 5607 4087 FO
  36   36 5717 4077 FO
  36   36 5827 4070 FO
  36   36 5936 4066 FO
  36   36 6046 4063 FO
  36   36 6156 4061 FO
  36   36 6266 4061 FO
  36   36 6376 4062 FO
  36   36 6486 4063 FO
  36   36 6595 4064 FO
  36   36 6705 4066 FO
  36   36 6815 4067 FO
  36   36 6925 4069 FO
  36   36 7035 4070 FO
  36   36 7144 4071 FO
  36   36 7254 4072 FO
  36   36 7364 4073 FO
  36   36 7474 4073 FO
  36   36 7584 4074 FO
  36   36 7694 4074 FO
gr

gs 1105 3588 6590 1011 rc
gr

0 sg
 752 4114 mt  -90 rotate
(r) s
90 rotate
1 sg
0 1009 6589 0 0 -1009 1105 6071 4 MP
PP
-6589 0 0 1009 6589 0 0 -1009 1105 6071 5 MP stroke
4 w
DO
0 sg
1105 6071 mt 1105 5062 L
1105 5062 mt 1105 5062 L
3301 6071 mt 3301 5062 L
3301 5062 mt 3301 5062 L
5497 6071 mt 5497 5062 L
5497 5062 mt 5497 5062 L
7694 6071 mt 7694 5062 L
7694 5062 mt 7694 5062 L
1105 6071 mt 7694 6071 L
7694 6071 mt 7694 6071 L
1105 5818 mt 7694 5818 L
7694 5818 mt 7694 5818 L
1105 5566 mt 7694 5566 L
7694 5566 mt 7694 5566 L
1105 5314 mt 7694 5314 L
7694 5314 mt 7694 5314 L
1105 5062 mt 7694 5062 L
7694 5062 mt 7694 5062 L
SO
6 w
1105 5062 mt 7694 5062 L
1105 6071 mt 7694 6071 L
7694 6071 mt 7694 5062 L
1105 6071 mt 1105 5062 L
1105 6071 mt 7694 6071 L
1105 6071 mt 1105 5062 L
1105 6071 mt 1105 6005 L
1105 5062 mt 1105 5127 L
1072 6216 mt 
(0) s
3301 6071 mt 3301 6005 L
3301 5062 mt 3301 5127 L
3268 6216 mt 
(5) s
5497 6071 mt 5497 6005 L
5497 5062 mt 5497 5127 L
5431 6216 mt 
(10) s
7694 6071 mt 7694 6005 L
7694 5062 mt 7694 5127 L
7628 6216 mt 
(15) s
1105 6071 mt 1170 6071 L
7694 6071 mt 7628 6071 L
 934 6115 mt 
(-1) s
1105 5818 mt 1170 5818 L
7694 5818 mt 7628 5818 L
 834 5862 mt 
(-0.5) s
1105 5566 mt 1170 5566 L
7694 5566 mt 7628 5566 L
1004 5610 mt 
(0) s
1105 5314 mt 1170 5314 L
7694 5314 mt 7628 5314 L
 904 5358 mt 
(0.5) s
1105 5062 mt 1170 5062 L
7694 5062 mt 7628 5062 L
1004 5106 mt 
(1) s
1105 5062 mt 7694 5062 L
1105 6071 mt 7694 6071 L
7694 6071 mt 7694 5062 L
1105 6071 mt 1105 5062 L
gs 1105 5062 6590 1010 rc
c9
110 1 110 2 110 3 110 3 110 3 109 3 110 2 110 1 
110 1 110 -1 109 -3 110 -6 110 -8 110 -11 110 -14 110 -19 
109 -23 110 -27 110 -33 110 -37 110 -43 109 -47 110 -11 110 0 
110 0 110 0 110 0 109 0 110 0 110 0 110 0 110 -1 
109 1 110 2 110 3 110 -8 110 -27 110 -5 109 144 110 275 
110 144 110 0 110 0 109 0 110 0 110 0 110 0 110 0 
110 0 109 0 110 0 110 1 110 -1 110 -2 109 -1 110 8 
110 20 110 -10 110 -128 109 -151 1105 5566 61 MP stroke
gr

c9
gs 1032 5204 6736 735 rc
  36   36 1105 5566 FO
  36   36 1214 5415 FO
  36   36 1324 5287 FO
  36   36 1434 5277 FO
  36   36 1544 5297 FO
  36   36 1654 5305 FO
  36   36 1763 5304 FO
  36   36 1873 5302 FO
  36   36 1983 5301 FO
  36   36 2093 5302 FO
  36   36 2203 5302 FO
  36   36 2312 5302 FO
  36   36 2422 5302 FO
  36   36 2532 5302 FO
  36   36 2642 5302 FO
  36   36 2752 5302 FO
  36   36 2862 5302 FO
  36   36 2971 5302 FO
  36   36 3081 5302 FO
  36   36 3191 5302 FO
  36   36 3301 5446 FO
  36   36 3411 5721 FO
  36   36 3520 5865 FO
  36   36 3630 5860 FO
  36   36 3740 5833 FO
  36   36 3850 5825 FO
  36   36 3960 5828 FO
  36   36 4070 5830 FO
  36   36 4179 5831 FO
  36   36 4289 5830 FO
  36   36 4399 5830 FO
  36   36 4509 5830 FO
  36   36 4619 5830 FO
  36   36 4728 5830 FO
  36   36 4838 5830 FO
  36   36 4948 5830 FO
  36   36 5058 5830 FO
  36   36 5168 5830 FO
  36   36 5278 5819 FO
  36   36 5387 5772 FO
  36   36 5497 5729 FO
  36   36 5607 5692 FO
  36   36 5717 5659 FO
  36   36 5827 5632 FO
  36   36 5936 5609 FO
  36   36 6046 5590 FO
  36   36 6156 5576 FO
  36   36 6266 5565 FO
  36   36 6376 5557 FO
  36   36 6486 5551 FO
  36   36 6595 5548 FO
  36   36 6705 5547 FO
  36   36 6815 5548 FO
  36   36 6925 5549 FO
  36   36 7035 5551 FO
  36   36 7144 5554 FO
  36   36 7254 5557 FO
  36   36 7364 5560 FO
  36   36 7474 5563 FO
  36   36 7584 5565 FO
  36   36 7694 5566 FO
gr

gs 1105 5062 6590 1010 rc
gr

0 sg
 752 5600 mt  -90 rotate
(p) s
90 rotate
1 sg
0 1009 6589 0 0 -1009 1105 7545 4 MP
PP
-6589 0 0 1009 6589 0 0 -1009 1105 7545 5 MP stroke
4 w
DO
0 sg
1105 7545 mt 1105 6536 L
1105 6536 mt 1105 6536 L
3301 7545 mt 3301 6536 L
3301 6536 mt 3301 6536 L
5497 7545 mt 5497 6536 L
5497 6536 mt 5497 6536 L
7694 7545 mt 7694 6536 L
7694 6536 mt 7694 6536 L
1105 7545 mt 7694 7545 L
7694 7545 mt 7694 7545 L
1105 7292 mt 7694 7292 L
7694 7292 mt 7694 7292 L
1105 7040 mt 7694 7040 L
7694 7040 mt 7694 7040 L
1105 6788 mt 7694 6788 L
7694 6788 mt 7694 6788 L
1105 6536 mt 7694 6536 L
7694 6536 mt 7694 6536 L
SO
6 w
1105 6536 mt 7694 6536 L
1105 7545 mt 7694 7545 L
7694 7545 mt 7694 6536 L
1105 7545 mt 1105 6536 L
1105 7545 mt 7694 7545 L
1105 7545 mt 1105 6536 L
1105 7545 mt 1105 7479 L
1105 6536 mt 1105 6601 L
1072 7690 mt 
(0) s
3301 7545 mt 3301 7479 L
3301 6536 mt 3301 6601 L
3268 7690 mt 
(5) s
5497 7545 mt 5497 7479 L
5497 6536 mt 5497 6601 L
5431 7690 mt 
(10) s
7694 7545 mt 7694 7479 L
7694 6536 mt 7694 6601 L
7628 7690 mt 
(15) s
1105 7545 mt 1170 7545 L
7694 7545 mt 7628 7545 L
 934 7589 mt 
(-2) s
1105 7292 mt 1170 7292 L
7694 7292 mt 7628 7292 L
 934 7336 mt 
(-1) s
1105 7040 mt 1170 7040 L
7694 7040 mt 7628 7040 L
1004 7084 mt 
(0) s
1105 6788 mt 1170 6788 L
7694 6788 mt 7628 6788 L
1004 6832 mt 
(1) s
1105 6536 mt 1170 6536 L
7694 6536 mt 7628 6536 L
1004 6580 mt 
(2) s
1105 6536 mt 7694 6536 L
1105 7545 mt 7694 7545 L
7694 7545 mt 7694 6536 L
1105 7545 mt 1105 6536 L
gs 1105 6536 6590 1010 rc
c9
110 -2 110 -1 110 -1 110 0 110 0 109 1 110 1 110 2 
110 2 110 3 109 3 110 4 110 5 110 5 110 8 110 4 
109 12 110 0 110 22 110 -17 110 55 109 -77 110 -28 110 0 
110 0 110 0 110 0 109 0 110 0 110 0 110 1 110 0 
109 -3 110 -5 110 6 110 37 110 27 110 -156 109 -404 110 132 
110 365 110 0 110 0 109 0 110 0 110 0 110 0 110 0 
110 0 109 0 110 0 110 0 110 2 110 3 109 -8 110 -29 
110 -5 110 150 110 271 109 -384 1105 7040 61 MP stroke
gr

c9
gs 1032 6583 6736 1028 rc
  36   36 1105 7040 FO
  36   36 1214 6656 FO
  36   36 1324 6927 FO
  36   36 1434 7077 FO
  36   36 1544 7072 FO
  36   36 1654 7043 FO
  36   36 1763 7035 FO
  36   36 1873 7038 FO
  36   36 1983 7040 FO
  36   36 2093 7040 FO
  36   36 2203 7040 FO
  36   36 2312 7040 FO
  36   36 2422 7040 FO
  36   36 2532 7040 FO
  36   36 2642 7040 FO
  36   36 2752 7040 FO
  36   36 2862 7040 FO
  36   36 2971 7040 FO
  36   36 3081 7040 FO
  36   36 3191 7040 FO
  36   36 3301 7405 FO
  36   36 3411 7537 FO
  36   36 3520 7133 FO
  36   36 3630 6977 FO
  36   36 3740 7004 FO
  36   36 3850 7041 FO
  36   36 3960 7047 FO
  36   36 4070 7042 FO
  36   36 4179 7039 FO
  36   36 4289 7039 FO
  36   36 4399 7040 FO
  36   36 4509 7040 FO
  36   36 4619 7040 FO
  36   36 4728 7040 FO
  36   36 4838 7040 FO
  36   36 4948 7040 FO
  36   36 5058 7040 FO
  36   36 5168 7040 FO
  36   36 5278 7012 FO
  36   36 5387 6935 FO
  36   36 5497 6990 FO
  36   36 5607 6973 FO
  36   36 5717 6995 FO
  36   36 5827 6995 FO
  36   36 5936 7007 FO
  36   36 6046 7011 FO
  36   36 6156 7019 FO
  36   36 6266 7024 FO
  36   36 6376 7029 FO
  36   36 6486 7033 FO
  36   36 6595 7036 FO
  36   36 6705 7039 FO
  36   36 6815 7041 FO
  36   36 6925 7043 FO
  36   36 7035 7044 FO
  36   36 7144 7045 FO
  36   36 7254 7045 FO
  36   36 7364 7045 FO
  36   36 7474 7044 FO
  36   36 7584 7043 FO
  36   36 7694 7041 FO
gr

gs 1105 6536 6590 1010 rc
gr

0 sg
4248 7833 mt 
(tid \(s\)) s
 852 7158 mt  -90 rotate
(pdot) s
90 rotate

end %%Color Dict

eplot
%%EndObject

epage
end

showpage

%%Trailer
%%EOF
