%!PS-Adobe-3.0 EPSF-3.0
%%Creator: MATLAB, The Mathworks, Inc. Version 7.10.0.499 (R2010a). Operating System: Microsoft Windows 7.
%%Title: Z:\optregheli\optreg-helikopter\matlab\fig\quadprogq01.eps
%%CreationDate: 03/08/2013  18:33:01
%%DocumentNeededFonts: Helvetica
%%DocumentProcessColors: Cyan Magenta Yellow Black
%%LanguageLevel: 2
%%Pages: 1
%%BoundingBox:   -56    64   652   776
%%EndComments

%%BeginProlog
% MathWorks dictionary
/MathWorks 160 dict begin
% definition operators
/bdef {bind def} bind def
/ldef {load def} bind def
/xdef {exch def} bdef
/xstore {exch store} bdef
% operator abbreviations
/c  /clip ldef
/cc /concat ldef
/cp /closepath ldef
/gr /grestore ldef
/gs /gsave ldef
/mt /moveto ldef
/np /newpath ldef
/cm /currentmatrix ldef
/sm /setmatrix ldef
/rm /rmoveto ldef
/rl /rlineto ldef
/s {show newpath} bdef
/sc {setcmykcolor} bdef
/sr /setrgbcolor ldef
/sg /setgray ldef
/w /setlinewidth ldef
/j /setlinejoin ldef
/cap /setlinecap ldef
/rc {rectclip} bdef
/rf {rectfill} bdef
% page state control
/pgsv () def
/bpage {/pgsv save def} bdef
/epage {pgsv restore} bdef
/bplot /gsave ldef
/eplot {stroke grestore} bdef
% orientation switch
/portraitMode 0 def /landscapeMode 1 def /rotateMode 2 def
% coordinate system mappings
/dpi2point 0 def
% font control
/FontSize 0 def
/FMS {/FontSize xstore findfont [FontSize 0 0 FontSize neg 0 0]
  makefont setfont} bdef
/ISOLatin1Encoding where {pop /WindowsLatin1Encoding 256 array bdef
ISOLatin1Encoding WindowsLatin1Encoding copy pop
/.notdef/.notdef/quotesinglbase/florin/quotedblbase/ellipsis/dagger
/daggerdbl/circumflex/perthousand/Scaron/guilsinglleft/OE/.notdef/.notdef
/.notdef/.notdef/quoteleft/quoteright/quotedblleft/quotedblright/bullet
/endash/emdash/tilde/trademark/scaron/guilsinglright/oe/.notdef/.notdef
/Ydieresis WindowsLatin1Encoding 128 32 getinterval astore pop}
{/WindowsLatin1Encoding StandardEncoding bdef} ifelse
/reencode {exch dup where {pop load} {pop StandardEncoding} ifelse
  exch dup 3 1 roll findfont dup length dict begin
  { 1 index /FID ne {def}{pop pop} ifelse } forall
  /Encoding exch def currentdict end definefont pop} bdef
/isroman {findfont /CharStrings get /Agrave known} bdef
/FMSR {3 1 roll 1 index dup isroman {reencode} {pop pop} ifelse
  exch FMS} bdef
/csm {1 dpi2point div -1 dpi2point div scale neg translate
 dup landscapeMode eq {pop -90 rotate}
  {rotateMode eq {90 rotate} if} ifelse} bdef
% line types: solid, dotted, dashed, dotdash
/SO { [] 0 setdash } bdef
/DO { [.5 dpi2point mul 4 dpi2point mul] 0 setdash } bdef
/DA { [6 dpi2point mul] 0 setdash } bdef
/DD { [.5 dpi2point mul 4 dpi2point mul 6 dpi2point mul 4
  dpi2point mul] 0 setdash } bdef
% macros for lines and objects
/L {lineto stroke} bdef
/MP {3 1 roll moveto 1 sub {rlineto} repeat} bdef
/AP {{rlineto} repeat} bdef
/PDlw -1 def
/W {/PDlw currentlinewidth def setlinewidth} def
/PP {closepath eofill} bdef
/DP {closepath stroke} bdef
/MR {4 -2 roll moveto dup  0 exch rlineto exch 0 rlineto
  neg 0 exch rlineto closepath} bdef
/FR {MR stroke} bdef
/PR {MR fill} bdef
/L1i {{currentfile picstr readhexstring pop} image} bdef
/tMatrix matrix def
/MakeOval {newpath tMatrix currentmatrix pop translate scale
0 0 1 0 360 arc tMatrix setmatrix} bdef
/FO {MakeOval stroke} bdef
/PO {MakeOval fill} bdef
/PD {currentlinewidth 2 div 0 360 arc fill
   PDlw -1 eq not {PDlw w /PDlw -1 def} if} def
/FA {newpath tMatrix currentmatrix pop translate scale
  0 0 1 5 -2 roll arc tMatrix setmatrix stroke} bdef
/PA {newpath tMatrix currentmatrix pop	translate 0 0 moveto scale
  0 0 1 5 -2 roll arc closepath tMatrix setmatrix fill} bdef
/FAn {newpath tMatrix currentmatrix pop translate scale
  0 0 1 5 -2 roll arcn tMatrix setmatrix stroke} bdef
/PAn {newpath tMatrix currentmatrix pop translate 0 0 moveto scale
  0 0 1 5 -2 roll arcn closepath tMatrix setmatrix fill} bdef
/vradius 0 def /hradius 0 def /lry 0 def
/lrx 0 def /uly 0 def /ulx 0 def /rad 0 def
/MRR {/vradius xdef /hradius xdef /lry xdef /lrx xdef /uly xdef
  /ulx xdef newpath tMatrix currentmatrix pop ulx hradius add uly
  vradius add translate hradius vradius scale 0 0 1 180 270 arc 
  tMatrix setmatrix lrx hradius sub uly vradius add translate
  hradius vradius scale 0 0 1 270 360 arc tMatrix setmatrix
  lrx hradius sub lry vradius sub translate hradius vradius scale
  0 0 1 0 90 arc tMatrix setmatrix ulx hradius add lry vradius sub
  translate hradius vradius scale 0 0 1 90 180 arc tMatrix setmatrix
  closepath} bdef
/FRR {MRR stroke } bdef
/PRR {MRR fill } bdef
/MlrRR {/lry xdef /lrx xdef /uly xdef /ulx xdef /rad lry uly sub 2 div def
  newpath tMatrix currentmatrix pop ulx rad add uly rad add translate
  rad rad scale 0 0 1 90 270 arc tMatrix setmatrix lrx rad sub lry rad
  sub translate rad rad scale 0 0 1 270 90 arc tMatrix setmatrix
  closepath} bdef
/FlrRR {MlrRR stroke } bdef
/PlrRR {MlrRR fill } bdef
/MtbRR {/lry xdef /lrx xdef /uly xdef /ulx xdef /rad lrx ulx sub 2 div def
  newpath tMatrix currentmatrix pop ulx rad add uly rad add translate
  rad rad scale 0 0 1 180 360 arc tMatrix setmatrix lrx rad sub lry rad
  sub translate rad rad scale 0 0 1 0 180 arc tMatrix setmatrix
  closepath} bdef
/FtbRR {MtbRR stroke } bdef
/PtbRR {MtbRR fill } bdef
/stri 6 array def /dtri 6 array def
/smat 6 array def /dmat 6 array def
/tmat1 6 array def /tmat2 6 array def /dif 3 array def
/asub {/ind2 exch def /ind1 exch def dup dup
  ind1 get exch ind2 get sub exch } bdef
/tri_to_matrix {
  2 0 asub 3 1 asub 4 0 asub 5 1 asub
  dup 0 get exch 1 get 7 -1 roll astore } bdef
/compute_transform {
  dmat dtri tri_to_matrix tmat1 invertmatrix 
  smat stri tri_to_matrix tmat2 concatmatrix } bdef
/ds {stri astore pop} bdef
/dt {dtri astore pop} bdef
/db {2 copy /cols xdef /rows xdef mul dup 3 mul string
  currentfile 
  3 index 0 eq {/ASCIIHexDecode filter}
  {/ASCII85Decode filter 3 index 2 eq {/RunLengthDecode filter} if }
  ifelse exch readstring pop
  dup 0 3 index getinterval /rbmap xdef
  dup 2 index dup getinterval /gbmap xdef
  1 index dup 2 mul exch getinterval /bbmap xdef pop pop}bdef
/it {gs np dtri aload pop moveto lineto lineto cp c
  cols rows 8 compute_transform 
  rbmap gbmap bbmap true 3 colorimage gr}bdef
/il {newpath moveto lineto stroke}bdef
currentdict end def
%%EndProlog

%%BeginSetup
MathWorks begin

0 cap

end
%%EndSetup

%%Page: 1 1
%%BeginPageSetup
%%PageBoundingBox:   -56    64   652   776
MathWorks begin
bpage
%%EndPageSetup

%%BeginObject: obj1
bplot

/dpi2point 12 def
portraitMode -0672 9312 csm

    0     0  8502  8536 rc
86 dict begin %Colortable dictionary
/c0 { 0.000000 0.000000 0.000000 sr} bdef
/c1 { 1.000000 1.000000 1.000000 sr} bdef
/c2 { 0.900000 0.000000 0.000000 sr} bdef
/c3 { 0.000000 0.820000 0.000000 sr} bdef
/c4 { 0.000000 0.000000 0.800000 sr} bdef
/c5 { 0.910000 0.820000 0.320000 sr} bdef
/c6 { 1.000000 0.260000 0.820000 sr} bdef
/c7 { 0.000000 0.820000 0.820000 sr} bdef
c0
1 j
1 sg
   0    0 8503 8537 rf
6 w
0 1010 6589 0 0 -1010 1105 1650 4 MP
PP
-6589 0 0 1010 6589 0 0 -1010 1105 1650 5 MP stroke
4 w
DO
0 sg
1105 1650 mt 1105  640 L
1105  640 mt 1105  640 L
3301 1650 mt 3301  640 L
3301  640 mt 3301  640 L
5497 1650 mt 5497  640 L
5497  640 mt 5497  640 L
7694 1650 mt 7694  640 L
7694  640 mt 7694  640 L
1105 1650 mt 7694 1650 L
7694 1650 mt 7694 1650 L
1105 1313 mt 7694 1313 L
7694 1313 mt 7694 1313 L
1105  976 mt 7694  976 L
7694  976 mt 7694  976 L
1105  640 mt 7694  640 L
7694  640 mt 7694  640 L
SO
6 w
1105  640 mt 7694  640 L
1105 1650 mt 7694 1650 L
7694 1650 mt 7694  640 L
1105 1650 mt 1105  640 L
1105 1650 mt 7694 1650 L
1105 1650 mt 1105  640 L
1105 1650 mt 1105 1584 L
1105  640 mt 1105  705 L
%%IncludeResource: font Helvetica
/Helvetica /WindowsLatin1Encoding 120 FMSR

1072 1795 mt 
(0) s
3301 1650 mt 3301 1584 L
3301  640 mt 3301  705 L
3268 1795 mt 
(5) s
5497 1650 mt 5497 1584 L
5497  640 mt 5497  705 L
5431 1795 mt 
(10) s
7694 1650 mt 7694 1584 L
7694  640 mt 7694  705 L
7628 1795 mt 
(15) s
1105 1650 mt 1170 1650 L
7694 1650 mt 7628 1650 L
 834 1694 mt 
(-0.5) s
1105 1313 mt 1170 1313 L
7694 1313 mt 7628 1313 L
1004 1357 mt 
(0) s
1105  976 mt 1170  976 L
7694  976 mt 7628  976 L
 904 1020 mt 
(0.5) s
1105  640 mt 1170  640 L
7694  640 mt 7628  640 L
1004  684 mt 
(1) s
1105  640 mt 7694  640 L
1105 1650 mt 7694 1650 L
7694 1650 mt 7694  640 L
1105 1650 mt 1105  640 L
gs 1105 640 6590 1011 rc
/c8 { 0.000000 0.000000 1.000000 sr} bdef
c8
110 0 0 -1 110 0 0 -1 110 0 0 -2 110 0 0 -3 
110 0 0 -4 109 0 0 -5 110 0 0 -5 110 0 0 -7 
110 0 0 -7 110 0 0 -8 109 0 0 -8 110 0 0 -9 
110 0 0 -10 110 0 0 -11 110 0 0 -11 110 0 0 -12 
109 0 0 -12 110 0 0 -12 110 0 0 -13 110 0 0 -13 
110 0 0 -13 109 0 0 -13 110 0 0 -13 110 0 0 -12 
110 0 0 -12 110 0 0 -10 110 0 0 -10 109 0 0 -8 
110 0 0 -6 110 0 0 -4 110 0 0 -2 110 0 0 1 
109 0 0 4 110 0 0 9 110 0 0 12 110 0 0 17 
110 0 0 23 110 0 0 29 109 0 0 34 110 0 0 44 
110 0 0 48 110 0 0 62 110 0 0 62 109 0 0 87 
110 0 0 52 110 0 0 126 110 0 110 0 110 0 109 0 
110 0 110 0 110 0 110 0 109 0 110 0 110 0 110 0 
110 0 109 0 1105 960 107 MP stroke
gr

c8
0 sg
 752 1179 mt  -90 rotate
(u) s
90 rotate
1 sg
0 1010 6589 0 0 -1010 1105 3124 4 MP
PP
-6589 0 0 1010 6589 0 0 -1010 1105 3124 5 MP stroke
4 w
DO
0 sg
1105 3124 mt 1105 2114 L
1105 2114 mt 1105 2114 L
3301 3124 mt 3301 2114 L
3301 2114 mt 3301 2114 L
5497 3124 mt 5497 2114 L
5497 2114 mt 5497 2114 L
7694 3124 mt 7694 2114 L
7694 2114 mt 7694 2114 L
1105 3124 mt 7694 3124 L
7694 3124 mt 7694 3124 L
1105 2871 mt 7694 2871 L
7694 2871 mt 7694 2871 L
1105 2619 mt 7694 2619 L
7694 2619 mt 7694 2619 L
1105 2366 mt 7694 2366 L
7694 2366 mt 7694 2366 L
1105 2114 mt 7694 2114 L
7694 2114 mt 7694 2114 L
SO
6 w
1105 2114 mt 7694 2114 L
1105 3124 mt 7694 3124 L
7694 3124 mt 7694 2114 L
1105 3124 mt 1105 2114 L
1105 3124 mt 7694 3124 L
1105 3124 mt 1105 2114 L
1105 3124 mt 1105 3058 L
1105 2114 mt 1105 2179 L
1072 3269 mt 
(0) s
3301 3124 mt 3301 3058 L
3301 2114 mt 3301 2179 L
3268 3269 mt 
(5) s
5497 3124 mt 5497 3058 L
5497 2114 mt 5497 2179 L
5431 3269 mt 
(10) s
7694 3124 mt 7694 3058 L
7694 2114 mt 7694 2179 L
7628 3269 mt 
(15) s
1105 3124 mt 1170 3124 L
7694 3124 mt 7628 3124 L
1004 3168 mt 
(0) s
1105 2871 mt 1170 2871 L
7694 2871 mt 7628 2871 L
1004 2915 mt 
(1) s
1105 2619 mt 1170 2619 L
7694 2619 mt 7628 2619 L
1004 2663 mt 
(2) s
1105 2366 mt 1170 2366 L
7694 2366 mt 7628 2366 L
1004 2410 mt 
(3) s
1105 2114 mt 1170 2114 L
7694 2114 mt 7628 2114 L
1004 2158 mt 
(4) s
1105 2114 mt 7694 2114 L
1105 3124 mt 7694 3124 L
7694 3124 mt 7694 2114 L
1105 3124 mt 1105 2114 L
gs 1105 2114 6590 1011 rc
/c9 { 1.000000 0.000000 1.000000 sr} bdef
c9
110 0 110 1 110 0 110 0 110 0 109 1 110 0 110 1 
110 0 110 1 109 1 110 1 110 1 110 2 110 2 110 3 
109 3 110 3 110 4 110 4 110 5 109 6 110 7 110 7 
110 9 110 9 110 10 109 11 110 12 110 13 110 14 110 16 
109 16 110 17 110 19 110 19 110 20 110 21 109 21 110 22 
110 23 110 22 110 22 109 22 110 21 110 20 110 18 110 17 
110 15 109 14 110 13 110 11 110 10 110 8 109 7 110 5 
110 4 110 3 110 1 109 0 1105 2330 61 MP stroke
gr

c9
gs 1032 2257 6736 705 rc
  36   36 1105 2330 FO
  36   36 1214 2330 FO
  36   36 1324 2331 FO
  36   36 1434 2334 FO
  36   36 1544 2338 FO
  36   36 1654 2343 FO
  36   36 1763 2350 FO
  36   36 1873 2358 FO
  36   36 1983 2368 FO
  36   36 2093 2379 FO
  36   36 2203 2392 FO
  36   36 2312 2406 FO
  36   36 2422 2421 FO
  36   36 2532 2438 FO
  36   36 2642 2456 FO
  36   36 2752 2476 FO
  36   36 2862 2497 FO
  36   36 2971 2519 FO
  36   36 3081 2541 FO
  36   36 3191 2563 FO
  36   36 3301 2586 FO
  36   36 3411 2608 FO
  36   36 3520 2629 FO
  36   36 3630 2650 FO
  36   36 3740 2670 FO
  36   36 3850 2689 FO
  36   36 3960 2708 FO
  36   36 4070 2725 FO
  36   36 4179 2741 FO
  36   36 4289 2757 FO
  36   36 4399 2771 FO
  36   36 4509 2784 FO
  36   36 4619 2796 FO
  36   36 4728 2807 FO
  36   36 4838 2817 FO
  36   36 4948 2826 FO
  36   36 5058 2835 FO
  36   36 5168 2842 FO
  36   36 5278 2849 FO
  36   36 5387 2855 FO
  36   36 5497 2860 FO
  36   36 5607 2864 FO
  36   36 5717 2868 FO
  36   36 5827 2871 FO
  36   36 5936 2874 FO
  36   36 6046 2877 FO
  36   36 6156 2879 FO
  36   36 6266 2881 FO
  36   36 6376 2882 FO
  36   36 6486 2883 FO
  36   36 6595 2884 FO
  36   36 6705 2885 FO
  36   36 6815 2885 FO
  36   36 6925 2886 FO
  36   36 7035 2886 FO
  36   36 7144 2887 FO
  36   36 7254 2887 FO
  36   36 7364 2887 FO
  36   36 7474 2887 FO
  36   36 7584 2888 FO
  36   36 7694 2888 FO
gr

gs 1105 2114 6590 1011 rc
gr

0 sg
 922 2817 mt  -90 rotate
(lambda) s
90 rotate
1 sg
0 1010 6589 0 0 -1010 1105 4598 4 MP
PP
-6589 0 0 1010 6589 0 0 -1010 1105 4598 5 MP stroke
4 w
DO
0 sg
1105 4598 mt 1105 3588 L
1105 3588 mt 1105 3588 L
3301 4598 mt 3301 3588 L
3301 3588 mt 3301 3588 L
5497 4598 mt 5497 3588 L
5497 3588 mt 5497 3588 L
7694 4598 mt 7694 3588 L
7694 3588 mt 7694 3588 L
1105 4598 mt 7694 4598 L
7694 4598 mt 7694 4598 L
1105 4345 mt 7694 4345 L
7694 4345 mt 7694 4345 L
1105 4093 mt 7694 4093 L
7694 4093 mt 7694 4093 L
1105 3840 mt 7694 3840 L
7694 3840 mt 7694 3840 L
1105 3588 mt 7694 3588 L
7694 3588 mt 7694 3588 L
SO
6 w
1105 3588 mt 7694 3588 L
1105 4598 mt 7694 4598 L
7694 4598 mt 7694 3588 L
1105 4598 mt 1105 3588 L
1105 4598 mt 7694 4598 L
1105 4598 mt 1105 3588 L
1105 4598 mt 1105 4532 L
1105 3588 mt 1105 3653 L
1072 4743 mt 
(0) s
3301 4598 mt 3301 4532 L
3301 3588 mt 3301 3653 L
3268 4743 mt 
(5) s
5497 4598 mt 5497 4532 L
5497 3588 mt 5497 3653 L
5431 4743 mt 
(10) s
7694 4598 mt 7694 4532 L
7694 3588 mt 7694 3653 L
7628 4743 mt 
(15) s
1105 4598 mt 1170 4598 L
7694 4598 mt 7628 4598 L
 834 4642 mt 
(-0.4) s
1105 4345 mt 1170 4345 L
7694 4345 mt 7628 4345 L
 834 4389 mt 
(-0.3) s
1105 4093 mt 1170 4093 L
7694 4093 mt 7628 4093 L
 834 4137 mt 
(-0.2) s
1105 3840 mt 1170 3840 L
7694 3840 mt 7628 3840 L
 834 3884 mt 
(-0.1) s
1105 3588 mt 1170 3588 L
7694 3588 mt 7628 3588 L
1004 3632 mt 
(0) s
1105 3588 mt 7694 3588 L
1105 4598 mt 7694 4598 L
7694 4598 mt 7694 3588 L
1105 4598 mt 1105 3588 L
gs 1105 3588 6590 1011 rc
c9
110 0 110 0 110 -1 110 -1 110 -2 109 -2 110 -4 110 -4 
110 -5 110 -7 109 -8 110 -10 110 -11 110 -13 110 -14 110 -17 
109 -18 110 -21 110 -23 110 -25 110 -26 109 -30 110 -31 110 -33 
110 -35 110 -37 110 -38 109 -40 110 -41 110 -42 110 -42 110 -43 
109 -41 110 -40 110 -39 110 -36 110 -32 110 -28 109 -23 110 -15 
110 -8 110 1 110 12 109 25 110 38 110 53 110 58 110 58 
110 57 109 58 110 58 110 58 110 58 110 57 109 57 110 58 
110 61 110 64 110 49 109 13 1105 3588 61 MP stroke
gr

c9
gs 1032 3515 6736 1040 rc
  36   36 1105 3588 FO
  36   36 1214 3601 FO
  36   36 1324 3650 FO
  36   36 1434 3714 FO
  36   36 1544 3775 FO
  36   36 1654 3833 FO
  36   36 1763 3890 FO
  36   36 1873 3947 FO
  36   36 1983 4005 FO
  36   36 2093 4063 FO
  36   36 2203 4121 FO
  36   36 2312 4179 FO
  36   36 2422 4236 FO
  36   36 2532 4294 FO
  36   36 2642 4352 FO
  36   36 2752 4405 FO
  36   36 2862 4443 FO
  36   36 2971 4468 FO
  36   36 3081 4480 FO
  36   36 3191 4481 FO
  36   36 3301 4473 FO
  36   36 3411 4458 FO
  36   36 3520 4435 FO
  36   36 3630 4407 FO
  36   36 3740 4375 FO
  36   36 3850 4339 FO
  36   36 3960 4300 FO
  36   36 4070 4260 FO
  36   36 4179 4219 FO
  36   36 4289 4176 FO
  36   36 4399 4134 FO
  36   36 4509 4092 FO
  36   36 4619 4051 FO
  36   36 4728 4011 FO
  36   36 4838 3973 FO
  36   36 4948 3936 FO
  36   36 5058 3901 FO
  36   36 5168 3868 FO
  36   36 5278 3837 FO
  36   36 5387 3807 FO
  36   36 5497 3781 FO
  36   36 5607 3756 FO
  36   36 5717 3733 FO
  36   36 5827 3712 FO
  36   36 5936 3694 FO
  36   36 6046 3677 FO
  36   36 6156 3663 FO
  36   36 6266 3650 FO
  36   36 6376 3639 FO
  36   36 6486 3629 FO
  36   36 6595 3621 FO
  36   36 6705 3614 FO
  36   36 6815 3609 FO
  36   36 6925 3605 FO
  36   36 7035 3601 FO
  36   36 7144 3599 FO
  36   36 7254 3597 FO
  36   36 7364 3596 FO
  36   36 7474 3595 FO
  36   36 7584 3595 FO
  36   36 7694 3595 FO
gr

gs 1105 3588 6590 1011 rc
gr

0 sg
 752 4114 mt  -90 rotate
(r) s
90 rotate
1 sg
0 1009 6589 0 0 -1009 1105 6071 4 MP
PP
-6589 0 0 1009 6589 0 0 -1009 1105 6071 5 MP stroke
4 w
DO
0 sg
1105 6071 mt 1105 5062 L
1105 5062 mt 1105 5062 L
3301 6071 mt 3301 5062 L
3301 5062 mt 3301 5062 L
5497 6071 mt 5497 5062 L
5497 5062 mt 5497 5062 L
7694 6071 mt 7694 5062 L
7694 5062 mt 7694 5062 L
1105 6071 mt 7694 6071 L
7694 6071 mt 7694 6071 L
1105 5734 mt 7694 5734 L
7694 5734 mt 7694 5734 L
1105 5398 mt 7694 5398 L
7694 5398 mt 7694 5398 L
1105 5062 mt 7694 5062 L
7694 5062 mt 7694 5062 L
SO
6 w
1105 5062 mt 7694 5062 L
1105 6071 mt 7694 6071 L
7694 6071 mt 7694 5062 L
1105 6071 mt 1105 5062 L
1105 6071 mt 7694 6071 L
1105 6071 mt 1105 5062 L
1105 6071 mt 1105 6005 L
1105 5062 mt 1105 5127 L
1072 6216 mt 
(0) s
3301 6071 mt 3301 6005 L
3301 5062 mt 3301 5127 L
3268 6216 mt 
(5) s
5497 6071 mt 5497 6005 L
5497 5062 mt 5497 5127 L
5431 6216 mt 
(10) s
7694 6071 mt 7694 6005 L
7694 5062 mt 7694 5127 L
7628 6216 mt 
(15) s
1105 6071 mt 1170 6071 L
7694 6071 mt 7628 6071 L
 834 6115 mt 
(-0.5) s
1105 5734 mt 1170 5734 L
7694 5734 mt 7628 5734 L
1004 5778 mt 
(0) s
1105 5398 mt 1170 5398 L
7694 5398 mt 7628 5398 L
 904 5442 mt 
(0.5) s
1105 5062 mt 1170 5062 L
7694 5062 mt 7628 5062 L
1004 5106 mt 
(1) s
1105 5062 mt 7694 5062 L
1105 6071 mt 7694 6071 L
7694 6071 mt 7694 5062 L
1105 6071 mt 1105 5062 L
gs 1105 5062 6590 1010 rc
c9
110 -1 110 -2 110 -2 110 -4 110 -4 109 -5 110 -5 110 -7 
110 -7 110 -8 109 -9 110 -9 110 -10 110 -11 110 -11 110 -12 
109 -12 110 -13 110 -13 110 -13 110 -13 109 -13 110 -12 110 -13 
110 -11 110 -10 110 -10 109 -7 110 -6 110 -4 110 -1 110 2 
109 5 110 10 110 13 110 19 110 24 110 30 109 37 110 45 
110 52 110 61 110 70 109 80 110 90 110 72 110 0 110 0 
110 0 109 0 110 0 110 1 110 -1 110 -2 109 -2 110 10 
110 27 110 -13 110 -170 109 -202 1105 5734 61 MP stroke
gr

c9
gs 1032 5276 6736 790 rc
  36   36 1105 5734 FO
  36   36 1214 5532 FO
  36   36 1324 5362 FO
  36   36 1434 5349 FO
  36   36 1544 5376 FO
  36   36 1654 5386 FO
  36   36 1763 5384 FO
  36   36 1873 5382 FO
  36   36 1983 5381 FO
  36   36 2093 5382 FO
  36   36 2203 5382 FO
  36   36 2312 5382 FO
  36   36 2422 5382 FO
  36   36 2532 5382 FO
  36   36 2642 5382 FO
  36   36 2752 5454 FO
  36   36 2862 5544 FO
  36   36 2971 5624 FO
  36   36 3081 5694 FO
  36   36 3191 5755 FO
  36   36 3301 5807 FO
  36   36 3411 5852 FO
  36   36 3520 5889 FO
  36   36 3630 5919 FO
  36   36 3740 5943 FO
  36   36 3850 5962 FO
  36   36 3960 5975 FO
  36   36 4070 5985 FO
  36   36 4179 5990 FO
  36   36 4289 5992 FO
  36   36 4399 5991 FO
  36   36 4509 5987 FO
  36   36 4619 5981 FO
  36   36 4728 5974 FO
  36   36 4838 5964 FO
  36   36 4948 5954 FO
  36   36 5058 5943 FO
  36   36 5168 5930 FO
  36   36 5278 5918 FO
  36   36 5387 5905 FO
  36   36 5497 5892 FO
  36   36 5607 5879 FO
  36   36 5717 5866 FO
  36   36 5827 5853 FO
  36   36 5936 5841 FO
  36   36 6046 5829 FO
  36   36 6156 5818 FO
  36   36 6266 5807 FO
  36   36 6376 5797 FO
  36   36 6486 5788 FO
  36   36 6595 5779 FO
  36   36 6705 5771 FO
  36   36 6815 5764 FO
  36   36 6925 5757 FO
  36   36 7035 5752 FO
  36   36 7144 5747 FO
  36   36 7254 5743 FO
  36   36 7364 5739 FO
  36   36 7474 5737 FO
  36   36 7584 5735 FO
  36   36 7694 5734 FO
gr

gs 1105 5062 6590 1010 rc
gr

0 sg
 752 5600 mt  -90 rotate
(p) s
90 rotate
1 sg
0 1009 6589 0 0 -1009 1105 7545 4 MP
PP
-6589 0 0 1009 6589 0 0 -1009 1105 7545 5 MP stroke
4 w
DO
0 sg
1105 7545 mt 1105 6536 L
1105 6536 mt 1105 6536 L
3301 7545 mt 3301 6536 L
3301 6536 mt 3301 6536 L
5497 7545 mt 5497 6536 L
5497 6536 mt 5497 6536 L
7694 7545 mt 7694 6536 L
7694 6536 mt 7694 6536 L
1105 7545 mt 7694 7545 L
7694 7545 mt 7694 7545 L
1105 7208 mt 7694 7208 L
7694 7208 mt 7694 7208 L
1105 6872 mt 7694 6872 L
7694 6872 mt 7694 6872 L
1105 6536 mt 7694 6536 L
7694 6536 mt 7694 6536 L
SO
6 w
1105 6536 mt 7694 6536 L
1105 7545 mt 7694 7545 L
7694 7545 mt 7694 6536 L
1105 7545 mt 1105 6536 L
1105 7545 mt 7694 7545 L
1105 7545 mt 1105 6536 L
1105 7545 mt 1105 7479 L
1105 6536 mt 1105 6601 L
1072 7690 mt 
(0) s
3301 7545 mt 3301 7479 L
3301 6536 mt 3301 6601 L
3268 7690 mt 
(5) s
5497 7545 mt 5497 7479 L
5497 6536 mt 5497 6601 L
5431 7690 mt 
(10) s
7694 7545 mt 7694 7479 L
7694 6536 mt 7694 6601 L
7628 7690 mt 
(15) s
1105 7545 mt 1170 7545 L
7694 7545 mt 7628 7545 L
 934 7589 mt 
(-1) s
1105 7208 mt 1170 7208 L
7694 7208 mt 7628 7208 L
1004 7252 mt 
(0) s
1105 6872 mt 1170 6872 L
7694 6872 mt 7628 6872 L
1004 6916 mt 
(1) s
1105 6536 mt 1170 6536 L
7694 6536 mt 7628 6536 L
1004 6580 mt 
(2) s
1105 6536 mt 7694 6536 L
1105 7545 mt 7694 7545 L
7694 7545 mt 7694 6536 L
1105 7545 mt 1105 6536 L
gs 1105 6536 6590 1010 rc
c9
110 1 110 2 110 1 110 1 110 1 109 2 110 1 110 1 
110 2 110 1 109 1 110 1 110 1 110 1 110 1 110 1 
109 0 110 1 110 0 110 0 110 0 109 0 110 -1 110 -1 
110 -1 110 -2 110 -3 109 -2 110 -4 110 -4 110 -4 110 -6 
109 -6 110 -7 110 -8 110 -8 110 -10 110 -10 109 -13 110 -11 
110 -17 110 -8 110 -27 109 3 110 -54 110 183 110 0 110 0 
110 0 109 0 110 -1 110 0 110 3 110 5 109 -11 110 -38 
110 -7 110 200 110 361 109 -512 1105 7208 61 MP stroke
gr

c9
gs 1032 6623 6736 842 rc
  36   36 1105 7208 FO
  36   36 1214 6696 FO
  36   36 1324 7057 FO
  36   36 1434 7257 FO
  36   36 1544 7250 FO
  36   36 1654 7212 FO
  36   36 1763 7201 FO
  36   36 1873 7206 FO
  36   36 1983 7209 FO
  36   36 2093 7209 FO
  36   36 2203 7208 FO
  36   36 2312 7208 FO
  36   36 2422 7208 FO
  36   36 2532 7208 FO
  36   36 2642 7208 FO
  36   36 2752 7391 FO
  36   36 2862 7337 FO
  36   36 2971 7340 FO
  36   36 3081 7313 FO
  36   36 3191 7305 FO
  36   36 3301 7288 FO
  36   36 3411 7277 FO
  36   36 3520 7264 FO
  36   36 3630 7254 FO
  36   36 3740 7244 FO
  36   36 3850 7236 FO
  36   36 3960 7228 FO
  36   36 4070 7221 FO
  36   36 4179 7215 FO
  36   36 4289 7209 FO
  36   36 4399 7205 FO
  36   36 4509 7201 FO
  36   36 4619 7197 FO
  36   36 4728 7195 FO
  36   36 4838 7192 FO
  36   36 4948 7190 FO
  36   36 5058 7189 FO
  36   36 5168 7188 FO
  36   36 5278 7187 FO
  36   36 5387 7187 FO
  36   36 5497 7187 FO
  36   36 5607 7187 FO
  36   36 5717 7187 FO
  36   36 5827 7188 FO
  36   36 5936 7188 FO
  36   36 6046 7189 FO
  36   36 6156 7190 FO
  36   36 6266 7191 FO
  36   36 6376 7192 FO
  36   36 6486 7193 FO
  36   36 6595 7194 FO
  36   36 6705 7195 FO
  36   36 6815 7197 FO
  36   36 6925 7198 FO
  36   36 7035 7199 FO
  36   36 7144 7201 FO
  36   36 7254 7202 FO
  36   36 7364 7203 FO
  36   36 7474 7204 FO
  36   36 7584 7206 FO
  36   36 7694 7207 FO
gr

gs 1105 6536 6590 1010 rc
gr

0 sg
4248 7833 mt 
(tid \(s\)) s
 852 7158 mt  -90 rotate
(pdot) s
90 rotate

end %%Color Dict

eplot
%%EndObject

epage
end

showpage

%%Trailer
%%EOF
